%!PS-Adobe-2.0 EPSF-2.0
%%Title: /home/nikita/Documents/University/Kursovaya/Gusche/funcstruct.dia
%%Creator: Dia v0.97.2
%%CreationDate: Tue May  6 01:26:00 2014
%%For: nikita
%%Orientation: Portrait
%%Magnification: 1.0000
%%BoundingBox: 0 0 1055 98
%%BeginSetup
%%EndSetup
%%EndComments
%%BeginProlog
[ /.notdef /.notdef /.notdef /.notdef /.notdef /.notdef /.notdef /.notdef /.notdef /.notdef
/.notdef /.notdef /.notdef /.notdef /.notdef /.notdef /.notdef /.notdef /.notdef /.notdef
/.notdef /.notdef /.notdef /.notdef /.notdef /.notdef /.notdef /.notdef /.notdef /.notdef
/.notdef /.notdef /space /exclam /quotedbl /numbersign /dollar /percent /ampersand /quoteright
/parenleft /parenright /asterisk /plus /comma /hyphen /period /slash /zero /one
/two /three /four /five /six /seven /eight /nine /colon /semicolon
/less /equal /greater /question /at /A /B /C /D /E
/F /G /H /I /J /K /L /M /N /O
/P /Q /R /S /T /U /V /W /X /Y
/Z /bracketleft /backslash /bracketright /asciicircum /underscore /quoteleft /a /b /c
/d /e /f /g /h /i /j /k /l /m
/n /o /p /q /r /s /t /u /v /w
/x /y /z /braceleft /bar /braceright /asciitilde /.notdef /.notdef /.notdef
/.notdef /.notdef /.notdef /.notdef /.notdef /.notdef /.notdef /.notdef /.notdef /.notdef
/.notdef /.notdef /.notdef /.notdef /.notdef /.notdef /.notdef /.notdef /.notdef /.notdef
/.notdef /.notdef /.notdef /.notdef /.notdef /.notdef /.notdef /.notdef /.notdef /.notdef
/space /exclamdown /cent /sterling /currency /yen /brokenbar /section /dieresis /copyright
/ordfeminine /guillemotleft /logicalnot /hyphen /registered /macron /degree /plusminus /twosuperior /threesuperior
/acute /mu /paragraph /periodcentered /cedilla /onesuperior /ordmasculine /guillemotright /onequarter /onehalf
/threequarters /questiondown /Agrave /Aacute /Acircumflex /Atilde /Adieresis /Aring /AE /Ccedilla
/Egrave /Eacute /Ecircumflex /Edieresis /Igrave /Iacute /Icircumflex /Idieresis /Eth /Ntilde
/Ograve /Oacute /Ocircumflex /Otilde /Odieresis /multiply /Oslash /Ugrave /Uacute /Ucircumflex
/Udieresis /Yacute /Thorn /germandbls /agrave /aacute /acircumflex /atilde /adieresis /aring
/ae /ccedilla /egrave /eacute /ecircumflex /edieresis /igrave /iacute /icircumflex /idieresis
/eth /ntilde /ograve /oacute /ocircumflex /otilde /odieresis /divide /oslash /ugrave
/uacute /ucircumflex /udieresis /yacute /thorn /ydieresis] /isolatin1encoding exch def
/cp {closepath} bind def
/c {curveto} bind def
/f {fill} bind def
/a {arc} bind def
/ef {eofill} bind def
/ex {exch} bind def
/gr {grestore} bind def
/gs {gsave} bind def
/sa {save} bind def
/rs {restore} bind def
/l {lineto} bind def
/m {moveto} bind def
/rm {rmoveto} bind def
/n {newpath} bind def
/s {stroke} bind def
/sh {show} bind def
/slc {setlinecap} bind def
/slj {setlinejoin} bind def
/slw {setlinewidth} bind def
/srgb {setrgbcolor} bind def
/rot {rotate} bind def
/sc {scale} bind def
/sd {setdash} bind def
/ff {findfont} bind def
/sf {setfont} bind def
/scf {scalefont} bind def
/sw {stringwidth pop} bind def
/tr {translate} bind def

/ellipsedict 8 dict def
ellipsedict /mtrx matrix put
/ellipse
{ ellipsedict begin
   /endangle exch def
   /startangle exch def
   /yrad exch def
   /xrad exch def
   /y exch def
   /x exch def   /savematrix mtrx currentmatrix def
   x y tr xrad yrad sc
   0 0 1 startangle endangle arc
   savematrix setmatrix
   end
} def

/mergeprocs {
dup length
3 -1 roll
dup
length
dup
5 1 roll
3 -1 roll
add
array cvx
dup
3 -1 roll
0 exch
putinterval
dup
4 2 roll
putinterval
} bind def
/dpi_x 300 def
/dpi_y 300 def
/conicto {
    /to_y exch def
    /to_x exch def
    /conic_cntrl_y exch def
    /conic_cntrl_x exch def
    currentpoint
    /p0_y exch def
    /p0_x exch def
    /p1_x p0_x conic_cntrl_x p0_x sub 2 3 div mul add def
    /p1_y p0_y conic_cntrl_y p0_y sub 2 3 div mul add def
    /p2_x p1_x to_x p0_x sub 1 3 div mul add def
    /p2_y p1_y to_y p0_y sub 1 3 div mul add def
    p1_x p1_y p2_x p2_y to_x to_y curveto
} bind def
/start_ol { gsave 1.1 dpi_x div dup scale} bind def
/end_ol { closepath fill grestore } bind def
28.346000 -28.346000 scale
-7.400000 -10.750000 translate
%%EndProlog


0.100000 slw
[] 0 sd
0.000000 0.000000 0.000000 srgb
n 7.950000 9.400000 0.500000 0.500000 0 360 ellipse f
0.100000 slw
[] 0 sd
1.000000 1.000000 1.000000 srgb
n 11.600000 8.100000 m 11.600000 10.700000 l 18.160000 10.700000 l 18.160000 8.100000 l f
n 11.600000 8.600000 m 11.600000 8.600000 0.500000 0.500000 180.000000 270.000000 ellipse f
n 18.160000 8.600000 m 18.160000 8.600000 0.500000 0.500000 270.000000 360.000000 ellipse f
n 11.100000 8.600000 m 11.100000 10.200000 l 18.660000 10.200000 l 18.660000 8.600000 l f
n 11.600000 10.200000 m 11.600000 10.200000 0.500000 0.500000 90.000000 180.000000 ellipse f
n 18.160000 10.200000 m 18.160000 10.200000 0.500000 0.500000 0.000000 90.000000 ellipse f
0.000000 0.000000 0.000000 srgb
n 11.600000 8.100000 m 18.160000 8.100000 l s
n 11.600000 10.700000 m 18.160000 10.700000 l s
n 11.600000 8.600000 0.500000 0.500000 180.000000 270.000000 ellipse s
n 18.160000 8.600000 0.500000 0.500000 270.000000 360.000000 ellipse s
n 11.100000 8.600000 m 11.100000 10.200000 l s
n 18.660000 8.600000 m 18.660000 10.200000 l s
n 11.600000 10.200000 0.500000 0.500000 90.000000 180.000000 ellipse s
n 18.160000 10.200000 0.500000 0.500000 0.000000 90.000000 ellipse s
gsave 11.600000 9.195000 translate 0.035278 -0.035278 scale
start_ol
3136 3520 moveto
3136 0 lineto
2624 0 lineto
2624 3136 lineto
960 3136 lineto
960 0 lineto
448 0 lineto
448 3520 lineto
3136 3520 lineto
end_ol grestore 
gsave 12.079549 9.195000 translate 0.035278 -0.035278 scale
start_ol
1473 2368 moveto
1117 2368 910 2094 conicto
704 1820 704 1344 conicto
704 868 909 594 conicto
1115 320 1473 320 conicto
1827 320 2033 595 conicto
2240 870 2240 1344 conicto
2240 1816 2033 2092 conicto
1827 2368 1473 2368 conicto
1472 2752 moveto
2040 2752 2364 2378 conicto
2688 2005 2688 1344 conicto
2688 685 2364 310 conicto
2040 -64 1472 -64 conicto
902 -64 579 310 conicto
256 685 256 1344 conicto
256 2005 579 2378 conicto
902 2752 1472 2752 conicto
end_ol grestore 
gsave 12.471678 9.195000 translate 0.035278 -0.035278 scale
start_ol
192 0 moveto
192 320 lineto
611 389 740 697 conicto
896 1131 896 2240 conicto
896 2688 lineto
2688 2688 lineto
2688 0 lineto
2240 0 lineto
2240 2368 lineto
1344 2368 lineto
1344 2098 lineto
1344 1046 1137 574 conicto
916 71 192 0 conicto
end_ol grestore 
gsave 12.881294 9.195000 translate 0.035278 -0.035278 scale
start_ol
1542 -238 moveto
1360 -726 1187 -875 conicto
1015 -1024 726 -1024 conicto
384 -1024 lineto
384 -640 lineto
636 -640 lineto
813 -640 910 -555 conicto
1008 -470 1127 -155 conicto
1204 46 lineto
128 2688 lineto
603 2688 lineto
1418 586 lineto
2234 2688 lineto
2688 2688 lineto
1542 -238 lineto
end_ol grestore 
gsave 13.260938 9.195000 translate 0.035278 -0.035278 scale
start_ol
1984 0 moveto
1984 1152 lineto
1189 1152 lineto
834 1152 597 1377 conicto
384 1580 384 2016 conicto
384 2688 lineto
832 2688 lineto
832 2041 lineto
832 1758 950 1615 conicto
1071 1472 1308 1472 conicto
1984 1472 lineto
1984 2688 lineto
2432 2688 lineto
2432 0 lineto
1984 0 lineto
end_ol grestore 
gsave 13.638085 9.195000 translate 0.035278 -0.035278 scale
start_ol
2752 1480 moveto
2752 1280 lineto
704 1280 lineto
733 811 978 565 conicto
1223 320 1660 320 conicto
1914 320 2152 384 conicto
2390 448 2624 576 conicto
2624 192 lineto
2388 67 2140 1 conicto
1893 -64 1639 -64 conicto
1001 -64 628 309 conicto
256 683 256 1320 conicto
256 1979 613 2365 conicto
970 2752 1576 2752 conicto
2120 2752 2436 2410 conicto
2752 2068 2752 1480 conicto
2304 1600 moveto
2299 1950 2099 2159 conicto
1900 2368 1572 2368 conicto
1200 2368 976 2166 conicto
753 1964 719 1597 conicto
2304 1600 lineto
end_ol grestore 
gsave 14.032711 9.195000 translate 0.035278 -0.035278 scale
start_ol
448 2688 moveto
896 2688 lineto
896 1600 lineto
2304 1600 lineto
2304 2688 lineto
2752 2688 lineto
2752 0 lineto
2304 0 lineto
2304 1280 lineto
896 1280 lineto
896 0 lineto
448 0 lineto
448 2688 lineto
end_ol grestore 
gsave 14.449819 9.195000 translate 0.035278 -0.035278 scale
start_ol
2752 2688 moveto
2752 0 lineto
2304 0 lineto
2304 2158 lineto
1022 0 lineto
448 0 lineto
448 2688 lineto
896 2688 lineto
896 535 lineto
2176 2688 lineto
2752 2688 lineto
end_ol grestore 
gsave 14.864429 9.195000 translate 0.035278 -0.035278 scale
start_ol
2752 1480 moveto
2752 1280 lineto
704 1280 lineto
733 811 978 565 conicto
1223 320 1660 320 conicto
1914 320 2152 384 conicto
2390 448 2624 576 conicto
2624 192 lineto
2388 67 2140 1 conicto
1893 -64 1639 -64 conicto
1001 -64 628 309 conicto
256 683 256 1320 conicto
256 1979 613 2365 conicto
970 2752 1576 2752 conicto
2120 2752 2436 2410 conicto
2752 2068 2752 1480 conicto
2304 1600 moveto
2299 1950 2099 2159 conicto
1900 2368 1572 2368 conicto
1200 2368 976 2166 conicto
753 1964 719 1597 conicto
2304 1600 lineto
end_ol grestore 
gsave 15.259055 9.195000 translate 0.035278 -0.035278 scale
start_ol
end_ol grestore 
gsave 15.461362 9.195000 translate 0.035278 -0.035278 scale
start_ol
1689 1450 moveto
1983 1393 2143 1218 conicto
2304 1044 2304 785 conicto
2304 371 1997 153 conicto
1691 -64 1125 -64 conicto
935 -64 734 -16 conicto
534 32 320 128 conicto
320 512 lineto
487 416 686 368 conicto
886 320 1104 320 conicto
1459 320 1657 455 conicto
1856 591 1856 808 conicto
1856 1021 1679 1150 conicto
1503 1280 1180 1280 conicto
832 1280 lineto
832 1600 lineto
1199 1600 lineto
1473 1600 1632 1708 conicto
1792 1817 1792 1988 conicto
1792 2144 1625 2256 conicto
1459 2368 1173 2368 conicto
1003 2368 810 2337 conicto
617 2307 384 2240 conicto
384 2624 lineto
621 2688 827 2720 conicto
1033 2752 1216 2752 conicto
1691 2752 1965 2564 conicto
2240 2376 2240 2039 conicto
2240 1817 2097 1662 conicto
1955 1508 1689 1450 conicto
end_ol grestore 
gsave 15.801038 9.195000 translate 0.035278 -0.035278 scale
start_ol
1622 1344 moveto
1104 1344 904 1225 conicto
704 1106 704 818 conicto
704 589 854 454 conicto
1004 320 1262 320 conicto
1618 320 1833 572 conicto
2048 825 2048 1244 conicto
2048 1344 lineto
1622 1344 lineto
2496 1513 moveto
2496 0 lineto
2048 0 lineto
2048 384 lineto
1900 154 1679 45 conicto
1458 -64 1138 -64 conicto
733 -64 494 162 conicto
256 389 256 769 conicto
256 1213 555 1438 conicto
854 1664 1448 1664 conicto
2048 1664 lineto
2048 1712 lineto
2048 2025 1851 2196 conicto
1655 2368 1300 2368 conicto
1074 2368 860 2320 conicto
646 2272 448 2176 conicto
448 2560 lineto
687 2656 912 2704 conicto
1138 2752 1351 2752 conicto
1927 2752 2211 2444 conicto
2496 2137 2496 1513 conicto
end_ol grestore 
gsave 16.193167 9.195000 translate 0.035278 -0.035278 scale
start_ol
2752 2688 moveto
2752 0 lineto
2304 0 lineto
2304 2368 lineto
896 2368 lineto
896 0 lineto
448 0 lineto
448 2688 lineto
2752 2688 lineto
end_ol grestore 
gsave 16.610274 9.195000 translate 0.035278 -0.035278 scale
start_ol
896 384 moveto
896 -1024 lineto
448 -1024 lineto
448 2688 lineto
896 2688 lineto
896 2304 lineto
1032 2531 1240 2641 conicto
1448 2752 1737 2752 conicto
2217 2752 2516 2364 conicto
2816 1976 2816 1344 conicto
2816 712 2516 324 conicto
2217 -64 1737 -64 conicto
1448 -64 1240 46 conicto
1032 157 896 384 conicto
2368 1344 moveto
2368 1823 2171 2095 conicto
1975 2368 1632 2368 conicto
1289 2368 1092 2095 conicto
896 1823 896 1344 conicto
896 865 1092 592 conicto
1289 320 1632 320 conicto
1975 320 2171 592 conicto
2368 865 2368 1344 conicto
end_ol grestore 
gsave 17.017393 9.195000 translate 0.035278 -0.035278 scale
start_ol
1473 2368 moveto
1117 2368 910 2094 conicto
704 1820 704 1344 conicto
704 868 909 594 conicto
1115 320 1473 320 conicto
1827 320 2033 595 conicto
2240 870 2240 1344 conicto
2240 1816 2033 2092 conicto
1827 2368 1473 2368 conicto
1472 2752 moveto
2040 2752 2364 2378 conicto
2688 2005 2688 1344 conicto
2688 685 2364 310 conicto
2040 -64 1472 -64 conicto
902 -64 579 310 conicto
256 685 256 1344 conicto
256 2005 579 2378 conicto
902 2752 1472 2752 conicto
end_ol grestore 
gsave 17.409522 9.195000 translate 0.035278 -0.035278 scale
start_ol
2368 2560 moveto
2368 2176 lineto
2180 2272 1991 2320 conicto
1803 2368 1611 2368 conicto
1180 2368 942 2099 conicto
704 1830 704 1344 conicto
704 858 942 589 conicto
1180 320 1611 320 conicto
1803 320 1991 368 conicto
2180 416 2368 512 conicto
2368 128 lineto
2184 32 1987 -16 conicto
1791 -64 1569 -64 conicto
966 -64 611 316 conicto
256 697 256 1344 conicto
256 2000 615 2376 conicto
974 2752 1598 2752 conicto
1801 2752 1994 2704 conicto
2187 2656 2368 2560 conicto
end_ol grestore 
gsave 17.761691 9.195000 translate 0.035278 -0.035278 scale
start_ol
1622 1344 moveto
1104 1344 904 1225 conicto
704 1106 704 818 conicto
704 589 854 454 conicto
1004 320 1262 320 conicto
1618 320 1833 572 conicto
2048 825 2048 1244 conicto
2048 1344 lineto
1622 1344 lineto
2496 1513 moveto
2496 0 lineto
2048 0 lineto
2048 384 lineto
1900 154 1679 45 conicto
1458 -64 1138 -64 conicto
733 -64 494 162 conicto
256 389 256 769 conicto
256 1213 555 1438 conicto
854 1664 1448 1664 conicto
2048 1664 lineto
2048 1712 lineto
2048 2025 1851 2196 conicto
1655 2368 1300 2368 conicto
1074 2368 860 2320 conicto
646 2272 448 2176 conicto
448 2560 lineto
687 2656 912 2704 conicto
1138 2752 1351 2752 conicto
1927 2752 2211 2444 conicto
2496 2137 2496 1513 conicto
end_ol grestore 
gsave 12.546250 9.995000 translate 0.035278 -0.035278 scale
start_ol
2752 2688 moveto
2752 0 lineto
2304 0 lineto
2304 2368 lineto
896 2368 lineto
896 0 lineto
448 0 lineto
448 2688 lineto
2752 2688 lineto
end_ol grestore 
gsave 12.963357 9.995000 translate 0.035278 -0.035278 scale
start_ol
1473 2368 moveto
1117 2368 910 2094 conicto
704 1820 704 1344 conicto
704 868 909 594 conicto
1115 320 1473 320 conicto
1827 320 2033 595 conicto
2240 870 2240 1344 conicto
2240 1816 2033 2092 conicto
1827 2368 1473 2368 conicto
1472 2752 moveto
2040 2752 2364 2378 conicto
2688 2005 2688 1344 conicto
2688 685 2364 310 conicto
2040 -64 1472 -64 conicto
902 -64 579 310 conicto
256 685 256 1344 conicto
256 2005 579 2378 conicto
902 2752 1472 2752 conicto
end_ol grestore 
gsave 13.355486 9.995000 translate 0.035278 -0.035278 scale
start_ol
192 0 moveto
192 320 lineto
611 389 740 697 conicto
896 1131 896 2240 conicto
896 2688 lineto
2688 2688 lineto
2688 0 lineto
2240 0 lineto
2240 2368 lineto
1344 2368 lineto
1344 2098 lineto
1344 1046 1137 574 conicto
916 71 192 0 conicto
end_ol grestore 
gsave 13.765103 9.995000 translate 0.035278 -0.035278 scale
start_ol
2112 801 moveto
2112 1035 1958 1157 conicto
1805 1280 1510 1280 conicto
896 1280 lineto
896 320 lineto
1510 320 lineto
1805 320 1958 443 conicto
2112 567 2112 801 conicto
448 2688 moveto
896 2688 lineto
896 1600 lineto
1524 1600 lineto
2022 1600 2291 1403 conicto
2560 1207 2560 801 conicto
2560 396 2289 198 conicto
2018 0 1516 0 conicto
448 0 lineto
448 2688 lineto
end_ol grestore 
gsave 14.142250 9.995000 translate 0.035278 -0.035278 scale
start_ol
1689 1450 moveto
1983 1393 2143 1218 conicto
2304 1044 2304 785 conicto
2304 371 1997 153 conicto
1691 -64 1125 -64 conicto
935 -64 734 -16 conicto
534 32 320 128 conicto
320 512 lineto
487 416 686 368 conicto
886 320 1104 320 conicto
1459 320 1657 455 conicto
1856 591 1856 808 conicto
1856 1021 1679 1150 conicto
1503 1280 1180 1280 conicto
832 1280 lineto
832 1600 lineto
1199 1600 lineto
1473 1600 1632 1708 conicto
1792 1817 1792 1988 conicto
1792 2144 1625 2256 conicto
1459 2368 1173 2368 conicto
1003 2368 810 2337 conicto
617 2307 384 2240 conicto
384 2624 lineto
621 2688 827 2720 conicto
1033 2752 1216 2752 conicto
1691 2752 1965 2564 conicto
2240 2376 2240 2039 conicto
2240 1817 2097 1662 conicto
1955 1508 1689 1450 conicto
end_ol grestore 
gsave 14.481925 9.995000 translate 0.035278 -0.035278 scale
start_ol
1473 2368 moveto
1117 2368 910 2094 conicto
704 1820 704 1344 conicto
704 868 909 594 conicto
1115 320 1473 320 conicto
1827 320 2033 595 conicto
2240 870 2240 1344 conicto
2240 1816 2033 2092 conicto
1827 2368 1473 2368 conicto
1472 2752 moveto
2040 2752 2364 2378 conicto
2688 2005 2688 1344 conicto
2688 685 2364 310 conicto
2040 -64 1472 -64 conicto
902 -64 579 310 conicto
256 685 256 1344 conicto
256 2005 579 2378 conicto
902 2752 1472 2752 conicto
end_ol grestore 
gsave 14.874054 9.995000 translate 0.035278 -0.035278 scale
start_ol
896 1280 moveto
896 320 lineto
1509 320 lineto
1803 320 1957 443 conicto
2112 567 2112 801 conicto
2112 1035 1957 1157 conicto
1803 1280 1509 1280 conicto
896 1280 lineto
896 2368 moveto
896 1600 lineto
1447 1600 lineto
1684 1600 1834 1703 conicto
1984 1806 1984 1989 conicto
1984 2172 1834 2270 conicto
1684 2368 1447 2368 conicto
896 2368 lineto
448 2688 moveto
1474 2688 lineto
1935 2688 2183 2515 conicto
2432 2342 2432 2023 conicto
2432 1776 2304 1631 conicto
2176 1486 1924 1450 conicto
2226 1392 2393 1209 conicto
2560 1027 2560 754 conicto
2560 394 2289 197 conicto
2018 0 1516 0 conicto
448 0 lineto
448 2688 lineto
end_ol grestore 
gsave 15.251201 9.995000 translate 0.035278 -0.035278 scale
start_ol
1622 1344 moveto
1104 1344 904 1225 conicto
704 1106 704 818 conicto
704 589 854 454 conicto
1004 320 1262 320 conicto
1618 320 1833 572 conicto
2048 825 2048 1244 conicto
2048 1344 lineto
1622 1344 lineto
2496 1513 moveto
2496 0 lineto
2048 0 lineto
2048 384 lineto
1900 154 1679 45 conicto
1458 -64 1138 -64 conicto
733 -64 494 162 conicto
256 389 256 769 conicto
256 1213 555 1438 conicto
854 1664 1448 1664 conicto
2048 1664 lineto
2048 1712 lineto
2048 2025 1851 2196 conicto
1655 2368 1300 2368 conicto
1074 2368 860 2320 conicto
646 2272 448 2176 conicto
448 2560 lineto
687 2656 912 2704 conicto
1138 2752 1351 2752 conicto
1927 2752 2211 2444 conicto
2496 2137 2496 1513 conicto
end_ol grestore 
gsave 15.643330 9.995000 translate 0.035278 -0.035278 scale
start_ol
128 2688 moveto
2752 2688 lineto
2752 2368 lineto
1664 2368 lineto
1664 0 lineto
1216 0 lineto
1216 2368 lineto
128 2368 lineto
128 2688 lineto
end_ol grestore 
gsave 16.020477 9.995000 translate 0.035278 -0.035278 scale
start_ol
2752 1480 moveto
2752 1280 lineto
704 1280 lineto
733 811 978 565 conicto
1223 320 1660 320 conicto
1914 320 2152 384 conicto
2390 448 2624 576 conicto
2624 192 lineto
2388 67 2140 1 conicto
1893 -64 1639 -64 conicto
1001 -64 628 309 conicto
256 683 256 1320 conicto
256 1979 613 2365 conicto
970 2752 1576 2752 conicto
2120 2752 2436 2410 conicto
2752 2068 2752 1480 conicto
2304 1600 moveto
2299 1950 2099 2159 conicto
1900 2368 1572 2368 conicto
1200 2368 976 2166 conicto
753 1964 719 1597 conicto
2304 1600 lineto
end_ol grestore 
gsave 16.415103 9.995000 translate 0.035278 -0.035278 scale
start_ol
192 0 moveto
192 320 lineto
611 389 740 697 conicto
896 1131 896 2240 conicto
896 2688 lineto
2688 2688 lineto
2688 0 lineto
2240 0 lineto
2240 2368 lineto
1344 2368 lineto
1344 2098 lineto
1344 1046 1137 574 conicto
916 71 192 0 conicto
end_ol grestore 
gsave 16.824720 9.995000 translate 0.035278 -0.035278 scale
start_ol
896 1921 moveto
896 1711 1045 1591 conicto
1194 1472 1471 1472 conicto
2048 1472 lineto
2048 2368 lineto
1471 2368 lineto
1194 2368 1045 2251 conicto
896 2134 896 1921 conicto
256 0 moveto
1089 1178 lineto
813 1241 630 1405 conicto
448 1570 448 1913 conicto
448 2302 701 2495 conicto
954 2688 1465 2688 conicto
2496 2688 lineto
2496 0 lineto
2048 0 lineto
2048 1152 lineto
1506 1152 lineto
725 0 lineto
256 0 lineto
end_ol grestore 
0.100000 slw
[] 0 sd
1.000000 1.000000 1.000000 srgb
n 21.700000 8.500000 m 21.700000 10.300000 l 28.242500 10.300000 l 28.242500 8.500000 l f
n 21.700000 9.000000 m 21.700000 9.000000 0.500000 0.500000 180.000000 270.000000 ellipse f
n 28.242500 9.000000 m 28.242500 9.000000 0.500000 0.500000 270.000000 360.000000 ellipse f
n 21.200000 9.000000 m 21.200000 9.800000 l 28.742500 9.800000 l 28.742500 9.000000 l f
n 21.700000 9.800000 m 21.700000 9.800000 0.500000 0.500000 90.000000 180.000000 ellipse f
n 28.242500 9.800000 m 28.242500 9.800000 0.500000 0.500000 0.000000 90.000000 ellipse f
0.000000 0.000000 0.000000 srgb
n 21.700000 8.500000 m 28.242500 8.500000 l s
n 21.700000 10.300000 m 28.242500 10.300000 l s
n 21.700000 9.000000 0.500000 0.500000 180.000000 270.000000 ellipse s
n 28.242500 9.000000 0.500000 0.500000 270.000000 360.000000 ellipse s
n 21.200000 9.000000 m 21.200000 9.800000 l s
n 28.742500 9.000000 m 28.742500 9.800000 l s
n 21.700000 9.800000 0.500000 0.500000 90.000000 180.000000 ellipse s
n 28.242500 9.800000 0.500000 0.500000 0.000000 90.000000 ellipse s
gsave 21.700000 9.595000 translate 0.035278 -0.035278 scale
start_ol
1890 3200 moveto
1375 3200 1071 2813 conicto
768 2426 768 1759 conicto
768 1094 1071 707 conicto
1375 320 1890 320 conicto
2406 320 2707 707 conicto
3008 1094 3008 1759 conicto
3008 2426 2707 2813 conicto
2406 3200 1890 3200 conicto
1890 3584 moveto
2632 3584 3076 3088 conicto
3520 2593 3520 1759 conicto
3520 927 3076 431 conicto
2632 -64 1890 -64 conicto
1146 -64 701 430 conicto
256 925 256 1759 conicto
256 2593 701 3088 conicto
1146 3584 1890 3584 conicto
end_ol grestore 
gsave 22.204527 9.595000 translate 0.035278 -0.035278 scale
start_ol
1465 2752 moveto
2036 2752 2362 2378 conicto
2688 2005 2688 1344 conicto
2688 685 2364 310 conicto
2040 -64 1472 -64 conicto
902 -64 587 299 conicto
273 662 256 1341 conicto
242 1876 lineto
230 2155 230 2251 conicto
230 2625 367 2901 conicto
582 3333 954 3520 conicto
1327 3707 1952 3712 conicto
2240 3714 2368 3755 conicto
2496 3437 lineto
2379 3394 2271 3392 conicto
1674 3352 lineto
1373 3331 1192 3228 conicto
716 2955 671 2597 conicto
654 2466 lineto
963 2752 1465 2752 conicto
1473 2368 moveto
1117 2368 910 2094 conicto
704 1820 704 1344 conicto
704 868 909 594 conicto
1115 320 1473 320 conicto
1827 320 2033 595 conicto
2240 870 2240 1344 conicto
2240 1816 2033 2092 conicto
1827 2368 1473 2368 conicto
end_ol grestore 
gsave 22.599153 9.595000 translate 0.035278 -0.035278 scale
start_ol
896 384 moveto
896 -1024 lineto
448 -1024 lineto
448 2688 lineto
896 2688 lineto
896 2304 lineto
1032 2531 1240 2641 conicto
1448 2752 1737 2752 conicto
2217 2752 2516 2364 conicto
2816 1976 2816 1344 conicto
2816 712 2516 324 conicto
2217 -64 1737 -64 conicto
1448 -64 1240 46 conicto
1032 157 896 384 conicto
2368 1344 moveto
2368 1823 2171 2095 conicto
1975 2368 1632 2368 conicto
1289 2368 1092 2095 conicto
896 1823 896 1344 conicto
896 865 1092 592 conicto
1289 320 1632 320 conicto
1975 320 2171 592 conicto
2368 865 2368 1344 conicto
end_ol grestore 
gsave 23.006273 9.595000 translate 0.035278 -0.035278 scale
start_ol
1622 1344 moveto
1104 1344 904 1225 conicto
704 1106 704 818 conicto
704 589 854 454 conicto
1004 320 1262 320 conicto
1618 320 1833 572 conicto
2048 825 2048 1244 conicto
2048 1344 lineto
1622 1344 lineto
2496 1513 moveto
2496 0 lineto
2048 0 lineto
2048 384 lineto
1900 154 1679 45 conicto
1458 -64 1138 -64 conicto
733 -64 494 162 conicto
256 389 256 769 conicto
256 1213 555 1438 conicto
854 1664 1448 1664 conicto
2048 1664 lineto
2048 1712 lineto
2048 2025 1851 2196 conicto
1655 2368 1300 2368 conicto
1074 2368 860 2320 conicto
646 2272 448 2176 conicto
448 2560 lineto
687 2656 912 2704 conicto
1138 2752 1351 2752 conicto
1927 2752 2211 2444 conicto
2496 2137 2496 1513 conicto
end_ol grestore 
gsave 23.398402 9.595000 translate 0.035278 -0.035278 scale
start_ol
1465 2752 moveto
2036 2752 2362 2378 conicto
2688 2005 2688 1344 conicto
2688 685 2364 310 conicto
2040 -64 1472 -64 conicto
902 -64 587 299 conicto
273 662 256 1341 conicto
242 1876 lineto
230 2155 230 2251 conicto
230 2625 367 2901 conicto
582 3333 954 3520 conicto
1327 3707 1952 3712 conicto
2240 3714 2368 3755 conicto
2496 3437 lineto
2379 3394 2271 3392 conicto
1674 3352 lineto
1373 3331 1192 3228 conicto
716 2955 671 2597 conicto
654 2466 lineto
963 2752 1465 2752 conicto
1473 2368 moveto
1117 2368 910 2094 conicto
704 1820 704 1344 conicto
704 868 909 594 conicto
1115 320 1473 320 conicto
1827 320 2033 595 conicto
2240 870 2240 1344 conicto
2240 1816 2033 2092 conicto
1827 2368 1473 2368 conicto
end_ol grestore 
gsave 23.793028 9.595000 translate 0.035278 -0.035278 scale
start_ol
1473 2368 moveto
1117 2368 910 2094 conicto
704 1820 704 1344 conicto
704 868 909 594 conicto
1115 320 1473 320 conicto
1827 320 2033 595 conicto
2240 870 2240 1344 conicto
2240 1816 2033 2092 conicto
1827 2368 1473 2368 conicto
1472 2752 moveto
2040 2752 2364 2378 conicto
2688 2005 2688 1344 conicto
2688 685 2364 310 conicto
2040 -64 1472 -64 conicto
902 -64 579 310 conicto
256 685 256 1344 conicto
256 2005 579 2378 conicto
902 2752 1472 2752 conicto
end_ol grestore 
gsave 24.185157 9.595000 translate 0.035278 -0.035278 scale
start_ol
128 2688 moveto
2752 2688 lineto
2752 2368 lineto
1664 2368 lineto
1664 0 lineto
1216 0 lineto
1216 2368 lineto
128 2368 lineto
128 2688 lineto
end_ol grestore 
gsave 24.562304 9.595000 translate 0.035278 -0.035278 scale
start_ol
448 2688 moveto
896 2688 lineto
896 1426 lineto
2100 2688 lineto
2624 2688 lineto
1631 1649 lineto
2752 0 lineto
2274 0 lineto
1353 1356 lineto
896 876 lineto
896 0 lineto
448 0 lineto
448 2688 lineto
end_ol grestore 
gsave 24.949439 9.595000 translate 0.035278 -0.035278 scale
start_ol
1622 1344 moveto
1104 1344 904 1225 conicto
704 1106 704 818 conicto
704 589 854 454 conicto
1004 320 1262 320 conicto
1618 320 1833 572 conicto
2048 825 2048 1244 conicto
2048 1344 lineto
1622 1344 lineto
2496 1513 moveto
2496 0 lineto
2048 0 lineto
2048 384 lineto
1900 154 1679 45 conicto
1458 -64 1138 -64 conicto
733 -64 494 162 conicto
256 389 256 769 conicto
256 1213 555 1438 conicto
854 1664 1448 1664 conicto
2048 1664 lineto
2048 1712 lineto
2048 2025 1851 2196 conicto
1655 2368 1300 2368 conicto
1074 2368 860 2320 conicto
646 2272 448 2176 conicto
448 2560 lineto
687 2656 912 2704 conicto
1138 2752 1351 2752 conicto
1927 2752 2211 2444 conicto
2496 2137 2496 1513 conicto
end_ol grestore 
gsave 25.341568 9.595000 translate 0.035278 -0.035278 scale
start_ol
end_ol grestore 
gsave 25.543875 9.595000 translate 0.035278 -0.035278 scale
start_ol
1689 1450 moveto
1983 1393 2143 1218 conicto
2304 1044 2304 785 conicto
2304 371 1997 153 conicto
1691 -64 1125 -64 conicto
935 -64 734 -16 conicto
534 32 320 128 conicto
320 512 lineto
487 416 686 368 conicto
886 320 1104 320 conicto
1459 320 1657 455 conicto
1856 591 1856 808 conicto
1856 1021 1679 1150 conicto
1503 1280 1180 1280 conicto
832 1280 lineto
832 1600 lineto
1199 1600 lineto
1473 1600 1632 1708 conicto
1792 1817 1792 1988 conicto
1792 2144 1625 2256 conicto
1459 2368 1173 2368 conicto
1003 2368 810 2337 conicto
617 2307 384 2240 conicto
384 2624 lineto
621 2688 827 2720 conicto
1033 2752 1216 2752 conicto
1691 2752 1965 2564 conicto
2240 2376 2240 2039 conicto
2240 1817 2097 1662 conicto
1955 1508 1689 1450 conicto
end_ol grestore 
gsave 25.883550 9.595000 translate 0.035278 -0.035278 scale
start_ol
1622 1344 moveto
1104 1344 904 1225 conicto
704 1106 704 818 conicto
704 589 854 454 conicto
1004 320 1262 320 conicto
1618 320 1833 572 conicto
2048 825 2048 1244 conicto
2048 1344 lineto
1622 1344 lineto
2496 1513 moveto
2496 0 lineto
2048 0 lineto
2048 384 lineto
1900 154 1679 45 conicto
1458 -64 1138 -64 conicto
733 -64 494 162 conicto
256 389 256 769 conicto
256 1213 555 1438 conicto
854 1664 1448 1664 conicto
2048 1664 lineto
2048 1712 lineto
2048 2025 1851 2196 conicto
1655 2368 1300 2368 conicto
1074 2368 860 2320 conicto
646 2272 448 2176 conicto
448 2560 lineto
687 2656 912 2704 conicto
1138 2752 1351 2752 conicto
1927 2752 2211 2444 conicto
2496 2137 2496 1513 conicto
end_ol grestore 
gsave 26.275679 9.595000 translate 0.035278 -0.035278 scale
start_ol
2752 2688 moveto
2752 0 lineto
2304 0 lineto
2304 2368 lineto
896 2368 lineto
896 0 lineto
448 0 lineto
448 2688 lineto
2752 2688 lineto
end_ol grestore 
gsave 26.692787 9.595000 translate 0.035278 -0.035278 scale
start_ol
896 384 moveto
896 -1024 lineto
448 -1024 lineto
448 2688 lineto
896 2688 lineto
896 2304 lineto
1032 2531 1240 2641 conicto
1448 2752 1737 2752 conicto
2217 2752 2516 2364 conicto
2816 1976 2816 1344 conicto
2816 712 2516 324 conicto
2217 -64 1737 -64 conicto
1448 -64 1240 46 conicto
1032 157 896 384 conicto
2368 1344 moveto
2368 1823 2171 2095 conicto
1975 2368 1632 2368 conicto
1289 2368 1092 2095 conicto
896 1823 896 1344 conicto
896 865 1092 592 conicto
1289 320 1632 320 conicto
1975 320 2171 592 conicto
2368 865 2368 1344 conicto
end_ol grestore 
gsave 27.099906 9.595000 translate 0.035278 -0.035278 scale
start_ol
1473 2368 moveto
1117 2368 910 2094 conicto
704 1820 704 1344 conicto
704 868 909 594 conicto
1115 320 1473 320 conicto
1827 320 2033 595 conicto
2240 870 2240 1344 conicto
2240 1816 2033 2092 conicto
1827 2368 1473 2368 conicto
1472 2752 moveto
2040 2752 2364 2378 conicto
2688 2005 2688 1344 conicto
2688 685 2364 310 conicto
2040 -64 1472 -64 conicto
902 -64 579 310 conicto
256 685 256 1344 conicto
256 2005 579 2378 conicto
902 2752 1472 2752 conicto
end_ol grestore 
gsave 27.492035 9.595000 translate 0.035278 -0.035278 scale
start_ol
2368 2560 moveto
2368 2176 lineto
2180 2272 1991 2320 conicto
1803 2368 1611 2368 conicto
1180 2368 942 2099 conicto
704 1830 704 1344 conicto
704 858 942 589 conicto
1180 320 1611 320 conicto
1803 320 1991 368 conicto
2180 416 2368 512 conicto
2368 128 lineto
2184 32 1987 -16 conicto
1791 -64 1569 -64 conicto
966 -64 611 316 conicto
256 697 256 1344 conicto
256 2000 615 2376 conicto
974 2752 1598 2752 conicto
1801 2752 1994 2704 conicto
2187 2656 2368 2560 conicto
end_ol grestore 
gsave 27.844204 9.595000 translate 0.035278 -0.035278 scale
start_ol
1622 1344 moveto
1104 1344 904 1225 conicto
704 1106 704 818 conicto
704 589 854 454 conicto
1004 320 1262 320 conicto
1618 320 1833 572 conicto
2048 825 2048 1244 conicto
2048 1344 lineto
1622 1344 lineto
2496 1513 moveto
2496 0 lineto
2048 0 lineto
2048 384 lineto
1900 154 1679 45 conicto
1458 -64 1138 -64 conicto
733 -64 494 162 conicto
256 389 256 769 conicto
256 1213 555 1438 conicto
854 1664 1448 1664 conicto
2048 1664 lineto
2048 1712 lineto
2048 2025 1851 2196 conicto
1655 2368 1300 2368 conicto
1074 2368 860 2320 conicto
646 2272 448 2176 conicto
448 2560 lineto
687 2656 912 2704 conicto
1138 2752 1351 2752 conicto
1927 2752 2211 2444 conicto
2496 2137 2496 1513 conicto
end_ol grestore 
0.100000 slw
[] 0 sd
1.000000 1.000000 1.000000 srgb
n 31.250000 8.100000 m 31.250000 10.700000 l 40.935000 10.700000 l 40.935000 8.100000 l f
n 31.250000 8.600000 m 31.250000 8.600000 0.500000 0.500000 180.000000 270.000000 ellipse f
n 40.935000 8.600000 m 40.935000 8.600000 0.500000 0.500000 270.000000 360.000000 ellipse f
n 30.750000 8.600000 m 30.750000 10.200000 l 41.435000 10.200000 l 41.435000 8.600000 l f
n 31.250000 10.200000 m 31.250000 10.200000 0.500000 0.500000 90.000000 180.000000 ellipse f
n 40.935000 10.200000 m 40.935000 10.200000 0.500000 0.500000 0.000000 90.000000 ellipse f
0.000000 0.000000 0.000000 srgb
n 31.250000 8.100000 m 40.935000 8.100000 l s
n 31.250000 10.700000 m 40.935000 10.700000 l s
n 31.250000 8.600000 0.500000 0.500000 180.000000 270.000000 ellipse s
n 40.935000 8.600000 0.500000 0.500000 270.000000 360.000000 ellipse s
n 30.750000 8.600000 m 30.750000 10.200000 l s
n 41.435000 8.600000 m 41.435000 10.200000 l s
n 31.250000 10.200000 0.500000 0.500000 90.000000 180.000000 ellipse s
n 40.935000 10.200000 0.500000 0.500000 0.000000 90.000000 ellipse s
gsave 31.250000 9.195000 translate 0.035278 -0.035278 scale
start_ol
3136 3520 moveto
3136 0 lineto
2624 0 lineto
2624 3136 lineto
960 3136 lineto
960 0 lineto
448 0 lineto
448 3520 lineto
3136 3520 lineto
end_ol grestore 
gsave 31.729549 9.195000 translate 0.035278 -0.035278 scale
start_ol
896 384 moveto
896 -1024 lineto
448 -1024 lineto
448 2688 lineto
896 2688 lineto
896 2304 lineto
1032 2531 1240 2641 conicto
1448 2752 1737 2752 conicto
2217 2752 2516 2364 conicto
2816 1976 2816 1344 conicto
2816 712 2516 324 conicto
2217 -64 1737 -64 conicto
1448 -64 1240 46 conicto
1032 157 896 384 conicto
2368 1344 moveto
2368 1823 2171 2095 conicto
1975 2368 1632 2368 conicto
1289 2368 1092 2095 conicto
896 1823 896 1344 conicto
896 865 1092 592 conicto
1289 320 1632 320 conicto
1975 320 2171 592 conicto
2368 865 2368 1344 conicto
end_ol grestore 
gsave 32.136668 9.195000 translate 0.035278 -0.035278 scale
start_ol
2752 1480 moveto
2752 1280 lineto
704 1280 lineto
733 811 978 565 conicto
1223 320 1660 320 conicto
1914 320 2152 384 conicto
2390 448 2624 576 conicto
2624 192 lineto
2388 67 2140 1 conicto
1893 -64 1639 -64 conicto
1001 -64 628 309 conicto
256 683 256 1320 conicto
256 1979 613 2365 conicto
970 2752 1576 2752 conicto
2120 2752 2436 2410 conicto
2752 2068 2752 1480 conicto
2304 1600 moveto
2299 1950 2099 2159 conicto
1900 2368 1572 2368 conicto
1200 2368 976 2166 conicto
753 1964 719 1597 conicto
2304 1600 lineto
end_ol grestore 
gsave 32.531294 9.195000 translate 0.035278 -0.035278 scale
start_ol
1059 320 moveto
2368 320 lineto
2368 2368 lineto
1408 2368 lineto
1408 2021 lineto
1408 999 1128 454 conicto
1059 320 lineto
419 320 moveto
634 417 728 624 conicto
960 1138 960 2172 conicto
960 2688 lineto
2816 2688 lineto
2816 320 lineto
3136 320 lineto
3136 -704 lineto
2816 -704 lineto
2816 0 lineto
576 0 lineto
576 -704 lineto
256 -704 lineto
256 320 lineto
419 320 lineto
end_ol grestore 
gsave 32.970883 9.195000 translate 0.035278 -0.035278 scale
start_ol
2368 2560 moveto
2368 2176 lineto
2180 2272 1991 2320 conicto
1803 2368 1611 2368 conicto
1180 2368 942 2099 conicto
704 1830 704 1344 conicto
704 858 942 589 conicto
1180 320 1611 320 conicto
1803 320 1991 368 conicto
2180 416 2368 512 conicto
2368 128 lineto
2184 32 1987 -16 conicto
1791 -64 1569 -64 conicto
966 -64 611 316 conicto
256 697 256 1344 conicto
256 2000 615 2376 conicto
974 2752 1598 2752 conicto
1801 2752 1994 2704 conicto
2187 2656 2368 2560 conicto
end_ol grestore 
gsave 33.323052 9.195000 translate 0.035278 -0.035278 scale
start_ol
128 2688 moveto
2752 2688 lineto
2752 2368 lineto
1664 2368 lineto
1664 0 lineto
1216 0 lineto
1216 2368 lineto
128 2368 lineto
128 2688 lineto
end_ol grestore 
gsave 33.700199 9.195000 translate 0.035278 -0.035278 scale
start_ol
1622 1344 moveto
1104 1344 904 1225 conicto
704 1106 704 818 conicto
704 589 854 454 conicto
1004 320 1262 320 conicto
1618 320 1833 572 conicto
2048 825 2048 1244 conicto
2048 1344 lineto
1622 1344 lineto
2496 1513 moveto
2496 0 lineto
2048 0 lineto
2048 384 lineto
1900 154 1679 45 conicto
1458 -64 1138 -64 conicto
733 -64 494 162 conicto
256 389 256 769 conicto
256 1213 555 1438 conicto
854 1664 1448 1664 conicto
2048 1664 lineto
2048 1712 lineto
2048 2025 1851 2196 conicto
1655 2368 1300 2368 conicto
1074 2368 860 2320 conicto
646 2272 448 2176 conicto
448 2560 lineto
687 2656 912 2704 conicto
1138 2752 1351 2752 conicto
1927 2752 2211 2444 conicto
2496 2137 2496 1513 conicto
end_ol grestore 
gsave 34.092328 9.195000 translate 0.035278 -0.035278 scale
start_ol
896 1280 moveto
896 320 lineto
1509 320 lineto
1803 320 1957 443 conicto
2112 567 2112 801 conicto
2112 1035 1957 1157 conicto
1803 1280 1509 1280 conicto
896 1280 lineto
896 2368 moveto
896 1600 lineto
1447 1600 lineto
1684 1600 1834 1703 conicto
1984 1806 1984 1989 conicto
1984 2172 1834 2270 conicto
1684 2368 1447 2368 conicto
896 2368 lineto
448 2688 moveto
1474 2688 lineto
1935 2688 2183 2515 conicto
2432 2342 2432 2023 conicto
2432 1776 2304 1631 conicto
2176 1486 1924 1450 conicto
2226 1392 2393 1209 conicto
2560 1027 2560 754 conicto
2560 394 2289 197 conicto
2018 0 1516 0 conicto
448 0 lineto
448 2688 lineto
end_ol grestore 
gsave 34.469475 9.195000 translate 0.035278 -0.035278 scale
start_ol
192 0 moveto
192 320 lineto
611 389 740 697 conicto
896 1131 896 2240 conicto
896 2688 lineto
2688 2688 lineto
2688 0 lineto
2240 0 lineto
2240 2368 lineto
1344 2368 lineto
1344 2098 lineto
1344 1046 1137 574 conicto
916 71 192 0 conicto
end_ol grestore 
gsave 34.879091 9.195000 translate 0.035278 -0.035278 scale
start_ol
2752 1480 moveto
2752 1280 lineto
704 1280 lineto
733 811 978 565 conicto
1223 320 1660 320 conicto
1914 320 2152 384 conicto
2390 448 2624 576 conicto
2624 192 lineto
2388 67 2140 1 conicto
1893 -64 1639 -64 conicto
1001 -64 628 309 conicto
256 683 256 1320 conicto
256 1979 613 2365 conicto
970 2752 1576 2752 conicto
2120 2752 2436 2410 conicto
2752 2068 2752 1480 conicto
2304 1600 moveto
2299 1950 2099 2159 conicto
1900 2368 1572 2368 conicto
1200 2368 976 2166 conicto
753 1964 719 1597 conicto
2304 1600 lineto
end_ol grestore 
gsave 35.273717 9.195000 translate 0.035278 -0.035278 scale
start_ol
448 2688 moveto
896 2688 lineto
896 1600 lineto
2304 1600 lineto
2304 2688 lineto
2752 2688 lineto
2752 0 lineto
2304 0 lineto
2304 1280 lineto
896 1280 lineto
896 0 lineto
448 0 lineto
448 2688 lineto
end_ol grestore 
gsave 35.690825 9.195000 translate 0.035278 -0.035278 scale
start_ol
2752 2688 moveto
2752 0 lineto
2304 0 lineto
2304 2158 lineto
1022 0 lineto
448 0 lineto
448 2688 lineto
896 2688 lineto
896 535 lineto
2176 2688 lineto
2752 2688 lineto
end_ol grestore 
gsave 36.105435 9.195000 translate 0.035278 -0.035278 scale
start_ol
2752 1480 moveto
2752 1280 lineto
704 1280 lineto
733 811 978 565 conicto
1223 320 1660 320 conicto
1914 320 2152 384 conicto
2390 448 2624 576 conicto
2624 192 lineto
2388 67 2140 1 conicto
1893 -64 1639 -64 conicto
1001 -64 628 309 conicto
256 683 256 1320 conicto
256 1979 613 2365 conicto
970 2752 1576 2752 conicto
2120 2752 2436 2410 conicto
2752 2068 2752 1480 conicto
2304 1600 moveto
2299 1950 2099 2159 conicto
1900 2368 1572 2368 conicto
1200 2368 976 2166 conicto
753 1964 719 1597 conicto
2304 1600 lineto
end_ol grestore 
gsave 36.500061 9.195000 translate 0.035278 -0.035278 scale
start_ol
end_ol grestore 
gsave 36.702368 9.195000 translate 0.035278 -0.035278 scale
start_ol
896 384 moveto
896 -1024 lineto
448 -1024 lineto
448 2688 lineto
896 2688 lineto
896 2304 lineto
1032 2531 1240 2641 conicto
1448 2752 1737 2752 conicto
2217 2752 2516 2364 conicto
2816 1976 2816 1344 conicto
2816 712 2516 324 conicto
2217 -64 1737 -64 conicto
1448 -64 1240 46 conicto
1032 157 896 384 conicto
2368 1344 moveto
2368 1823 2171 2095 conicto
1975 2368 1632 2368 conicto
1289 2368 1092 2095 conicto
896 1823 896 1344 conicto
896 865 1092 592 conicto
1289 320 1632 320 conicto
1975 320 2171 592 conicto
2368 865 2368 1344 conicto
end_ol grestore 
gsave 37.109487 9.195000 translate 0.035278 -0.035278 scale
start_ol
2752 1480 moveto
2752 1280 lineto
704 1280 lineto
733 811 978 565 conicto
1223 320 1660 320 conicto
1914 320 2152 384 conicto
2390 448 2624 576 conicto
2624 192 lineto
2388 67 2140 1 conicto
1893 -64 1639 -64 conicto
1001 -64 628 309 conicto
256 683 256 1320 conicto
256 1979 613 2365 conicto
970 2752 1576 2752 conicto
2120 2752 2436 2410 conicto
2752 2068 2752 1480 conicto
2304 1600 moveto
2299 1950 2099 2159 conicto
1900 2368 1572 2368 conicto
1200 2368 976 2166 conicto
753 1964 719 1597 conicto
2304 1600 lineto
end_ol grestore 
gsave 37.504113 9.195000 translate 0.035278 -0.035278 scale
start_ol
1689 1450 moveto
1983 1393 2143 1218 conicto
2304 1044 2304 785 conicto
2304 371 1997 153 conicto
1691 -64 1125 -64 conicto
935 -64 734 -16 conicto
534 32 320 128 conicto
320 512 lineto
487 416 686 368 conicto
886 320 1104 320 conicto
1459 320 1657 455 conicto
1856 591 1856 808 conicto
1856 1021 1679 1150 conicto
1503 1280 1180 1280 conicto
832 1280 lineto
832 1600 lineto
1199 1600 lineto
1473 1600 1632 1708 conicto
1792 1817 1792 1988 conicto
1792 2144 1625 2256 conicto
1459 2368 1173 2368 conicto
1003 2368 810 2337 conicto
617 2307 384 2240 conicto
384 2624 lineto
621 2688 827 2720 conicto
1033 2752 1216 2752 conicto
1691 2752 1965 2564 conicto
2240 2376 2240 2039 conicto
2240 1817 2097 1662 conicto
1955 1508 1689 1450 conicto
end_ol grestore 
gsave 37.843789 9.195000 translate 0.035278 -0.035278 scale
start_ol
1542 -238 moveto
1360 -726 1187 -875 conicto
1015 -1024 726 -1024 conicto
384 -1024 lineto
384 -640 lineto
636 -640 lineto
813 -640 910 -555 conicto
1008 -470 1127 -155 conicto
1204 46 lineto
128 2688 lineto
603 2688 lineto
1418 586 lineto
2234 2688 lineto
2688 2688 lineto
1542 -238 lineto
end_ol grestore 
gsave 38.223433 9.195000 translate 0.035278 -0.035278 scale
start_ol
192 0 moveto
192 320 lineto
611 389 740 697 conicto
896 1131 896 2240 conicto
896 2688 lineto
2688 2688 lineto
2688 0 lineto
2240 0 lineto
2240 2368 lineto
1344 2368 lineto
1344 2098 lineto
1344 1046 1137 574 conicto
916 71 192 0 conicto
end_ol grestore 
gsave 38.633049 9.195000 translate 0.035278 -0.035278 scale
start_ol
2112 801 moveto
2112 1035 1958 1157 conicto
1805 1280 1510 1280 conicto
896 1280 lineto
896 320 lineto
1510 320 lineto
1805 320 1958 443 conicto
2112 567 2112 801 conicto
448 2688 moveto
896 2688 lineto
896 1600 lineto
1524 1600 lineto
2022 1600 2291 1403 conicto
2560 1207 2560 801 conicto
2560 396 2289 198 conicto
2018 0 1516 0 conicto
448 0 lineto
448 2688 lineto
end_ol grestore 
gsave 39.010196 9.195000 translate 0.035278 -0.035278 scale
start_ol
128 2688 moveto
2752 2688 lineto
2752 2368 lineto
1664 2368 lineto
1664 0 lineto
1216 0 lineto
1216 2368 lineto
128 2368 lineto
128 2688 lineto
end_ol grestore 
gsave 39.387343 9.195000 translate 0.035278 -0.035278 scale
start_ol
1622 1344 moveto
1104 1344 904 1225 conicto
704 1106 704 818 conicto
704 589 854 454 conicto
1004 320 1262 320 conicto
1618 320 1833 572 conicto
2048 825 2048 1244 conicto
2048 1344 lineto
1622 1344 lineto
2496 1513 moveto
2496 0 lineto
2048 0 lineto
2048 384 lineto
1900 154 1679 45 conicto
1458 -64 1138 -64 conicto
733 -64 494 162 conicto
256 389 256 769 conicto
256 1213 555 1438 conicto
854 1664 1448 1664 conicto
2048 1664 lineto
2048 1712 lineto
2048 2025 1851 2196 conicto
1655 2368 1300 2368 conicto
1074 2368 860 2320 conicto
646 2272 448 2176 conicto
448 2560 lineto
687 2656 912 2704 conicto
1138 2752 1351 2752 conicto
1927 2752 2211 2444 conicto
2496 2137 2496 1513 conicto
end_ol grestore 
gsave 39.779472 9.195000 translate 0.035278 -0.035278 scale
start_ol
128 2688 moveto
2752 2688 lineto
2752 2368 lineto
1664 2368 lineto
1664 0 lineto
1216 0 lineto
1216 2368 lineto
128 2368 lineto
128 2688 lineto
end_ol grestore 
gsave 40.156619 9.195000 translate 0.035278 -0.035278 scale
start_ol
1473 2368 moveto
1117 2368 910 2094 conicto
704 1820 704 1344 conicto
704 868 909 594 conicto
1115 320 1473 320 conicto
1827 320 2033 595 conicto
2240 870 2240 1344 conicto
2240 1816 2033 2092 conicto
1827 2368 1473 2368 conicto
1472 2752 moveto
2040 2752 2364 2378 conicto
2688 2005 2688 1344 conicto
2688 685 2364 310 conicto
2040 -64 1472 -64 conicto
902 -64 579 310 conicto
256 685 256 1344 conicto
256 2005 579 2378 conicto
902 2752 1472 2752 conicto
end_ol grestore 
gsave 40.548748 9.195000 translate 0.035278 -0.035278 scale
start_ol
896 1280 moveto
896 320 lineto
1509 320 lineto
1803 320 1957 443 conicto
2112 567 2112 801 conicto
2112 1035 1957 1157 conicto
1803 1280 1509 1280 conicto
896 1280 lineto
896 2368 moveto
896 1600 lineto
1447 1600 lineto
1684 1600 1834 1703 conicto
1984 1806 1984 1989 conicto
1984 2172 1834 2270 conicto
1684 2368 1447 2368 conicto
896 2368 lineto
448 2688 moveto
1474 2688 lineto
1935 2688 2183 2515 conicto
2432 2342 2432 2023 conicto
2432 1776 2304 1631 conicto
2176 1486 1924 1450 conicto
2226 1392 2393 1209 conicto
2560 1027 2560 754 conicto
2560 394 2289 197 conicto
2018 0 1516 0 conicto
448 0 lineto
448 2688 lineto
end_ol grestore 
gsave 34.213750 9.995000 translate 0.035278 -0.035278 scale
start_ol
end_ol grestore 
gsave 34.416057 9.995000 translate 0.035278 -0.035278 scale
start_ol
1473 2368 moveto
1117 2368 910 2094 conicto
704 1820 704 1344 conicto
704 868 909 594 conicto
1115 320 1473 320 conicto
1827 320 2033 595 conicto
2240 870 2240 1344 conicto
2240 1816 2033 2092 conicto
1827 2368 1473 2368 conicto
1472 2752 moveto
2040 2752 2364 2378 conicto
2688 2005 2688 1344 conicto
2688 685 2364 310 conicto
2040 -64 1472 -64 conicto
902 -64 579 310 conicto
256 685 256 1344 conicto
256 2005 579 2378 conicto
902 2752 1472 2752 conicto
end_ol grestore 
gsave 34.808186 9.995000 translate 0.035278 -0.035278 scale
start_ol
1465 2752 moveto
2036 2752 2362 2378 conicto
2688 2005 2688 1344 conicto
2688 685 2364 310 conicto
2040 -64 1472 -64 conicto
902 -64 587 299 conicto
273 662 256 1341 conicto
242 1876 lineto
230 2155 230 2251 conicto
230 2625 367 2901 conicto
582 3333 954 3520 conicto
1327 3707 1952 3712 conicto
2240 3714 2368 3755 conicto
2496 3437 lineto
2379 3394 2271 3392 conicto
1674 3352 lineto
1373 3331 1192 3228 conicto
716 2955 671 2597 conicto
654 2466 lineto
963 2752 1465 2752 conicto
1473 2368 moveto
1117 2368 910 2094 conicto
704 1820 704 1344 conicto
704 868 909 594 conicto
1115 320 1473 320 conicto
1827 320 2033 595 conicto
2240 870 2240 1344 conicto
2240 1816 2033 2092 conicto
1827 2368 1473 2368 conicto
end_ol grestore 
gsave 35.202812 9.995000 translate 0.035278 -0.035278 scale
start_ol
896 384 moveto
896 -1024 lineto
448 -1024 lineto
448 2688 lineto
896 2688 lineto
896 2304 lineto
1032 2531 1240 2641 conicto
1448 2752 1737 2752 conicto
2217 2752 2516 2364 conicto
2816 1976 2816 1344 conicto
2816 712 2516 324 conicto
2217 -64 1737 -64 conicto
1448 -64 1240 46 conicto
1032 157 896 384 conicto
2368 1344 moveto
2368 1823 2171 2095 conicto
1975 2368 1632 2368 conicto
1289 2368 1092 2095 conicto
896 1823 896 1344 conicto
896 865 1092 592 conicto
1289 320 1632 320 conicto
1975 320 2171 592 conicto
2368 865 2368 1344 conicto
end_ol grestore 
gsave 35.609931 9.995000 translate 0.035278 -0.035278 scale
start_ol
1622 1344 moveto
1104 1344 904 1225 conicto
704 1106 704 818 conicto
704 589 854 454 conicto
1004 320 1262 320 conicto
1618 320 1833 572 conicto
2048 825 2048 1244 conicto
2048 1344 lineto
1622 1344 lineto
2496 1513 moveto
2496 0 lineto
2048 0 lineto
2048 384 lineto
1900 154 1679 45 conicto
1458 -64 1138 -64 conicto
733 -64 494 162 conicto
256 389 256 769 conicto
256 1213 555 1438 conicto
854 1664 1448 1664 conicto
2048 1664 lineto
2048 1712 lineto
2048 2025 1851 2196 conicto
1655 2368 1300 2368 conicto
1074 2368 860 2320 conicto
646 2272 448 2176 conicto
448 2560 lineto
687 2656 912 2704 conicto
1138 2752 1351 2752 conicto
1927 2752 2211 2444 conicto
2496 2137 2496 1513 conicto
end_ol grestore 
gsave 36.002060 9.995000 translate 0.035278 -0.035278 scale
start_ol
1465 2752 moveto
2036 2752 2362 2378 conicto
2688 2005 2688 1344 conicto
2688 685 2364 310 conicto
2040 -64 1472 -64 conicto
902 -64 587 299 conicto
273 662 256 1341 conicto
242 1876 lineto
230 2155 230 2251 conicto
230 2625 367 2901 conicto
582 3333 954 3520 conicto
1327 3707 1952 3712 conicto
2240 3714 2368 3755 conicto
2496 3437 lineto
2379 3394 2271 3392 conicto
1674 3352 lineto
1373 3331 1192 3228 conicto
716 2955 671 2597 conicto
654 2466 lineto
963 2752 1465 2752 conicto
1473 2368 moveto
1117 2368 910 2094 conicto
704 1820 704 1344 conicto
704 868 909 594 conicto
1115 320 1473 320 conicto
1827 320 2033 595 conicto
2240 870 2240 1344 conicto
2240 1816 2033 2092 conicto
1827 2368 1473 2368 conicto
end_ol grestore 
gsave 36.396687 9.995000 translate 0.035278 -0.035278 scale
start_ol
1473 2368 moveto
1117 2368 910 2094 conicto
704 1820 704 1344 conicto
704 868 909 594 conicto
1115 320 1473 320 conicto
1827 320 2033 595 conicto
2240 870 2240 1344 conicto
2240 1816 2033 2092 conicto
1827 2368 1473 2368 conicto
1472 2752 moveto
2040 2752 2364 2378 conicto
2688 2005 2688 1344 conicto
2688 685 2364 310 conicto
2040 -64 1472 -64 conicto
902 -64 579 310 conicto
256 685 256 1344 conicto
256 2005 579 2378 conicto
902 2752 1472 2752 conicto
end_ol grestore 
gsave 36.788816 9.995000 translate 0.035278 -0.035278 scale
start_ol
128 2688 moveto
2752 2688 lineto
2752 2368 lineto
1664 2368 lineto
1664 0 lineto
1216 0 lineto
1216 2368 lineto
128 2368 lineto
128 2688 lineto
end_ol grestore 
gsave 37.165963 9.995000 translate 0.035278 -0.035278 scale
start_ol
448 2688 moveto
896 2688 lineto
896 1426 lineto
2100 2688 lineto
2624 2688 lineto
1631 1649 lineto
2752 0 lineto
2274 0 lineto
1353 1356 lineto
896 876 lineto
896 0 lineto
448 0 lineto
448 2688 lineto
end_ol grestore 
gsave 37.553098 9.995000 translate 0.035278 -0.035278 scale
start_ol
2752 2688 moveto
2752 0 lineto
2304 0 lineto
2304 2158 lineto
1022 0 lineto
448 0 lineto
448 2688 lineto
896 2688 lineto
896 535 lineto
2176 2688 lineto
2752 2688 lineto
end_ol grestore 
0.100000 slw
0 slc
[] 0 sd
n 8.500269 9.400000 m 9.000269 9.400000 l 10.600000 9.400000 l 10.876393 9.400000 l s
0.100000 slw
[] 0 sd
0 slj
0 slc
n 10.488197 9.650000 m 10.988197 9.400000 l 10.488197 9.150000 l s
0.100000 slw
0 slc
[] 0 sd
n 18.660000 9.400000 m 19.160000 9.400000 l 20.700000 9.400000 l 20.976393 9.400000 l s
0.100000 slw
[] 0 sd
0 slj
0 slc
n 20.588197 9.650000 m 21.088197 9.400000 l 20.588197 9.150000 l s
0.100000 slw
0 slc
[] 0 sd
n 28.742500 9.400000 m 29.242500 9.400000 l 30.250000 9.400000 l 30.526393 9.400000 l s
0.100000 slw
[] 0 sd
0 slj
0 slc
n 30.138197 9.650000 m 30.638197 9.400000 l 30.138197 9.150000 l s
0.100000 slw
[] 0 sd
n 44.050000 9.400000 0.500000 0.500000 0 360 ellipse f
0.100000 slw
0 slc
[] 0 sd
n 41.435000 9.400000 m 41.935000 9.400000 l 43.050000 9.400000 l 43.326393 9.400000 l s
0.100000 slw
[] 0 sd
0 slj
0 slc
n 42.938197 9.650000 m 43.438197 9.400000 l 42.938197 9.150000 l s
showpage
