%!PS-Adobe-2.0 EPSF-2.0
%%Title: /home/nikita/Documents/University/Kursovaya/Gusche/interface.dia
%%Creator: Dia v0.97.2
%%CreationDate: Mon May  5 01:29:28 2014
%%For: nikita
%%Orientation: Portrait
%%Magnification: 1.0000
%%BoundingBox: 0 0 1039 740
%%BeginSetup
%%EndSetup
%%EndComments
%%BeginProlog
[ /.notdef /.notdef /.notdef /.notdef /.notdef /.notdef /.notdef /.notdef /.notdef /.notdef
/.notdef /.notdef /.notdef /.notdef /.notdef /.notdef /.notdef /.notdef /.notdef /.notdef
/.notdef /.notdef /.notdef /.notdef /.notdef /.notdef /.notdef /.notdef /.notdef /.notdef
/.notdef /.notdef /space /exclam /quotedbl /numbersign /dollar /percent /ampersand /quoteright
/parenleft /parenright /asterisk /plus /comma /hyphen /period /slash /zero /one
/two /three /four /five /six /seven /eight /nine /colon /semicolon
/less /equal /greater /question /at /A /B /C /D /E
/F /G /H /I /J /K /L /M /N /O
/P /Q /R /S /T /U /V /W /X /Y
/Z /bracketleft /backslash /bracketright /asciicircum /underscore /quoteleft /a /b /c
/d /e /f /g /h /i /j /k /l /m
/n /o /p /q /r /s /t /u /v /w
/x /y /z /braceleft /bar /braceright /asciitilde /.notdef /.notdef /.notdef
/.notdef /.notdef /.notdef /.notdef /.notdef /.notdef /.notdef /.notdef /.notdef /.notdef
/.notdef /.notdef /.notdef /.notdef /.notdef /.notdef /.notdef /.notdef /.notdef /.notdef
/.notdef /.notdef /.notdef /.notdef /.notdef /.notdef /.notdef /.notdef /.notdef /.notdef
/space /exclamdown /cent /sterling /currency /yen /brokenbar /section /dieresis /copyright
/ordfeminine /guillemotleft /logicalnot /hyphen /registered /macron /degree /plusminus /twosuperior /threesuperior
/acute /mu /paragraph /periodcentered /cedilla /onesuperior /ordmasculine /guillemotright /onequarter /onehalf
/threequarters /questiondown /Agrave /Aacute /Acircumflex /Atilde /Adieresis /Aring /AE /Ccedilla
/Egrave /Eacute /Ecircumflex /Edieresis /Igrave /Iacute /Icircumflex /Idieresis /Eth /Ntilde
/Ograve /Oacute /Ocircumflex /Otilde /Odieresis /multiply /Oslash /Ugrave /Uacute /Ucircumflex
/Udieresis /Yacute /Thorn /germandbls /agrave /aacute /acircumflex /atilde /adieresis /aring
/ae /ccedilla /egrave /eacute /ecircumflex /edieresis /igrave /iacute /icircumflex /idieresis
/eth /ntilde /ograve /oacute /ocircumflex /otilde /odieresis /divide /oslash /ugrave
/uacute /ucircumflex /udieresis /yacute /thorn /ydieresis] /isolatin1encoding exch def
/cp {closepath} bind def
/c {curveto} bind def
/f {fill} bind def
/a {arc} bind def
/ef {eofill} bind def
/ex {exch} bind def
/gr {grestore} bind def
/gs {gsave} bind def
/sa {save} bind def
/rs {restore} bind def
/l {lineto} bind def
/m {moveto} bind def
/rm {rmoveto} bind def
/n {newpath} bind def
/s {stroke} bind def
/sh {show} bind def
/slc {setlinecap} bind def
/slj {setlinejoin} bind def
/slw {setlinewidth} bind def
/srgb {setrgbcolor} bind def
/rot {rotate} bind def
/sc {scale} bind def
/sd {setdash} bind def
/ff {findfont} bind def
/sf {setfont} bind def
/scf {scalefont} bind def
/sw {stringwidth pop} bind def
/tr {translate} bind def

/ellipsedict 8 dict def
ellipsedict /mtrx matrix put
/ellipse
{ ellipsedict begin
   /endangle exch def
   /startangle exch def
   /yrad exch def
   /xrad exch def
   /y exch def
   /x exch def   /savematrix mtrx currentmatrix def
   x y tr xrad yrad sc
   0 0 1 startangle endangle arc
   savematrix setmatrix
   end
} def

/mergeprocs {
dup length
3 -1 roll
dup
length
dup
5 1 roll
3 -1 roll
add
array cvx
dup
3 -1 roll
0 exch
putinterval
dup
4 2 roll
putinterval
} bind def
/dpi_x 300 def
/dpi_y 300 def
/conicto {
    /to_y exch def
    /to_x exch def
    /conic_cntrl_y exch def
    /conic_cntrl_x exch def
    currentpoint
    /p0_y exch def
    /p0_x exch def
    /p1_x p0_x conic_cntrl_x p0_x sub 2 3 div mul add def
    /p1_y p0_y conic_cntrl_y p0_y sub 2 3 div mul add def
    /p2_x p1_x to_x p0_x sub 1 3 div mul add def
    /p2_y p1_y to_y p0_y sub 1 3 div mul add def
    p1_x p1_y p2_x p2_y to_x to_y curveto
} bind def
/start_ol { gsave 1.1 dpi_x div dup scale} bind def
/end_ol { closepath fill grestore } bind def
28.346000 -28.346000 scale
-13.700000 -28.250000 translate
%%EndProlog


0.100000 slw
[] 0 sd
[] 0 sd
0 slj
1.000000 1.000000 1.000000 srgb
n 13.750000 2.200000 m 13.750000 28.150000 l 50.300000 28.150000 l 50.300000 2.200000 l f
0.000000 0.000000 0.000000 srgb
n 13.750000 2.200000 m 13.750000 28.150000 l 50.300000 28.150000 l 50.300000 2.200000 l cp s
0.100000 slw
[] 0 sd
[] 0 sd
0 slj
1.000000 1.000000 1.000000 srgb
n 15.450000 3.350000 m 15.450000 4.650000 l 24.400000 4.650000 l 24.400000 3.350000 l f
0.000000 0.000000 0.000000 srgb
n 15.450000 3.350000 m 15.450000 4.650000 l 24.400000 4.650000 l 24.400000 3.350000 l cp s
0.100000 slw
[] 0 sd
[] 0 sd
0 slj
1.000000 1.000000 1.000000 srgb
n 15.250000 6.000000 m 15.250000 8.600000 l 25.400000 8.600000 l 25.400000 6.000000 l f
0.000000 0.000000 0.000000 srgb
n 15.250000 6.000000 m 15.250000 8.600000 l 25.400000 8.600000 l 25.400000 6.000000 l cp s
0.100000 slw
[] 0 sd
[] 0 sd
0 slj
1.000000 1.000000 1.000000 srgb
n 15.800000 9.950000 m 15.800000 23.100000 l 47.650000 23.100000 l 47.650000 9.950000 l f
0.000000 0.000000 0.000000 srgb
n 15.800000 9.950000 m 15.800000 23.100000 l 47.650000 23.100000 l 47.650000 9.950000 l cp s
0.100000 slw
[] 0 sd
[] 0 sd
0 slj
1.000000 1.000000 1.000000 srgb
n 13.750000 25.500000 m 13.750000 28.200000 l 50.250000 28.200000 l 50.250000 25.500000 l f
0.000000 0.000000 0.000000 srgb
n 13.750000 25.500000 m 13.750000 28.200000 l 50.250000 28.200000 l 50.250000 25.500000 l cp s
gsave 15.775000 4.200000 translate 0.035278 -0.035278 scale
start_ol
448 3520 moveto
960 3520 lineto
960 2112 lineto
2624 2112 lineto
2624 3520 lineto
3136 3520 lineto
3136 0 lineto
2624 0 lineto
2624 1728 lineto
960 1728 lineto
960 0 lineto
448 0 lineto
448 3520 lineto
end_ol grestore 
gsave 16.257046 4.200000 translate 0.035278 -0.035278 scale
start_ol
1622 1344 moveto
1104 1344 904 1225 conicto
704 1106 704 818 conicto
704 589 854 454 conicto
1004 320 1262 320 conicto
1618 320 1833 572 conicto
2048 825 2048 1244 conicto
2048 1344 lineto
1622 1344 lineto
2496 1513 moveto
2496 0 lineto
2048 0 lineto
2048 384 lineto
1900 154 1679 45 conicto
1458 -64 1138 -64 conicto
733 -64 494 162 conicto
256 389 256 769 conicto
256 1213 555 1438 conicto
854 1664 1448 1664 conicto
2048 1664 lineto
2048 1712 lineto
2048 2025 1851 2196 conicto
1655 2368 1300 2368 conicto
1074 2368 860 2320 conicto
646 2272 448 2176 conicto
448 2560 lineto
687 2656 912 2704 conicto
1138 2752 1351 2752 conicto
1927 2752 2211 2444 conicto
2496 2137 2496 1513 conicto
end_ol grestore 
gsave 16.649175 4.200000 translate 0.035278 -0.035278 scale
start_ol
1689 1450 moveto
1983 1393 2143 1218 conicto
2304 1044 2304 785 conicto
2304 371 1997 153 conicto
1691 -64 1125 -64 conicto
935 -64 734 -16 conicto
534 32 320 128 conicto
320 512 lineto
487 416 686 368 conicto
886 320 1104 320 conicto
1459 320 1657 455 conicto
1856 591 1856 808 conicto
1856 1021 1679 1150 conicto
1503 1280 1180 1280 conicto
832 1280 lineto
832 1600 lineto
1199 1600 lineto
1473 1600 1632 1708 conicto
1792 1817 1792 1988 conicto
1792 2144 1625 2256 conicto
1459 2368 1173 2368 conicto
1003 2368 810 2337 conicto
617 2307 384 2240 conicto
384 2624 lineto
621 2688 827 2720 conicto
1033 2752 1216 2752 conicto
1691 2752 1965 2564 conicto
2240 2376 2240 2039 conicto
2240 1817 2097 1662 conicto
1955 1508 1689 1450 conicto
end_ol grestore 
gsave 16.988850 4.200000 translate 0.035278 -0.035278 scale
start_ol
896 1280 moveto
896 320 lineto
1509 320 lineto
1803 320 1957 443 conicto
2112 567 2112 801 conicto
2112 1035 1957 1157 conicto
1803 1280 1509 1280 conicto
896 1280 lineto
896 2368 moveto
896 1600 lineto
1447 1600 lineto
1684 1600 1834 1703 conicto
1984 1806 1984 1989 conicto
1984 2172 1834 2270 conicto
1684 2368 1447 2368 conicto
896 2368 lineto
448 2688 moveto
1474 2688 lineto
1935 2688 2183 2515 conicto
2432 2342 2432 2023 conicto
2432 1776 2304 1631 conicto
2176 1486 1924 1450 conicto
2226 1392 2393 1209 conicto
2560 1027 2560 754 conicto
2560 394 2289 197 conicto
2018 0 1516 0 conicto
448 0 lineto
448 2688 lineto
end_ol grestore 
gsave 17.365997 4.200000 translate 0.035278 -0.035278 scale
start_ol
1622 1344 moveto
1104 1344 904 1225 conicto
704 1106 704 818 conicto
704 589 854 454 conicto
1004 320 1262 320 conicto
1618 320 1833 572 conicto
2048 825 2048 1244 conicto
2048 1344 lineto
1622 1344 lineto
2496 1513 moveto
2496 0 lineto
2048 0 lineto
2048 384 lineto
1900 154 1679 45 conicto
1458 -64 1138 -64 conicto
733 -64 494 162 conicto
256 389 256 769 conicto
256 1213 555 1438 conicto
854 1664 1448 1664 conicto
2048 1664 lineto
2048 1712 lineto
2048 2025 1851 2196 conicto
1655 2368 1300 2368 conicto
1074 2368 860 2320 conicto
646 2272 448 2176 conicto
448 2560 lineto
687 2656 912 2704 conicto
1138 2752 1351 2752 conicto
1927 2752 2211 2444 conicto
2496 2137 2496 1513 conicto
end_ol grestore 
gsave 17.758126 4.200000 translate 0.035278 -0.035278 scale
start_ol
448 2688 moveto
896 2688 lineto
896 1600 lineto
2304 1600 lineto
2304 2688 lineto
2752 2688 lineto
2752 0 lineto
2304 0 lineto
2304 1280 lineto
896 1280 lineto
896 0 lineto
448 0 lineto
448 2688 lineto
end_ol grestore 
gsave 18.175234 4.200000 translate 0.035278 -0.035278 scale
start_ol
2752 2688 moveto
2752 0 lineto
2304 0 lineto
2304 2158 lineto
1022 0 lineto
448 0 lineto
448 2688 lineto
896 2688 lineto
896 535 lineto
2176 2688 lineto
2752 2688 lineto
end_ol grestore 
gsave 18.589844 4.200000 translate 0.035278 -0.035278 scale
start_ol
2752 1480 moveto
2752 1280 lineto
704 1280 lineto
733 811 978 565 conicto
1223 320 1660 320 conicto
1914 320 2152 384 conicto
2390 448 2624 576 conicto
2624 192 lineto
2388 67 2140 1 conicto
1893 -64 1639 -64 conicto
1001 -64 628 309 conicto
256 683 256 1320 conicto
256 1979 613 2365 conicto
970 2752 1576 2752 conicto
2120 2752 2436 2410 conicto
2752 2068 2752 1480 conicto
2304 1600 moveto
2299 1950 2099 2159 conicto
1900 2368 1572 2368 conicto
1200 2368 976 2166 conicto
753 1964 719 1597 conicto
2304 1600 lineto
end_ol grestore 
gsave 18.984470 4.200000 translate 0.035278 -0.035278 scale
start_ol
end_ol grestore 
gsave 19.186777 4.200000 translate 0.035278 -0.035278 scale
start_ol
2752 2688 moveto
2752 0 lineto
2304 0 lineto
2304 2368 lineto
896 2368 lineto
896 0 lineto
448 0 lineto
448 2688 lineto
2752 2688 lineto
end_ol grestore 
gsave 19.603885 4.200000 translate 0.035278 -0.035278 scale
start_ol
896 384 moveto
896 -1024 lineto
448 -1024 lineto
448 2688 lineto
896 2688 lineto
896 2304 lineto
1032 2531 1240 2641 conicto
1448 2752 1737 2752 conicto
2217 2752 2516 2364 conicto
2816 1976 2816 1344 conicto
2816 712 2516 324 conicto
2217 -64 1737 -64 conicto
1448 -64 1240 46 conicto
1032 157 896 384 conicto
2368 1344 moveto
2368 1823 2171 2095 conicto
1975 2368 1632 2368 conicto
1289 2368 1092 2095 conicto
896 1823 896 1344 conicto
896 865 1092 592 conicto
1289 320 1632 320 conicto
1975 320 2171 592 conicto
2368 865 2368 1344 conicto
end_ol grestore 
gsave 20.011004 4.200000 translate 0.035278 -0.035278 scale
start_ol
2752 2688 moveto
2752 0 lineto
2304 0 lineto
2304 2158 lineto
1022 0 lineto
448 0 lineto
448 2688 lineto
896 2688 lineto
896 535 lineto
2176 2688 lineto
2752 2688 lineto
end_ol grestore 
gsave 20.425614 4.200000 translate 0.035278 -0.035278 scale
start_ol
192 0 moveto
192 320 lineto
611 389 740 697 conicto
896 1131 896 2240 conicto
896 2688 lineto
2688 2688 lineto
2688 0 lineto
2240 0 lineto
2240 2368 lineto
1344 2368 lineto
1344 2098 lineto
1344 1046 1137 574 conicto
916 71 192 0 conicto
end_ol grestore 
gsave 20.835231 4.200000 translate 0.035278 -0.035278 scale
start_ol
1473 2368 moveto
1117 2368 910 2094 conicto
704 1820 704 1344 conicto
704 868 909 594 conicto
1115 320 1473 320 conicto
1827 320 2033 595 conicto
2240 870 2240 1344 conicto
2240 1816 2033 2092 conicto
1827 2368 1473 2368 conicto
1472 2752 moveto
2040 2752 2364 2378 conicto
2688 2005 2688 1344 conicto
2688 685 2364 310 conicto
2040 -64 1472 -64 conicto
902 -64 579 310 conicto
256 685 256 1344 conicto
256 2005 579 2378 conicto
902 2752 1472 2752 conicto
end_ol grestore 
gsave 21.227360 4.200000 translate 0.035278 -0.035278 scale
start_ol
1984 2688 moveto
2432 2688 lineto
2432 1426 lineto
3589 2688 lineto
4096 2688 lineto
3144 1654 lineto
4224 0 lineto
3761 0 lineto
2875 1358 lineto
2432 876 lineto
2432 0 lineto
1984 0 lineto
1984 876 lineto
1541 1358 lineto
655 0 lineto
192 0 lineto
1272 1654 lineto
320 2688 lineto
827 2688 lineto
1984 1426 lineto
1984 2688 lineto
end_ol grestore 
gsave 21.804317 4.200000 translate 0.035278 -0.035278 scale
start_ol
2752 1480 moveto
2752 1280 lineto
704 1280 lineto
733 811 978 565 conicto
1223 320 1660 320 conicto
1914 320 2152 384 conicto
2390 448 2624 576 conicto
2624 192 lineto
2388 67 2140 1 conicto
1893 -64 1639 -64 conicto
1001 -64 628 309 conicto
256 683 256 1320 conicto
256 1979 613 2365 conicto
970 2752 1576 2752 conicto
2120 2752 2436 2410 conicto
2752 2068 2752 1480 conicto
2304 1600 moveto
2299 1950 2099 2159 conicto
1900 2368 1572 2368 conicto
1200 2368 976 2166 conicto
753 1964 719 1597 conicto
2304 1600 lineto
end_ol grestore 
gsave 22.198943 4.200000 translate 0.035278 -0.035278 scale
start_ol
448 2688 moveto
896 2688 lineto
896 1600 lineto
2304 1600 lineto
2304 2688 lineto
2752 2688 lineto
2752 0 lineto
2304 0 lineto
2304 1280 lineto
896 1280 lineto
896 0 lineto
448 0 lineto
448 2688 lineto
end_ol grestore 
gsave 22.616050 4.200000 translate 0.035278 -0.035278 scale
start_ol
2752 2688 moveto
2752 0 lineto
2304 0 lineto
2304 2158 lineto
1022 0 lineto
448 0 lineto
448 2688 lineto
896 2688 lineto
896 535 lineto
2176 2688 lineto
2752 2688 lineto
end_ol grestore 
gsave 23.030660 4.200000 translate 0.035278 -0.035278 scale
start_ol
896 1921 moveto
896 1711 1045 1591 conicto
1194 1472 1471 1472 conicto
2048 1472 lineto
2048 2368 lineto
1471 2368 lineto
1194 2368 1045 2251 conicto
896 2134 896 1921 conicto
256 0 moveto
1089 1178 lineto
813 1241 630 1405 conicto
448 1570 448 1913 conicto
448 2302 701 2495 conicto
954 2688 1465 2688 conicto
2496 2688 lineto
2496 0 lineto
2048 0 lineto
2048 1152 lineto
1506 1152 lineto
725 0 lineto
256 0 lineto
end_ol grestore 
gsave 16.475000 7.550000 translate 0.035278 -0.035278 scale
start_ol
448 3520 moveto
960 3520 lineto
960 2112 lineto
2624 2112 lineto
2624 3520 lineto
3136 3520 lineto
3136 0 lineto
2624 0 lineto
2624 1728 lineto
960 1728 lineto
960 0 lineto
448 0 lineto
448 3520 lineto
end_ol grestore 
gsave 16.957046 7.550000 translate 0.035278 -0.035278 scale
start_ol
1622 1344 moveto
1104 1344 904 1225 conicto
704 1106 704 818 conicto
704 589 854 454 conicto
1004 320 1262 320 conicto
1618 320 1833 572 conicto
2048 825 2048 1244 conicto
2048 1344 lineto
1622 1344 lineto
2496 1513 moveto
2496 0 lineto
2048 0 lineto
2048 384 lineto
1900 154 1679 45 conicto
1458 -64 1138 -64 conicto
733 -64 494 162 conicto
256 389 256 769 conicto
256 1213 555 1438 conicto
854 1664 1448 1664 conicto
2048 1664 lineto
2048 1712 lineto
2048 2025 1851 2196 conicto
1655 2368 1300 2368 conicto
1074 2368 860 2320 conicto
646 2272 448 2176 conicto
448 2560 lineto
687 2656 912 2704 conicto
1138 2752 1351 2752 conicto
1927 2752 2211 2444 conicto
2496 2137 2496 1513 conicto
end_ol grestore 
gsave 17.349175 7.550000 translate 0.035278 -0.035278 scale
start_ol
896 1280 moveto
896 320 lineto
1509 320 lineto
1803 320 1957 443 conicto
2112 567 2112 801 conicto
2112 1035 1957 1157 conicto
1803 1280 1509 1280 conicto
896 1280 lineto
896 2368 moveto
896 1600 lineto
1447 1600 lineto
1684 1600 1834 1703 conicto
1984 1806 1984 1989 conicto
1984 2172 1834 2270 conicto
1684 2368 1447 2368 conicto
896 2368 lineto
448 2688 moveto
1474 2688 lineto
1935 2688 2183 2515 conicto
2432 2342 2432 2023 conicto
2432 1776 2304 1631 conicto
2176 1486 1924 1450 conicto
2226 1392 2393 1209 conicto
2560 1027 2560 754 conicto
2560 394 2289 197 conicto
2018 0 1516 0 conicto
448 0 lineto
448 2688 lineto
end_ol grestore 
gsave 17.726322 7.550000 translate 0.035278 -0.035278 scale
start_ol
2752 2688 moveto
2752 0 lineto
2304 0 lineto
2304 2158 lineto
1022 0 lineto
448 0 lineto
448 2688 lineto
896 2688 lineto
896 535 lineto
2176 2688 lineto
2752 2688 lineto
end_ol grestore 
gsave 18.140932 7.550000 translate 0.035278 -0.035278 scale
start_ol
448 0 moveto
448 2688 lineto
2304 2688 lineto
2304 2368 lineto
896 2368 lineto
896 0 lineto
448 0 lineto
end_ol grestore 
gsave 18.478111 7.550000 translate 0.035278 -0.035278 scale
start_ol
1622 1344 moveto
1104 1344 904 1225 conicto
704 1106 704 818 conicto
704 589 854 454 conicto
1004 320 1262 320 conicto
1618 320 1833 572 conicto
2048 825 2048 1244 conicto
2048 1344 lineto
1622 1344 lineto
2496 1513 moveto
2496 0 lineto
2048 0 lineto
2048 384 lineto
1900 154 1679 45 conicto
1458 -64 1138 -64 conicto
733 -64 494 162 conicto
256 389 256 769 conicto
256 1213 555 1438 conicto
854 1664 1448 1664 conicto
2048 1664 lineto
2048 1712 lineto
2048 2025 1851 2196 conicto
1655 2368 1300 2368 conicto
1074 2368 860 2320 conicto
646 2272 448 2176 conicto
448 2560 lineto
687 2656 912 2704 conicto
1138 2752 1351 2752 conicto
1927 2752 2211 2444 conicto
2496 2137 2496 1513 conicto
end_ol grestore 
gsave 18.870240 7.550000 translate 0.035278 -0.035278 scale
start_ol
2752 0 moveto
448 0 lineto
448 2688 lineto
896 2688 lineto
896 320 lineto
2304 320 lineto
2304 2688 lineto
2752 2688 lineto
2752 320 lineto
3072 320 lineto
3072 -704 lineto
2752 -704 lineto
2752 0 lineto
end_ol grestore 
gsave 19.304826 7.550000 translate 0.035278 -0.035278 scale
start_ol
2752 2688 moveto
2752 0 lineto
2304 0 lineto
2304 2158 lineto
1022 0 lineto
448 0 lineto
448 2688 lineto
896 2688 lineto
896 535 lineto
2176 2688 lineto
2752 2688 lineto
end_ol grestore 
gsave 19.719437 7.550000 translate 0.035278 -0.035278 scale
start_ol
1473 2368 moveto
1117 2368 910 2094 conicto
704 1820 704 1344 conicto
704 868 909 594 conicto
1115 320 1473 320 conicto
1827 320 2033 595 conicto
2240 870 2240 1344 conicto
2240 1816 2033 2092 conicto
1827 2368 1473 2368 conicto
1472 2752 moveto
2040 2752 2364 2378 conicto
2688 2005 2688 1344 conicto
2688 685 2364 310 conicto
2040 -64 1472 -64 conicto
902 -64 579 310 conicto
256 685 256 1344 conicto
256 2005 579 2378 conicto
902 2752 1472 2752 conicto
end_ol grestore 
gsave 20.111566 7.550000 translate 0.035278 -0.035278 scale
start_ol
448 2688 moveto
896 2688 lineto
896 1600 lineto
2304 1600 lineto
2304 2688 lineto
2752 2688 lineto
2752 0 lineto
2304 0 lineto
2304 1280 lineto
896 1280 lineto
896 0 lineto
448 0 lineto
448 2688 lineto
end_ol grestore 
gsave 20.528673 7.550000 translate 0.035278 -0.035278 scale
start_ol
448 2688 moveto
896 2688 lineto
896 1600 lineto
2304 1600 lineto
2304 2688 lineto
2752 2688 lineto
2752 0 lineto
2304 0 lineto
2304 1280 lineto
896 1280 lineto
896 0 lineto
448 0 lineto
448 2688 lineto
end_ol grestore 
gsave 20.945780 7.550000 translate 0.035278 -0.035278 scale
start_ol
1473 2368 moveto
1117 2368 910 2094 conicto
704 1820 704 1344 conicto
704 868 909 594 conicto
1115 320 1473 320 conicto
1827 320 2033 595 conicto
2240 870 2240 1344 conicto
2240 1816 2033 2092 conicto
1827 2368 1473 2368 conicto
1472 2752 moveto
2040 2752 2364 2378 conicto
2688 2005 2688 1344 conicto
2688 685 2364 310 conicto
2040 -64 1472 -64 conicto
902 -64 579 310 conicto
256 685 256 1344 conicto
256 2005 579 2378 conicto
902 2752 1472 2752 conicto
end_ol grestore 
gsave 21.337909 7.550000 translate 0.035278 -0.035278 scale
start_ol
2752 1480 moveto
2752 1280 lineto
704 1280 lineto
733 811 978 565 conicto
1223 320 1660 320 conicto
1914 320 2152 384 conicto
2390 448 2624 576 conicto
2624 192 lineto
2388 67 2140 1 conicto
1893 -64 1639 -64 conicto
1001 -64 628 309 conicto
256 683 256 1320 conicto
256 1979 613 2365 conicto
970 2752 1576 2752 conicto
2120 2752 2436 2410 conicto
2752 2068 2752 1480 conicto
2304 1600 moveto
2299 1950 2099 2159 conicto
1900 2368 1572 2368 conicto
1200 2368 976 2166 conicto
753 1964 719 1597 conicto
2304 1600 lineto
end_ol grestore 
gsave 21.732535 7.550000 translate 0.035278 -0.035278 scale
start_ol
end_ol grestore 
gsave 21.934842 7.550000 translate 0.035278 -0.035278 scale
start_ol
448 2688 moveto
1094 2688 lineto
1857 884 lineto
2623 2688 lineto
3264 2688 lineto
3264 0 lineto
2816 0 lineto
2816 2265 lineto
2077 512 lineto
1637 512 lineto
896 2265 lineto
896 0 lineto
448 0 lineto
448 2688 lineto
end_ol grestore 
gsave 22.416888 7.550000 translate 0.035278 -0.035278 scale
start_ol
2752 1480 moveto
2752 1280 lineto
704 1280 lineto
733 811 978 565 conicto
1223 320 1660 320 conicto
1914 320 2152 384 conicto
2390 448 2624 576 conicto
2624 192 lineto
2388 67 2140 1 conicto
1893 -64 1639 -64 conicto
1001 -64 628 309 conicto
256 683 256 1320 conicto
256 1979 613 2365 conicto
970 2752 1576 2752 conicto
2120 2752 2436 2410 conicto
2752 2068 2752 1480 conicto
2304 1600 moveto
2299 1950 2099 2159 conicto
1900 2368 1572 2368 conicto
1200 2368 976 2166 conicto
753 1964 719 1597 conicto
2304 1600 lineto
end_ol grestore 
gsave 22.811515 7.550000 translate 0.035278 -0.035278 scale
start_ol
448 2688 moveto
896 2688 lineto
896 1600 lineto
2304 1600 lineto
2304 2688 lineto
2752 2688 lineto
2752 0 lineto
2304 0 lineto
2304 1280 lineto
896 1280 lineto
896 0 lineto
448 0 lineto
448 2688 lineto
end_ol grestore 
gsave 23.228622 7.550000 translate 0.035278 -0.035278 scale
start_ol
2625 2368 moveto
2269 2368 2062 2094 conicto
1856 1820 1856 1344 conicto
1856 868 2061 594 conicto
2267 320 2625 320 conicto
2979 320 3185 595 conicto
3392 870 3392 1344 conicto
3392 1816 3185 2092 conicto
2979 2368 2625 2368 conicto
1408 1600 moveto
1453 2062 1749 2407 conicto
2046 2752 2617 2752 conicto
3188 2752 3514 2378 conicto
3840 2005 3840 1344 conicto
3840 685 3515 310 conicto
3191 -64 2623 -64 conicto
2052 -64 1740 305 conicto
1429 674 1408 1280 conicto
896 1280 lineto
896 0 lineto
448 0 lineto
448 2688 lineto
896 2688 lineto
896 1600 lineto
1408 1600 lineto
end_ol grestore 
0.100000 slw
[] 0 sd
[] 0 sd
0 slj
1.000000 1.000000 1.000000 srgb
n 15.150000 23.800000 m 15.150000 24.700000 l 23.050000 24.700000 l 23.050000 23.800000 l f
0.000000 0.000000 0.000000 srgb
n 15.150000 23.800000 m 15.150000 24.700000 l 23.050000 24.700000 l 23.050000 23.800000 l cp s
gsave 15.500000 24.500000 translate 0.035278 -0.035278 scale
start_ol
1184 384 moveto
2688 384 lineto
2688 3136 lineto
1600 3136 lineto
1600 2630 lineto
1600 1439 1334 649 conicto
1279 487 1184 384 conicto
430 384 moveto
758 533 851 818 conicto
1088 1548 1088 2852 conicto
1088 3520 lineto
3200 3520 lineto
3200 384 lineto
3584 384 lineto
3584 -768 lineto
3200 -768 lineto
3200 0 lineto
640 0 lineto
640 -768 lineto
256 -768 lineto
256 384 lineto
430 384 lineto
end_ol grestore 
gsave 16.002030 24.500000 translate 0.035278 -0.035278 scale
start_ol
1473 2368 moveto
1117 2368 910 2094 conicto
704 1820 704 1344 conicto
704 868 909 594 conicto
1115 320 1473 320 conicto
1827 320 2033 595 conicto
2240 870 2240 1344 conicto
2240 1816 2033 2092 conicto
1827 2368 1473 2368 conicto
1472 2752 moveto
2040 2752 2364 2378 conicto
2688 2005 2688 1344 conicto
2688 685 2364 310 conicto
2040 -64 1472 -64 conicto
902 -64 579 310 conicto
256 685 256 1344 conicto
256 2005 579 2378 conicto
902 2752 1472 2752 conicto
end_ol grestore 
gsave 16.394159 24.500000 translate 0.035278 -0.035278 scale
start_ol
1465 2752 moveto
2036 2752 2362 2378 conicto
2688 2005 2688 1344 conicto
2688 685 2364 310 conicto
2040 -64 1472 -64 conicto
902 -64 587 299 conicto
273 662 256 1341 conicto
242 1876 lineto
230 2155 230 2251 conicto
230 2625 367 2901 conicto
582 3333 954 3520 conicto
1327 3707 1952 3712 conicto
2240 3714 2368 3755 conicto
2496 3437 lineto
2379 3394 2271 3392 conicto
1674 3352 lineto
1373 3331 1192 3228 conicto
716 2955 671 2597 conicto
654 2466 lineto
963 2752 1465 2752 conicto
1473 2368 moveto
1117 2368 910 2094 conicto
704 1820 704 1344 conicto
704 868 909 594 conicto
1115 320 1473 320 conicto
1827 320 2033 595 conicto
2240 870 2240 1344 conicto
2240 1816 2033 2092 conicto
1827 2368 1473 2368 conicto
end_ol grestore 
gsave 16.788785 24.500000 translate 0.035278 -0.035278 scale
start_ol
1622 1344 moveto
1104 1344 904 1225 conicto
704 1106 704 818 conicto
704 589 854 454 conicto
1004 320 1262 320 conicto
1618 320 1833 572 conicto
2048 825 2048 1244 conicto
2048 1344 lineto
1622 1344 lineto
2496 1513 moveto
2496 0 lineto
2048 0 lineto
2048 384 lineto
1900 154 1679 45 conicto
1458 -64 1138 -64 conicto
733 -64 494 162 conicto
256 389 256 769 conicto
256 1213 555 1438 conicto
854 1664 1448 1664 conicto
2048 1664 lineto
2048 1712 lineto
2048 2025 1851 2196 conicto
1655 2368 1300 2368 conicto
1074 2368 860 2320 conicto
646 2272 448 2176 conicto
448 2560 lineto
687 2656 912 2704 conicto
1138 2752 1351 2752 conicto
1927 2752 2211 2444 conicto
2496 2137 2496 1513 conicto
end_ol grestore 
gsave 17.180914 24.500000 translate 0.035278 -0.035278 scale
start_ol
896 1280 moveto
896 320 lineto
1509 320 lineto
1803 320 1957 443 conicto
2112 567 2112 801 conicto
2112 1035 1957 1157 conicto
1803 1280 1509 1280 conicto
896 1280 lineto
896 2368 moveto
896 1600 lineto
1447 1600 lineto
1684 1600 1834 1703 conicto
1984 1806 1984 1989 conicto
1984 2172 1834 2270 conicto
1684 2368 1447 2368 conicto
896 2368 lineto
448 2688 moveto
1474 2688 lineto
1935 2688 2183 2515 conicto
2432 2342 2432 2023 conicto
2432 1776 2304 1631 conicto
2176 1486 1924 1450 conicto
2226 1392 2393 1209 conicto
2560 1027 2560 754 conicto
2560 394 2289 197 conicto
2018 0 1516 0 conicto
448 0 lineto
448 2688 lineto
end_ol grestore 
gsave 17.558061 24.500000 translate 0.035278 -0.035278 scale
start_ol
192 0 moveto
192 320 lineto
611 389 740 697 conicto
896 1131 896 2240 conicto
896 2688 lineto
2688 2688 lineto
2688 0 lineto
2240 0 lineto
2240 2368 lineto
1344 2368 lineto
1344 2098 lineto
1344 1046 1137 574 conicto
916 71 192 0 conicto
end_ol grestore 
gsave 17.967678 24.500000 translate 0.035278 -0.035278 scale
start_ol
2752 1480 moveto
2752 1280 lineto
704 1280 lineto
733 811 978 565 conicto
1223 320 1660 320 conicto
1914 320 2152 384 conicto
2390 448 2624 576 conicto
2624 192 lineto
2388 67 2140 1 conicto
1893 -64 1639 -64 conicto
1001 -64 628 309 conicto
256 683 256 1320 conicto
256 1979 613 2365 conicto
970 2752 1576 2752 conicto
2120 2752 2436 2410 conicto
2752 2068 2752 1480 conicto
2304 1600 moveto
2299 1950 2099 2159 conicto
1900 2368 1572 2368 conicto
1200 2368 976 2166 conicto
753 1964 719 1597 conicto
2304 1600 lineto
end_ol grestore 
gsave 18.362304 24.500000 translate 0.035278 -0.035278 scale
start_ol
448 2688 moveto
896 2688 lineto
896 1600 lineto
2304 1600 lineto
2304 2688 lineto
2752 2688 lineto
2752 0 lineto
2304 0 lineto
2304 1280 lineto
896 1280 lineto
896 0 lineto
448 0 lineto
448 2688 lineto
end_ol grestore 
gsave 18.779411 24.500000 translate 0.035278 -0.035278 scale
start_ol
2752 2688 moveto
2752 0 lineto
2304 0 lineto
2304 2158 lineto
1022 0 lineto
448 0 lineto
448 2688 lineto
896 2688 lineto
896 535 lineto
2176 2688 lineto
2752 2688 lineto
end_ol grestore 
gsave 19.194022 24.500000 translate 0.035278 -0.035278 scale
start_ol
2752 1480 moveto
2752 1280 lineto
704 1280 lineto
733 811 978 565 conicto
1223 320 1660 320 conicto
1914 320 2152 384 conicto
2390 448 2624 576 conicto
2624 192 lineto
2388 67 2140 1 conicto
1893 -64 1639 -64 conicto
1001 -64 628 309 conicto
256 683 256 1320 conicto
256 1979 613 2365 conicto
970 2752 1576 2752 conicto
2120 2752 2436 2410 conicto
2752 2068 2752 1480 conicto
2304 1600 moveto
2299 1950 2099 2159 conicto
1900 2368 1572 2368 conicto
1200 2368 976 2166 conicto
753 1964 719 1597 conicto
2304 1600 lineto
end_ol grestore 
gsave 19.588648 24.500000 translate 0.035278 -0.035278 scale
start_ol
end_ol grestore 
gsave 19.790955 24.500000 translate 0.035278 -0.035278 scale
start_ol
704 1344 moveto
704 790 878 555 conicto
1052 320 1347 320 conicto
1582 320 1856 716 conicto
1856 1972 lineto
1582 2368 1347 2368 conicto
1052 2368 878 2133 conicto
704 1898 704 1344 conicto
1856 -1024 moveto
1856 345 lineto
1720 121 1564 28 conicto
1408 -64 1210 -64 conicto
812 -64 534 306 conicto
256 676 256 1334 conicto
256 1993 534 2372 conicto
812 2752 1210 2752 conicto
1408 2752 1564 2662 conicto
1720 2572 1856 2348 conicto
1856 3712 lineto
2304 3712 lineto
2304 2348 lineto
2440 2572 2596 2662 conicto
2752 2752 2950 2752 conicto
3348 2752 3626 2372 conicto
3904 1993 3904 1334 conicto
3904 676 3626 306 conicto
3348 -64 2950 -64 conicto
2752 -64 2596 28 conicto
2440 121 2304 345 conicto
2304 -1024 lineto
1856 -1024 lineto
3456 1344 moveto
3456 1898 3282 2133 conicto
3108 2368 2813 2368 conicto
2578 2368 2304 1972 conicto
2304 716 lineto
2578 320 2813 320 conicto
3108 320 3282 555 conicto
3456 790 3456 1344 conicto
end_ol grestore 
gsave 20.337939 24.500000 translate 0.035278 -0.035278 scale
start_ol
2752 2688 moveto
2752 0 lineto
2304 0 lineto
2304 2158 lineto
1022 0 lineto
448 0 lineto
448 2688 lineto
896 2688 lineto
896 535 lineto
2176 2688 lineto
2752 2688 lineto
end_ol grestore 
gsave 20.752550 24.500000 translate 0.035278 -0.035278 scale
start_ol
192 0 moveto
192 320 lineto
611 389 740 697 conicto
896 1131 896 2240 conicto
896 2688 lineto
2688 2688 lineto
2688 0 lineto
2240 0 lineto
2240 2368 lineto
1344 2368 lineto
1344 2098 lineto
1344 1046 1137 574 conicto
916 71 192 0 conicto
end_ol grestore 
gsave 21.162166 24.500000 translate 0.035278 -0.035278 scale
start_ol
2112 801 moveto
2112 1035 1958 1157 conicto
1805 1280 1510 1280 conicto
896 1280 lineto
896 320 lineto
1510 320 lineto
1805 320 1958 443 conicto
2112 567 2112 801 conicto
448 2688 moveto
896 2688 lineto
896 1600 lineto
1524 1600 lineto
2022 1600 2291 1403 conicto
2560 1207 2560 801 conicto
2560 396 2289 198 conicto
2018 0 1516 0 conicto
448 0 lineto
448 2688 lineto
end_ol grestore 
gsave 21.539313 24.500000 translate 0.035278 -0.035278 scale
start_ol
448 2688 moveto
1094 2688 lineto
1857 884 lineto
2623 2688 lineto
3264 2688 lineto
3264 0 lineto
2816 0 lineto
2816 2265 lineto
2077 512 lineto
1637 512 lineto
896 2265 lineto
896 0 lineto
448 0 lineto
448 2688 lineto
end_ol grestore 
gsave 22.021359 24.500000 translate 0.035278 -0.035278 scale
start_ol
1622 1344 moveto
1104 1344 904 1225 conicto
704 1106 704 818 conicto
704 589 854 454 conicto
1004 320 1262 320 conicto
1618 320 1833 572 conicto
2048 825 2048 1244 conicto
2048 1344 lineto
1622 1344 lineto
2496 1513 moveto
2496 0 lineto
2048 0 lineto
2048 384 lineto
1900 154 1679 45 conicto
1458 -64 1138 -64 conicto
733 -64 494 162 conicto
256 389 256 769 conicto
256 1213 555 1438 conicto
854 1664 1448 1664 conicto
2048 1664 lineto
2048 1712 lineto
2048 2025 1851 2196 conicto
1655 2368 1300 2368 conicto
1074 2368 860 2320 conicto
646 2272 448 2176 conicto
448 2560 lineto
687 2656 912 2704 conicto
1138 2752 1351 2752 conicto
1927 2752 2211 2444 conicto
2496 2137 2496 1513 conicto
end_ol grestore 
gsave 25.775000 16.625000 translate 0.035278 -0.035278 scale
start_ol
-64 3520 moveto
3008 3520 lineto
3008 3136 lineto
1728 3136 lineto
1728 0 lineto
1216 0 lineto
1216 3136 lineto
-64 3136 lineto
-64 3520 lineto
end_ol grestore 
gsave 26.164632 16.625000 translate 0.035278 -0.035278 scale
start_ol
1622 1344 moveto
1104 1344 904 1225 conicto
704 1106 704 818 conicto
704 589 854 454 conicto
1004 320 1262 320 conicto
1618 320 1833 572 conicto
2048 825 2048 1244 conicto
2048 1344 lineto
1622 1344 lineto
2496 1513 moveto
2496 0 lineto
2048 0 lineto
2048 384 lineto
1900 154 1679 45 conicto
1458 -64 1138 -64 conicto
733 -64 494 162 conicto
256 389 256 769 conicto
256 1213 555 1438 conicto
854 1664 1448 1664 conicto
2048 1664 lineto
2048 1712 lineto
2048 2025 1851 2196 conicto
1655 2368 1300 2368 conicto
1074 2368 860 2320 conicto
646 2272 448 2176 conicto
448 2560 lineto
687 2656 912 2704 conicto
1138 2752 1351 2752 conicto
1927 2752 2211 2444 conicto
2496 2137 2496 1513 conicto
end_ol grestore 
gsave 26.556761 16.625000 translate 0.035278 -0.035278 scale
start_ol
1465 2752 moveto
2036 2752 2362 2378 conicto
2688 2005 2688 1344 conicto
2688 685 2364 310 conicto
2040 -64 1472 -64 conicto
902 -64 587 299 conicto
273 662 256 1341 conicto
242 1876 lineto
230 2155 230 2251 conicto
230 2625 367 2901 conicto
582 3333 954 3520 conicto
1327 3707 1952 3712 conicto
2240 3714 2368 3755 conicto
2496 3437 lineto
2379 3394 2271 3392 conicto
1674 3352 lineto
1373 3331 1192 3228 conicto
716 2955 671 2597 conicto
654 2466 lineto
963 2752 1465 2752 conicto
1473 2368 moveto
1117 2368 910 2094 conicto
704 1820 704 1344 conicto
704 868 909 594 conicto
1115 320 1473 320 conicto
1827 320 2033 595 conicto
2240 870 2240 1344 conicto
2240 1816 2033 2092 conicto
1827 2368 1473 2368 conicto
end_ol grestore 
gsave 26.951387 16.625000 translate 0.035278 -0.035278 scale
start_ol
192 0 moveto
192 320 lineto
611 389 740 697 conicto
896 1131 896 2240 conicto
896 2688 lineto
2688 2688 lineto
2688 0 lineto
2240 0 lineto
2240 2368 lineto
1344 2368 lineto
1344 2098 lineto
1344 1046 1137 574 conicto
916 71 192 0 conicto
end_ol grestore 
gsave 27.361003 16.625000 translate 0.035278 -0.035278 scale
start_ol
2752 2688 moveto
2752 0 lineto
2304 0 lineto
2304 2158 lineto
1022 0 lineto
448 0 lineto
448 2688 lineto
896 2688 lineto
896 535 lineto
2176 2688 lineto
2752 2688 lineto
end_ol grestore 
gsave 27.775614 16.625000 translate 0.035278 -0.035278 scale
start_ol
2752 0 moveto
448 0 lineto
448 2688 lineto
896 2688 lineto
896 320 lineto
2304 320 lineto
2304 2688 lineto
2752 2688 lineto
2752 320 lineto
3072 320 lineto
3072 -704 lineto
2752 -704 lineto
2752 0 lineto
end_ol grestore 
gsave 28.210200 16.625000 translate 0.035278 -0.035278 scale
start_ol
1622 1344 moveto
1104 1344 904 1225 conicto
704 1106 704 818 conicto
704 589 854 454 conicto
1004 320 1262 320 conicto
1618 320 1833 572 conicto
2048 825 2048 1244 conicto
2048 1344 lineto
1622 1344 lineto
2496 1513 moveto
2496 0 lineto
2048 0 lineto
2048 384 lineto
1900 154 1679 45 conicto
1458 -64 1138 -64 conicto
733 -64 494 162 conicto
256 389 256 769 conicto
256 1213 555 1438 conicto
854 1664 1448 1664 conicto
2048 1664 lineto
2048 1712 lineto
2048 2025 1851 2196 conicto
1655 2368 1300 2368 conicto
1074 2368 860 2320 conicto
646 2272 448 2176 conicto
448 2560 lineto
687 2656 912 2704 conicto
1138 2752 1351 2752 conicto
1927 2752 2211 2444 conicto
2496 2137 2496 1513 conicto
end_ol grestore 
gsave 28.602329 16.625000 translate 0.035278 -0.035278 scale
start_ol
end_ol grestore 
gsave 28.804636 16.625000 translate 0.035278 -0.035278 scale
start_ol
2368 2560 moveto
2368 2176 lineto
2180 2272 1991 2320 conicto
1803 2368 1611 2368 conicto
1180 2368 942 2099 conicto
704 1830 704 1344 conicto
704 858 942 589 conicto
1180 320 1611 320 conicto
1803 320 1991 368 conicto
2180 416 2368 512 conicto
2368 128 lineto
2184 32 1987 -16 conicto
1791 -64 1569 -64 conicto
966 -64 611 316 conicto
256 697 256 1344 conicto
256 2000 615 2376 conicto
974 2752 1598 2752 conicto
1801 2752 1994 2704 conicto
2187 2656 2368 2560 conicto
end_ol grestore 
gsave 29.156805 16.625000 translate 0.035278 -0.035278 scale
start_ol
end_ol grestore 
gsave 29.359112 16.625000 translate 0.035278 -0.035278 scale
start_ol
2752 2688 moveto
2752 0 lineto
2304 0 lineto
2304 2158 lineto
1022 0 lineto
448 0 lineto
448 2688 lineto
896 2688 lineto
896 535 lineto
2176 2688 lineto
2752 2688 lineto
end_ol grestore 
gsave 29.773722 16.625000 translate 0.035278 -0.035278 scale
start_ol
448 2688 moveto
896 2688 lineto
896 1600 lineto
2304 1600 lineto
2304 2688 lineto
2752 2688 lineto
2752 0 lineto
2304 0 lineto
2304 1280 lineto
896 1280 lineto
896 0 lineto
448 0 lineto
448 2688 lineto
end_ol grestore 
gsave 30.190830 16.625000 translate 0.035278 -0.035278 scale
start_ol
704 1344 moveto
704 790 878 555 conicto
1052 320 1347 320 conicto
1582 320 1856 716 conicto
1856 1972 lineto
1582 2368 1347 2368 conicto
1052 2368 878 2133 conicto
704 1898 704 1344 conicto
1856 -1024 moveto
1856 345 lineto
1720 121 1564 28 conicto
1408 -64 1210 -64 conicto
812 -64 534 306 conicto
256 676 256 1334 conicto
256 1993 534 2372 conicto
812 2752 1210 2752 conicto
1408 2752 1564 2662 conicto
1720 2572 1856 2348 conicto
1856 3712 lineto
2304 3712 lineto
2304 2348 lineto
2440 2572 2596 2662 conicto
2752 2752 2950 2752 conicto
3348 2752 3626 2372 conicto
3904 1993 3904 1334 conicto
3904 676 3626 306 conicto
3348 -64 2950 -64 conicto
2752 -64 2596 28 conicto
2440 121 2304 345 conicto
2304 -1024 lineto
1856 -1024 lineto
3456 1344 moveto
3456 1898 3282 2133 conicto
3108 2368 2813 2368 conicto
2578 2368 2304 1972 conicto
2304 716 lineto
2578 320 2813 320 conicto
3108 320 3282 555 conicto
3456 790 3456 1344 conicto
end_ol grestore 
gsave 30.737814 16.625000 translate 0.035278 -0.035278 scale
start_ol
1473 2368 moveto
1117 2368 910 2094 conicto
704 1820 704 1344 conicto
704 868 909 594 conicto
1115 320 1473 320 conicto
1827 320 2033 595 conicto
2240 870 2240 1344 conicto
2240 1816 2033 2092 conicto
1827 2368 1473 2368 conicto
1472 2752 moveto
2040 2752 2364 2378 conicto
2688 2005 2688 1344 conicto
2688 685 2364 310 conicto
2040 -64 1472 -64 conicto
902 -64 579 310 conicto
256 685 256 1344 conicto
256 2005 579 2378 conicto
902 2752 1472 2752 conicto
end_ol grestore 
gsave 31.129943 16.625000 translate 0.035278 -0.035278 scale
start_ol
896 384 moveto
896 -1024 lineto
448 -1024 lineto
448 2688 lineto
896 2688 lineto
896 2304 lineto
1032 2531 1240 2641 conicto
1448 2752 1737 2752 conicto
2217 2752 2516 2364 conicto
2816 1976 2816 1344 conicto
2816 712 2516 324 conicto
2217 -64 1737 -64 conicto
1448 -64 1240 46 conicto
1032 157 896 384 conicto
2368 1344 moveto
2368 1823 2171 2095 conicto
1975 2368 1632 2368 conicto
1289 2368 1092 2095 conicto
896 1823 896 1344 conicto
896 865 1092 592 conicto
1289 320 1632 320 conicto
1975 320 2171 592 conicto
2368 865 2368 1344 conicto
end_ol grestore 
gsave 31.537063 16.625000 translate 0.035278 -0.035278 scale
start_ol
448 2688 moveto
1094 2688 lineto
1857 884 lineto
2623 2688 lineto
3264 2688 lineto
3264 0 lineto
2816 0 lineto
2816 2265 lineto
2077 512 lineto
1637 512 lineto
896 2265 lineto
896 0 lineto
448 0 lineto
448 2688 lineto
end_ol grestore 
gsave 32.019109 16.625000 translate 0.035278 -0.035278 scale
start_ol
1622 1344 moveto
1104 1344 904 1225 conicto
704 1106 704 818 conicto
704 589 854 454 conicto
1004 320 1262 320 conicto
1618 320 1833 572 conicto
2048 825 2048 1244 conicto
2048 1344 lineto
1622 1344 lineto
2496 1513 moveto
2496 0 lineto
2048 0 lineto
2048 384 lineto
1900 154 1679 45 conicto
1458 -64 1138 -64 conicto
733 -64 494 162 conicto
256 389 256 769 conicto
256 1213 555 1438 conicto
854 1664 1448 1664 conicto
2048 1664 lineto
2048 1712 lineto
2048 2025 1851 2196 conicto
1655 2368 1300 2368 conicto
1074 2368 860 2320 conicto
646 2272 448 2176 conicto
448 2560 lineto
687 2656 912 2704 conicto
1138 2752 1351 2752 conicto
1927 2752 2211 2444 conicto
2496 2137 2496 1513 conicto
end_ol grestore 
gsave 32.411238 16.625000 translate 0.035278 -0.035278 scale
start_ol
2752 0 moveto
448 0 lineto
448 2688 lineto
896 2688 lineto
896 320 lineto
2304 320 lineto
2304 2688 lineto
2752 2688 lineto
2752 320 lineto
3072 320 lineto
3072 -704 lineto
2752 -704 lineto
2752 0 lineto
end_ol grestore 
gsave 32.845824 16.625000 translate 0.035278 -0.035278 scale
start_ol
2752 2688 moveto
2752 0 lineto
2304 0 lineto
2304 2158 lineto
1022 0 lineto
448 0 lineto
448 2688 lineto
896 2688 lineto
896 535 lineto
2176 2688 lineto
2752 2688 lineto
end_ol grestore 
gsave 33.260435 16.625000 translate 0.035278 -0.035278 scale
start_ol
2752 1480 moveto
2752 1280 lineto
704 1280 lineto
733 811 978 565 conicto
1223 320 1660 320 conicto
1914 320 2152 384 conicto
2390 448 2624 576 conicto
2624 192 lineto
2388 67 2140 1 conicto
1893 -64 1639 -64 conicto
1001 -64 628 309 conicto
256 683 256 1320 conicto
256 1979 613 2365 conicto
970 2752 1576 2752 conicto
2120 2752 2436 2410 conicto
2752 2068 2752 1480 conicto
2304 1600 moveto
2299 1950 2099 2159 conicto
1900 2368 1572 2368 conicto
1200 2368 976 2166 conicto
753 1964 719 1597 conicto
2304 1600 lineto
end_ol grestore 
gsave 33.655061 16.625000 translate 0.035278 -0.035278 scale
start_ol
2752 2688 moveto
2752 0 lineto
2304 0 lineto
2304 2158 lineto
1022 0 lineto
448 0 lineto
448 2688 lineto
896 2688 lineto
896 535 lineto
2176 2688 lineto
2752 2688 lineto
832 3776 moveto
1166 3776 lineto
1190 3584 1298 3488 conicto
1406 3392 1600 3392 conicto
1791 3392 1898 3486 conicto
2005 3581 2034 3776 conicto
2368 3776 lineto
2343 3425 2149 3248 conicto
1956 3072 1600 3072 conicto
1244 3072 1050 3248 conicto
857 3425 832 3776 conicto
end_ol grestore 
gsave 34.069671 16.625000 translate 0.035278 -0.035278 scale
start_ol
end_ol grestore 
gsave 34.271978 16.625000 translate 0.035278 -0.035278 scale
start_ol
1473 2368 moveto
1117 2368 910 2094 conicto
704 1820 704 1344 conicto
704 868 909 594 conicto
1115 320 1473 320 conicto
1827 320 2033 595 conicto
2240 870 2240 1344 conicto
2240 1816 2033 2092 conicto
1827 2368 1473 2368 conicto
1472 2752 moveto
2040 2752 2364 2378 conicto
2688 2005 2688 1344 conicto
2688 685 2364 310 conicto
2040 -64 1472 -64 conicto
902 -64 579 310 conicto
256 685 256 1344 conicto
256 2005 579 2378 conicto
902 2752 1472 2752 conicto
end_ol grestore 
gsave 34.664107 16.625000 translate 0.035278 -0.035278 scale
start_ol
end_ol grestore 
gsave 34.866414 16.625000 translate 0.035278 -0.035278 scale
start_ol
704 1344 moveto
704 790 878 555 conicto
1052 320 1347 320 conicto
1582 320 1856 716 conicto
1856 1972 lineto
1582 2368 1347 2368 conicto
1052 2368 878 2133 conicto
704 1898 704 1344 conicto
1856 -1024 moveto
1856 345 lineto
1720 121 1564 28 conicto
1408 -64 1210 -64 conicto
812 -64 534 306 conicto
256 676 256 1334 conicto
256 1993 534 2372 conicto
812 2752 1210 2752 conicto
1408 2752 1564 2662 conicto
1720 2572 1856 2348 conicto
1856 3712 lineto
2304 3712 lineto
2304 2348 lineto
2440 2572 2596 2662 conicto
2752 2752 2950 2752 conicto
3348 2752 3626 2372 conicto
3904 1993 3904 1334 conicto
3904 676 3626 306 conicto
3348 -64 2950 -64 conicto
2752 -64 2596 28 conicto
2440 121 2304 345 conicto
2304 -1024 lineto
1856 -1024 lineto
3456 1344 moveto
3456 1898 3282 2133 conicto
3108 2368 2813 2368 conicto
2578 2368 2304 1972 conicto
2304 716 lineto
2578 320 2813 320 conicto
3108 320 3282 555 conicto
3456 790 3456 1344 conicto
end_ol grestore 
gsave 35.413399 16.625000 translate 0.035278 -0.035278 scale
start_ol
2752 2688 moveto
2752 0 lineto
2304 0 lineto
2304 2158 lineto
1022 0 lineto
448 0 lineto
448 2688 lineto
896 2688 lineto
896 535 lineto
2176 2688 lineto
2752 2688 lineto
end_ol grestore 
gsave 35.828009 16.625000 translate 0.035278 -0.035278 scale
start_ol
192 0 moveto
192 320 lineto
611 389 740 697 conicto
896 1131 896 2240 conicto
896 2688 lineto
2688 2688 lineto
2688 0 lineto
2240 0 lineto
2240 2368 lineto
1344 2368 lineto
1344 2098 lineto
1344 1046 1137 574 conicto
916 71 192 0 conicto
end_ol grestore 
gsave 36.237625 16.625000 translate 0.035278 -0.035278 scale
start_ol
2112 801 moveto
2112 1035 1958 1157 conicto
1805 1280 1510 1280 conicto
896 1280 lineto
896 320 lineto
1510 320 lineto
1805 320 1958 443 conicto
2112 567 2112 801 conicto
448 2688 moveto
896 2688 lineto
896 1600 lineto
1524 1600 lineto
2022 1600 2291 1403 conicto
2560 1207 2560 801 conicto
2560 396 2289 198 conicto
2018 0 1516 0 conicto
448 0 lineto
448 2688 lineto
end_ol grestore 
gsave 36.614772 16.625000 translate 0.035278 -0.035278 scale
start_ol
448 2688 moveto
1094 2688 lineto
1857 884 lineto
2623 2688 lineto
3264 2688 lineto
3264 0 lineto
2816 0 lineto
2816 2265 lineto
2077 512 lineto
1637 512 lineto
896 2265 lineto
896 0 lineto
448 0 lineto
448 2688 lineto
end_ol grestore 
gsave 37.096818 16.625000 translate 0.035278 -0.035278 scale
start_ol
1622 1344 moveto
1104 1344 904 1225 conicto
704 1106 704 818 conicto
704 589 854 454 conicto
1004 320 1262 320 conicto
1618 320 1833 572 conicto
2048 825 2048 1244 conicto
2048 1344 lineto
1622 1344 lineto
2496 1513 moveto
2496 0 lineto
2048 0 lineto
2048 384 lineto
1900 154 1679 45 conicto
1458 -64 1138 -64 conicto
733 -64 494 162 conicto
256 389 256 769 conicto
256 1213 555 1438 conicto
854 1664 1448 1664 conicto
2048 1664 lineto
2048 1712 lineto
2048 2025 1851 2196 conicto
1655 2368 1300 2368 conicto
1074 2368 860 2320 conicto
646 2272 448 2176 conicto
448 2560 lineto
687 2656 912 2704 conicto
1138 2752 1351 2752 conicto
1927 2752 2211 2444 conicto
2496 2137 2496 1513 conicto
end_ol grestore 
gsave 37.488948 16.625000 translate 0.035278 -0.035278 scale
start_ol
2624 2688 moveto
1666 1380 lineto
2688 0 lineto
2169 0 lineto
1389 1056 lineto
632 0 lineto
128 0 lineto
1134 1406 lineto
192 2688 lineto
705 2688 lineto
1408 1730 lineto
2111 2688 lineto
2624 2688 lineto
end_ol grestore 
showpage
