%!PS-Adobe-2.0 EPSF-2.0
%%Title: /home/nikita/Documents/University/Kursovaya/Gusche/logidefo.dia
%%Creator: Dia v0.97.2
%%CreationDate: Mon May  5 01:28:33 2014
%%For: nikita
%%Orientation: Portrait
%%Magnification: 1.0000
%%BoundingBox: 0 0 1496 621
%%BeginSetup
%%EndSetup
%%EndComments
%%BeginProlog
[ /.notdef /.notdef /.notdef /.notdef /.notdef /.notdef /.notdef /.notdef /.notdef /.notdef
/.notdef /.notdef /.notdef /.notdef /.notdef /.notdef /.notdef /.notdef /.notdef /.notdef
/.notdef /.notdef /.notdef /.notdef /.notdef /.notdef /.notdef /.notdef /.notdef /.notdef
/.notdef /.notdef /space /exclam /quotedbl /numbersign /dollar /percent /ampersand /quoteright
/parenleft /parenright /asterisk /plus /comma /hyphen /period /slash /zero /one
/two /three /four /five /six /seven /eight /nine /colon /semicolon
/less /equal /greater /question /at /A /B /C /D /E
/F /G /H /I /J /K /L /M /N /O
/P /Q /R /S /T /U /V /W /X /Y
/Z /bracketleft /backslash /bracketright /asciicircum /underscore /quoteleft /a /b /c
/d /e /f /g /h /i /j /k /l /m
/n /o /p /q /r /s /t /u /v /w
/x /y /z /braceleft /bar /braceright /asciitilde /.notdef /.notdef /.notdef
/.notdef /.notdef /.notdef /.notdef /.notdef /.notdef /.notdef /.notdef /.notdef /.notdef
/.notdef /.notdef /.notdef /.notdef /.notdef /.notdef /.notdef /.notdef /.notdef /.notdef
/.notdef /.notdef /.notdef /.notdef /.notdef /.notdef /.notdef /.notdef /.notdef /.notdef
/space /exclamdown /cent /sterling /currency /yen /brokenbar /section /dieresis /copyright
/ordfeminine /guillemotleft /logicalnot /hyphen /registered /macron /degree /plusminus /twosuperior /threesuperior
/acute /mu /paragraph /periodcentered /cedilla /onesuperior /ordmasculine /guillemotright /onequarter /onehalf
/threequarters /questiondown /Agrave /Aacute /Acircumflex /Atilde /Adieresis /Aring /AE /Ccedilla
/Egrave /Eacute /Ecircumflex /Edieresis /Igrave /Iacute /Icircumflex /Idieresis /Eth /Ntilde
/Ograve /Oacute /Ocircumflex /Otilde /Odieresis /multiply /Oslash /Ugrave /Uacute /Ucircumflex
/Udieresis /Yacute /Thorn /germandbls /agrave /aacute /acircumflex /atilde /adieresis /aring
/ae /ccedilla /egrave /eacute /ecircumflex /edieresis /igrave /iacute /icircumflex /idieresis
/eth /ntilde /ograve /oacute /ocircumflex /otilde /odieresis /divide /oslash /ugrave
/uacute /ucircumflex /udieresis /yacute /thorn /ydieresis] /isolatin1encoding exch def
/cp {closepath} bind def
/c {curveto} bind def
/f {fill} bind def
/a {arc} bind def
/ef {eofill} bind def
/ex {exch} bind def
/gr {grestore} bind def
/gs {gsave} bind def
/sa {save} bind def
/rs {restore} bind def
/l {lineto} bind def
/m {moveto} bind def
/rm {rmoveto} bind def
/n {newpath} bind def
/s {stroke} bind def
/sh {show} bind def
/slc {setlinecap} bind def
/slj {setlinejoin} bind def
/slw {setlinewidth} bind def
/srgb {setrgbcolor} bind def
/rot {rotate} bind def
/sc {scale} bind def
/sd {setdash} bind def
/ff {findfont} bind def
/sf {setfont} bind def
/scf {scalefont} bind def
/sw {stringwidth pop} bind def
/tr {translate} bind def

/ellipsedict 8 dict def
ellipsedict /mtrx matrix put
/ellipse
{ ellipsedict begin
   /endangle exch def
   /startangle exch def
   /yrad exch def
   /xrad exch def
   /y exch def
   /x exch def   /savematrix mtrx currentmatrix def
   x y tr xrad yrad sc
   0 0 1 startangle endangle arc
   savematrix setmatrix
   end
} def

/mergeprocs {
dup length
3 -1 roll
dup
length
dup
5 1 roll
3 -1 roll
add
array cvx
dup
3 -1 roll
0 exch
putinterval
dup
4 2 roll
putinterval
} bind def
/dpi_x 300 def
/dpi_y 300 def
/conicto {
    /to_y exch def
    /to_x exch def
    /conic_cntrl_y exch def
    /conic_cntrl_x exch def
    currentpoint
    /p0_y exch def
    /p0_x exch def
    /p1_x p0_x conic_cntrl_x p0_x sub 2 3 div mul add def
    /p1_y p0_y conic_cntrl_y p0_y sub 2 3 div mul add def
    /p2_x p1_x to_x p0_x sub 1 3 div mul add def
    /p2_y p1_y to_y p0_y sub 1 3 div mul add def
    p1_x p1_y p2_x p2_y to_x to_y curveto
} bind def
/start_ol { gsave 1.1 dpi_x div dup scale} bind def
/end_ol { closepath fill grestore } bind def
28.346000 -28.346000 scale
-3.595000 -24.850000 translate
%%EndProlog


1.000000 1.000000 1.000000 srgb
n 3.645000 3.000000 m 3.645000 6.800000 l 14.755000 6.800000 l 14.755000 3.000000 l f
0.100000 slw
[] 0 sd
0 slj
0.000000 0.000000 0.000000 srgb
n 3.645000 3.000000 m 3.645000 6.800000 l 14.755000 6.800000 l 14.755000 3.000000 l cp s
gsave 4.145000 4.695000 translate 0.035278 -0.035278 scale
start_ol
3648 3520 moveto
3648 0 lineto
2752 0 lineto
2752 2816 lineto
1344 2816 lineto
1344 0 lineto
448 0 lineto
448 3520 lineto
3648 3520 lineto
end_ol grestore 
gsave 4.679500 4.695000 translate 0.035278 -0.035278 scale
start_ol
1668 2112 moveto
1385 2112 1236 1914 conicto
1088 1716 1088 1344 conicto
1088 972 1236 774 conicto
1385 576 1668 576 conicto
1945 576 2092 774 conicto
2240 972 2240 1344 conicto
2240 1716 2092 1914 conicto
1945 2112 1668 2112 conicto
1668 2752 moveto
2359 2752 2747 2378 conicto
3136 2005 3136 1344 conicto
3136 683 2747 309 conicto
2359 -64 1668 -64 conicto
974 -64 583 309 conicto
192 683 192 1344 conicto
192 2005 583 2378 conicto
974 2752 1668 2752 conicto
end_ol grestore 
gsave 5.119088 4.695000 translate 0.035278 -0.035278 scale
start_ol
256 0 moveto
256 640 lineto
669 725 762 1003 conicto
832 1214 832 2254 conicto
832 2688 lineto
3136 2688 lineto
3136 0 lineto
2304 0 lineto
2304 2048 lineto
1664 2048 lineto
1664 1960 lineto
1664 920 1503 616 conicto
1178 0 256 0 conicto
end_ol grestore 
gsave 5.588649 4.695000 translate 0.035278 -0.035278 scale
start_ol
64 2688 moveto
910 2688 lineto
1621 864 lineto
2226 2688 lineto
3072 2688 lineto
1959 -209 lineto
1791 -663 1567 -843 conicto
1344 -1024 978 -1024 conicto
489 -1024 lineto
489 -448 lineto
754 -448 lineto
969 -448 1067 -385 conicto
1165 -322 1219 -160 conicto
1243 -86 lineto
64 2688 lineto
end_ol grestore 
gsave 6.005757 4.695000 translate 0.035278 -0.035278 scale
start_ol
1984 0 moveto
1984 896 lineto
1089 896 lineto
724 896 522 1127 conicto
320 1358 320 1812 conicto
320 2688 lineto
1152 2688 lineto
1152 2196 lineto
1152 1756 1226 1646 conicto
1300 1536 1494 1536 conicto
1984 1536 lineto
1984 2688 lineto
2816 2688 lineto
2816 0 lineto
1984 0 lineto
end_ol grestore 
gsave 6.445345 4.695000 translate 0.035278 -0.035278 scale
start_ol
384 2688 moveto
1216 2688 lineto
1216 1664 lineto
2112 1664 lineto
2112 2688 lineto
2944 2688 lineto
2944 0 lineto
2112 0 lineto
2112 1024 lineto
1216 1024 lineto
1216 0 lineto
384 0 lineto
384 2688 lineto
end_ol grestore 
gsave 6.887431 4.695000 translate 0.035278 -0.035278 scale
start_ol
2944 2688 moveto
2944 0 lineto
2112 0 lineto
2112 1430 lineto
1249 0 lineto
384 0 lineto
384 2688 lineto
1216 2688 lineto
1216 1258 lineto
2079 2688 lineto
2944 2688 lineto
end_ol grestore 
gsave 7.334511 4.695000 translate 0.035278 -0.035278 scale
start_ol
3072 1388 moveto
3072 1152 lineto
1024 1152 lineto
1056 832 1247 672 conicto
1438 512 1781 512 conicto
2057 512 2347 591 conicto
2638 671 2944 832 conicto
2944 192 lineto
2640 65 2335 0 conicto
2031 -64 1727 -64 conicto
999 -64 595 306 conicto
192 676 192 1344 conicto
192 2000 588 2376 conicto
985 2752 1680 2752 conicto
2312 2752 2692 2380 conicto
3072 2009 3072 1388 conicto
2240 1664 moveto
2240 1894 2085 2035 conicto
1931 2176 1682 2176 conicto
1413 2176 1244 2044 conicto
1075 1912 1034 1664 conicto
2240 1664 lineto
end_ol grestore 
gsave 7.769097 4.695000 translate 0.035278 -0.035278 scale
start_ol
end_ol grestore 
gsave 7.991388 4.695000 translate 0.035278 -0.035278 scale
start_ol
1583 1664 moveto
1717 1664 1786 1712 conicto
1856 1761 1856 1857 conicto
1856 1952 1786 2000 conicto
1717 2048 1583 2048 conicto
1216 2048 lineto
1216 1664 lineto
1583 1664 lineto
1625 640 moveto
1803 640 1893 688 conicto
1984 737 1984 834 conicto
1984 929 1893 976 conicto
1803 1024 1625 1024 conicto
1216 1024 lineto
1216 640 lineto
1625 640 lineto
384 2688 moveto
1584 2688 lineto
2166 2688 2427 2519 conicto
2688 2350 2688 1978 conicto
2688 1781 2590 1643 conicto
2493 1505 2310 1438 conicto
2545 1373 2680 1199 conicto
2816 1025 2816 770 conicto
2816 382 2541 191 conicto
2266 0 1706 0 conicto
384 0 lineto
384 2688 lineto
end_ol grestore 
gsave 8.396003 4.695000 translate 0.035278 -0.035278 scale
start_ol
1082 1375 moveto
128 2688 lineto
1023 2688 lineto
1564 1891 lineto
2112 2688 lineto
3008 2688 lineto
2054 1380 lineto
3072 0 lineto
2166 0 lineto
1564 850 lineto
969 0 lineto
64 0 lineto
1082 1375 lineto
end_ol grestore 
gsave 8.808116 4.695000 translate 0.035278 -0.035278 scale
start_ol
1668 2112 moveto
1385 2112 1236 1914 conicto
1088 1716 1088 1344 conicto
1088 972 1236 774 conicto
1385 576 1668 576 conicto
1945 576 2092 774 conicto
2240 972 2240 1344 conicto
2240 1716 2092 1914 conicto
1945 2112 1668 2112 conicto
1668 2752 moveto
2359 2752 2747 2378 conicto
3136 2005 3136 1344 conicto
3136 683 2747 309 conicto
2359 -64 1668 -64 conicto
974 -64 583 309 conicto
192 683 192 1344 conicto
192 2005 583 2378 conicto
974 2752 1668 2752 conicto
end_ol grestore 
gsave 9.247705 4.695000 translate 0.035278 -0.035278 scale
start_ol
398 640 moveto
668 730 782 1030 conicto
896 1330 896 2185 conicto
896 2688 lineto
3200 2688 lineto
3200 640 lineto
3648 640 lineto
3648 -704 lineto
3008 -704 lineto
3008 0 lineto
896 0 lineto
896 -704 lineto
256 -704 lineto
256 640 lineto
398 640 lineto
2368 2048 moveto
1728 2048 lineto
1728 1976 lineto
1728 1126 1531 640 conicto
2368 640 lineto
2368 2048 lineto
end_ol grestore 
gsave 9.764717 4.695000 translate 0.035278 -0.035278 scale
start_ol
384 2688 moveto
1216 2688 lineto
1216 1664 lineto
2112 1664 lineto
2112 2688 lineto
2944 2688 lineto
2944 0 lineto
2112 0 lineto
2112 1024 lineto
1216 1024 lineto
1216 0 lineto
384 0 lineto
384 2688 lineto
end_ol grestore 
gsave 10.206803 4.695000 translate 0.035278 -0.035278 scale
start_ol
3136 2688 moveto
3968 2688 lineto
3968 0 lineto
3136 0 lineto
3136 2688 lineto
1984 834 moveto
1984 930 1894 978 conicto
1806 1024 1625 1024 conicto
1216 1024 lineto
1216 640 lineto
1625 640 lineto
1803 640 1894 689 conicto
1984 737 1984 834 conicto
384 2688 moveto
1216 2688 lineto
1216 1664 lineto
1697 1664 lineto
2235 1664 2524 1465 conicto
2816 1264 2816 828 conicto
2816 393 2526 196 conicto
2239 0 1705 0 conicto
384 0 lineto
384 2688 lineto
end_ol grestore 
gsave 10.786257 4.695000 translate 0.035278 -0.035278 scale
start_ol
1082 1375 moveto
128 2688 lineto
1023 2688 lineto
1564 1891 lineto
2112 2688 lineto
3008 2688 lineto
2054 1380 lineto
3072 0 lineto
2166 0 lineto
1564 850 lineto
969 0 lineto
64 0 lineto
1082 1375 lineto
end_ol grestore 
gsave 11.198370 4.695000 translate 0.035278 -0.035278 scale
start_ol
end_ol grestore 
gsave 11.420661 4.695000 translate 0.035278 -0.035278 scale
start_ol
398 640 moveto
668 730 782 1030 conicto
896 1330 896 2185 conicto
896 2688 lineto
3200 2688 lineto
3200 640 lineto
3648 640 lineto
3648 -704 lineto
3008 -704 lineto
3008 0 lineto
896 0 lineto
896 -704 lineto
256 -704 lineto
256 640 lineto
398 640 lineto
2368 2048 moveto
1728 2048 lineto
1728 1976 lineto
1728 1126 1531 640 conicto
2368 640 lineto
2368 2048 lineto
end_ol grestore 
gsave 11.937674 4.695000 translate 0.035278 -0.035278 scale
start_ol
1585 1216 moveto
1306 1216 1165 1125 conicto
1024 1035 1024 858 conicto
1024 696 1137 604 conicto
1251 512 1453 512 conicto
1704 512 1876 685 conicto
2048 858 2048 1118 conicto
2048 1216 lineto
1585 1216 lineto
2880 1541 moveto
2880 0 lineto
2048 0 lineto
2048 384 lineto
1875 150 1658 43 conicto
1442 -64 1132 -64 conicto
714 -64 453 180 conicto
192 424 192 813 conicto
192 1286 513 1507 conicto
834 1728 1522 1728 conicto
2048 1728 lineto
2048 1800 lineto
2048 1995 1889 2085 conicto
1730 2176 1393 2176 conicto
1120 2176 885 2128 conicto
650 2080 448 1984 conicto
448 2624 lineto
715 2687 984 2719 conicto
1253 2752 1522 2752 conicto
2241 2752 2560 2467 conicto
2880 2182 2880 1541 conicto
end_ol grestore 
gsave 12.369763 4.695000 translate 0.035278 -0.035278 scale
start_ol
384 2688 moveto
1216 2688 lineto
1216 1664 lineto
2112 1664 lineto
2112 2688 lineto
2944 2688 lineto
2944 0 lineto
2112 0 lineto
2112 1024 lineto
1216 1024 lineto
1216 0 lineto
384 0 lineto
384 2688 lineto
end_ol grestore 
gsave 12.811849 4.695000 translate 0.035278 -0.035278 scale
start_ol
384 2688 moveto
1216 2688 lineto
1216 1664 lineto
2112 1664 lineto
2112 2688 lineto
2944 2688 lineto
2944 0 lineto
2112 0 lineto
2112 1024 lineto
1216 1024 lineto
1216 0 lineto
384 0 lineto
384 2688 lineto
end_ol grestore 
gsave 13.253934 4.695000 translate 0.035278 -0.035278 scale
start_ol
3136 2688 moveto
3968 2688 lineto
3968 0 lineto
3136 0 lineto
3136 2688 lineto
1984 834 moveto
1984 930 1894 978 conicto
1806 1024 1625 1024 conicto
1216 1024 lineto
1216 640 lineto
1625 640 lineto
1803 640 1894 689 conicto
1984 737 1984 834 conicto
384 2688 moveto
1216 2688 lineto
1216 1664 lineto
1697 1664 lineto
2235 1664 2524 1465 conicto
2816 1264 2816 828 conicto
2816 393 2526 196 conicto
2239 0 1705 0 conicto
384 0 lineto
384 2688 lineto
end_ol grestore 
gsave 13.833388 4.695000 translate 0.035278 -0.035278 scale
start_ol
1082 1375 moveto
128 2688 lineto
1023 2688 lineto
1564 1891 lineto
2112 2688 lineto
3008 2688 lineto
2054 1380 lineto
3072 0 lineto
2166 0 lineto
1564 850 lineto
969 0 lineto
64 0 lineto
1082 1375 lineto
end_ol grestore 
gsave 4.771250 5.495000 translate 0.035278 -0.035278 scale
start_ol
1856 -640 moveto
1116 -640 lineto
741 -51 562 480 conicto
384 1011 384 1534 conicto
384 2056 564 2591 conicto
744 3127 1116 3712 conicto
1856 3712 lineto
1536 3147 1376 2606 conicto
1216 2066 1216 1538 conicto
1216 1011 1375 469 conicto
1534 -72 1856 -640 conicto
end_ol grestore 
gsave 5.063474 5.495000 translate 0.035278 -0.035278 scale
start_ol
704 1664 moveto
1106 1664 lineto
1466 1664 1597 1741 conicto
1728 1819 1728 1926 conicto
1728 2176 1156 2176 conicto
679 2176 384 1984 conicto
384 2624 lineto
820 2752 1336 2752 conicto
1940 2752 2218 2581 conicto
2496 2410 2496 2048 conicto
2496 1574 1976 1452 conicto
2560 1306 2560 767 conicto
2560 353 2233 144 conicto
1907 -64 1209 -64 conicto
688 -64 256 128 conicto
256 768 lineto
799 512 1121 512 conicto
1475 512 1633 587 conicto
1792 663 1792 758 conicto
1792 1024 1089 1024 conicto
704 1024 lineto
704 1664 lineto
end_ol grestore 
gsave 5.435619 5.495000 translate 0.035278 -0.035278 scale
start_ol
1585 1216 moveto
1306 1216 1165 1125 conicto
1024 1035 1024 858 conicto
1024 696 1137 604 conicto
1251 512 1453 512 conicto
1704 512 1876 685 conicto
2048 858 2048 1118 conicto
2048 1216 lineto
1585 1216 lineto
2880 1541 moveto
2880 0 lineto
2048 0 lineto
2048 384 lineto
1875 150 1658 43 conicto
1442 -64 1132 -64 conicto
714 -64 453 180 conicto
192 424 192 813 conicto
192 1286 513 1507 conicto
834 1728 1522 1728 conicto
2048 1728 lineto
2048 1800 lineto
2048 1995 1889 2085 conicto
1730 2176 1393 2176 conicto
1120 2176 885 2128 conicto
650 2080 448 1984 conicto
448 2624 lineto
715 2687 984 2719 conicto
1253 2752 1522 2752 conicto
2241 2752 2560 2467 conicto
2880 2182 2880 1541 conicto
end_ol grestore 
gsave 5.867708 5.495000 translate 0.035278 -0.035278 scale
start_ol
2944 2688 moveto
2944 0 lineto
2112 0 lineto
2112 2048 lineto
1216 2048 lineto
1216 0 lineto
384 0 lineto
384 2688 lineto
2944 2688 lineto
end_ol grestore 
gsave 6.309794 5.495000 translate 0.035278 -0.035278 scale
start_ol
1216 384 moveto
1216 -1024 lineto
384 -1024 lineto
384 2688 lineto
1216 2688 lineto
1216 2304 lineto
1396 2534 1614 2643 conicto
1832 2752 2116 2752 conicto
2619 2752 2941 2358 conicto
3264 1964 3264 1344 conicto
3264 724 2941 330 conicto
2619 -64 2116 -64 conicto
1832 -64 1614 45 conicto
1396 154 1216 384 conicto
1794 2112 moveto
1515 2112 1365 1914 conicto
1216 1716 1216 1344 conicto
1216 972 1365 774 conicto
1515 576 1794 576 conicto
2074 576 2221 772 conicto
2368 969 2368 1344 conicto
2368 1719 2221 1915 conicto
2074 2112 1794 2112 conicto
end_ol grestore 
gsave 6.766862 5.495000 translate 0.035278 -0.035278 scale
start_ol
1668 2112 moveto
1385 2112 1236 1914 conicto
1088 1716 1088 1344 conicto
1088 972 1236 774 conicto
1385 576 1668 576 conicto
1945 576 2092 774 conicto
2240 972 2240 1344 conicto
2240 1716 2092 1914 conicto
1945 2112 1668 2112 conicto
1668 2752 moveto
2359 2752 2747 2378 conicto
3136 2005 3136 1344 conicto
3136 683 2747 309 conicto
2359 -64 1668 -64 conicto
974 -64 583 309 conicto
192 683 192 1344 conicto
192 2005 583 2378 conicto
974 2752 1668 2752 conicto
end_ol grestore 
gsave 7.206450 5.495000 translate 0.035278 -0.035278 scale
start_ol
2560 2560 moveto
2560 1856 lineto
2386 1987 2210 2049 conicto
2034 2112 1846 2112 conicto
1487 2112 1287 1909 conicto
1088 1707 1088 1344 conicto
1088 981 1287 778 conicto
1487 576 1846 576 conicto
2046 576 2226 640 conicto
2407 705 2560 832 conicto
2560 128 lineto
2359 32 2152 -16 conicto
1945 -64 1736 -64 conicto
1011 -64 601 308 conicto
192 681 192 1344 conicto
192 2007 601 2379 conicto
1011 2752 1736 2752 conicto
1947 2752 2151 2704 conicto
2356 2656 2560 2560 conicto
end_ol grestore 
gsave 7.586094 5.495000 translate 0.035278 -0.035278 scale
start_ol
1585 1216 moveto
1306 1216 1165 1125 conicto
1024 1035 1024 858 conicto
1024 696 1137 604 conicto
1251 512 1453 512 conicto
1704 512 1876 685 conicto
2048 858 2048 1118 conicto
2048 1216 lineto
1585 1216 lineto
2880 1541 moveto
2880 0 lineto
2048 0 lineto
2048 384 lineto
1875 150 1658 43 conicto
1442 -64 1132 -64 conicto
714 -64 453 180 conicto
192 424 192 813 conicto
192 1286 513 1507 conicto
834 1728 1522 1728 conicto
2048 1728 lineto
2048 1800 lineto
2048 1995 1889 2085 conicto
1730 2176 1393 2176 conicto
1120 2176 885 2128 conicto
650 2080 448 1984 conicto
448 2624 lineto
715 2687 984 2719 conicto
1253 2752 1522 2752 conicto
2241 2752 2560 2467 conicto
2880 2182 2880 1541 conicto
end_ol grestore 
gsave 8.018184 5.495000 translate 0.035278 -0.035278 scale
start_ol
end_ol grestore 
gsave 8.240475 5.495000 translate 0.035278 -0.035278 scale
start_ol
2944 2688 moveto
2944 0 lineto
2112 0 lineto
2112 2048 lineto
1216 2048 lineto
1216 0 lineto
384 0 lineto
384 2688 lineto
2944 2688 lineto
end_ol grestore 
gsave 8.682561 5.495000 translate 0.035278 -0.035278 scale
start_ol
1668 2112 moveto
1385 2112 1236 1914 conicto
1088 1716 1088 1344 conicto
1088 972 1236 774 conicto
1385 576 1668 576 conicto
1945 576 2092 774 conicto
2240 972 2240 1344 conicto
2240 1716 2092 1914 conicto
1945 2112 1668 2112 conicto
1668 2752 moveto
2359 2752 2747 2378 conicto
3136 2005 3136 1344 conicto
3136 683 2747 309 conicto
2359 -64 1668 -64 conicto
974 -64 583 309 conicto
192 683 192 1344 conicto
192 2005 583 2378 conicto
974 2752 1668 2752 conicto
end_ol grestore 
gsave 9.122149 5.495000 translate 0.035278 -0.035278 scale
start_ol
256 0 moveto
256 640 lineto
669 725 762 1003 conicto
832 1214 832 2254 conicto
832 2688 lineto
3136 2688 lineto
3136 0 lineto
2304 0 lineto
2304 2048 lineto
1664 2048 lineto
1664 1960 lineto
1664 920 1503 616 conicto
1178 0 256 0 conicto
end_ol grestore 
gsave 9.591710 5.495000 translate 0.035278 -0.035278 scale
start_ol
1984 834 moveto
1984 930 1894 978 conicto
1806 1024 1625 1024 conicto
1216 1024 lineto
1216 640 lineto
1625 640 lineto
1803 640 1894 689 conicto
1984 737 1984 834 conicto
384 2688 moveto
1216 2688 lineto
1216 1664 lineto
1697 1664 lineto
2235 1664 2524 1465 conicto
2816 1264 2816 828 conicto
2816 393 2526 196 conicto
2239 0 1705 0 conicto
384 0 lineto
384 2688 lineto
end_ol grestore 
gsave 9.996324 5.495000 translate 0.035278 -0.035278 scale
start_ol
704 1664 moveto
1106 1664 lineto
1466 1664 1597 1741 conicto
1728 1819 1728 1926 conicto
1728 2176 1156 2176 conicto
679 2176 384 1984 conicto
384 2624 lineto
820 2752 1336 2752 conicto
1940 2752 2218 2581 conicto
2496 2410 2496 2048 conicto
2496 1574 1976 1452 conicto
2560 1306 2560 767 conicto
2560 353 2233 144 conicto
1907 -64 1209 -64 conicto
688 -64 256 128 conicto
256 768 lineto
799 512 1121 512 conicto
1475 512 1633 587 conicto
1792 663 1792 758 conicto
1792 1024 1089 1024 conicto
704 1024 lineto
704 1664 lineto
end_ol grestore 
gsave 10.368469 5.495000 translate 0.035278 -0.035278 scale
start_ol
1668 2112 moveto
1385 2112 1236 1914 conicto
1088 1716 1088 1344 conicto
1088 972 1236 774 conicto
1385 576 1668 576 conicto
1945 576 2092 774 conicto
2240 972 2240 1344 conicto
2240 1716 2092 1914 conicto
1945 2112 1668 2112 conicto
1668 2752 moveto
2359 2752 2747 2378 conicto
3136 2005 3136 1344 conicto
3136 683 2747 309 conicto
2359 -64 1668 -64 conicto
974 -64 583 309 conicto
192 683 192 1344 conicto
192 2005 583 2378 conicto
974 2752 1668 2752 conicto
end_ol grestore 
gsave 10.808058 5.495000 translate 0.035278 -0.035278 scale
start_ol
1583 1664 moveto
1717 1664 1786 1712 conicto
1856 1761 1856 1857 conicto
1856 1952 1786 2000 conicto
1717 2048 1583 2048 conicto
1216 2048 lineto
1216 1664 lineto
1583 1664 lineto
1625 640 moveto
1803 640 1893 688 conicto
1984 737 1984 834 conicto
1984 929 1893 976 conicto
1803 1024 1625 1024 conicto
1216 1024 lineto
1216 640 lineto
1625 640 lineto
384 2688 moveto
1584 2688 lineto
2166 2688 2427 2519 conicto
2688 2350 2688 1978 conicto
2688 1781 2590 1643 conicto
2493 1505 2310 1438 conicto
2545 1373 2680 1199 conicto
2816 1025 2816 770 conicto
2816 382 2541 191 conicto
2266 0 1706 0 conicto
384 0 lineto
384 2688 lineto
end_ol grestore 
gsave 11.212672 5.495000 translate 0.035278 -0.035278 scale
start_ol
1585 1216 moveto
1306 1216 1165 1125 conicto
1024 1035 1024 858 conicto
1024 696 1137 604 conicto
1251 512 1453 512 conicto
1704 512 1876 685 conicto
2048 858 2048 1118 conicto
2048 1216 lineto
1585 1216 lineto
2880 1541 moveto
2880 0 lineto
2048 0 lineto
2048 384 lineto
1875 150 1658 43 conicto
1442 -64 1132 -64 conicto
714 -64 453 180 conicto
192 424 192 813 conicto
192 1286 513 1507 conicto
834 1728 1522 1728 conicto
2048 1728 lineto
2048 1800 lineto
2048 1995 1889 2085 conicto
1730 2176 1393 2176 conicto
1120 2176 885 2128 conicto
650 2080 448 1984 conicto
448 2624 lineto
715 2687 984 2719 conicto
1253 2752 1522 2752 conicto
2241 2752 2560 2467 conicto
2880 2182 2880 1541 conicto
end_ol grestore 
gsave 11.644761 5.495000 translate 0.035278 -0.035278 scale
start_ol
0 2688 moveto
2752 2688 lineto
2752 2048 lineto
1792 2048 lineto
1792 0 lineto
960 0 lineto
960 2048 lineto
0 2048 lineto
0 2688 lineto
end_ol grestore 
gsave 12.014409 5.495000 translate 0.035278 -0.035278 scale
start_ol
3072 1388 moveto
3072 1152 lineto
1024 1152 lineto
1056 832 1247 672 conicto
1438 512 1781 512 conicto
2057 512 2347 591 conicto
2638 671 2944 832 conicto
2944 192 lineto
2640 65 2335 0 conicto
2031 -64 1727 -64 conicto
999 -64 595 306 conicto
192 676 192 1344 conicto
192 2000 588 2376 conicto
985 2752 1680 2752 conicto
2312 2752 2692 2380 conicto
3072 2009 3072 1388 conicto
2240 1664 moveto
2240 1894 2085 2035 conicto
1931 2176 1682 2176 conicto
1413 2176 1244 2044 conicto
1075 1912 1034 1664 conicto
2240 1664 lineto
end_ol grestore 
gsave 12.448995 5.495000 translate 0.035278 -0.035278 scale
start_ol
256 0 moveto
256 640 lineto
669 725 762 1003 conicto
832 1214 832 2254 conicto
832 2688 lineto
3136 2688 lineto
3136 0 lineto
2304 0 lineto
2304 2048 lineto
1664 2048 lineto
1664 1960 lineto
1664 920 1503 616 conicto
1178 0 256 0 conicto
end_ol grestore 
gsave 12.918556 5.495000 translate 0.035278 -0.035278 scale
start_ol
1216 1857 moveto
1216 1755 1300 1709 conicto
1385 1664 1580 1664 conicto
1856 1664 lineto
1856 2048 lineto
1580 2048 lineto
1385 2048 1300 2004 conicto
1216 1960 1216 1857 conicto
128 0 moveto
822 1150 lineto
620 1267 470 1472 conicto
320 1678 320 1932 conicto
320 2314 574 2501 conicto
829 2688 1399 2688 conicto
2688 2688 lineto
2688 0 lineto
1856 0 lineto
1856 1024 lineto
1556 1024 lineto
960 0 lineto
128 0 lineto
end_ol grestore 
gsave 13.328173 5.495000 translate 0.035278 -0.035278 scale
start_ol
384 -640 moveto
704 -72 864 469 conicto
1024 1011 1024 1538 conicto
1024 2066 864 2606 conicto
704 3147 384 3712 conicto
1124 3712 lineto
1496 3127 1676 2591 conicto
1856 2056 1856 1534 conicto
1856 1011 1677 480 conicto
1499 -51 1124 -640 conicto
384 -640 lineto
end_ol grestore 
gsave 13.867500 6.620000 translate 0.035278 -0.035278 scale
start_ol
1951 448 moveto
867 448 lineto
696 0 lineto
0 0 lineto
995 2688 lineto
1821 2688 lineto
2816 0 lineto
2120 0 lineto
1951 448 lineto
1040 960 moveto
1776 960 lineto
1409 2047 lineto
1040 960 lineto
end_ol grestore 
gsave 14.239645 6.620000 translate 0.035278 -0.035278 scale
start_ol
1664 1350 moveto
1664 1875 1576 2089 conicto
1488 2304 1281 2304 conicto
1073 2304 984 2089 conicto
896 1875 896 1350 conicto
896 819 984 601 conicto
1073 384 1281 384 conicto
1487 384 1575 601 conicto
1664 819 1664 1350 conicto
2368 1343 moveto
2368 669 2084 302 conicto
1801 -64 1281 -64 conicto
759 -64 475 302 conicto
192 669 192 1343 conicto
192 2019 475 2385 conicto
759 2752 1281 2752 conicto
1801 2752 2084 2385 conicto
2368 2019 2368 1343 conicto
end_ol grestore 
1.000000 1.000000 1.000000 srgb
n 15.128750 11.000000 m 15.128750 16.000000 l 30.571250 16.000000 l 30.571250 11.000000 l f
0.100000 slw
[] 0 sd
0 slj
0.000000 0.000000 0.000000 srgb
n 15.128750 11.000000 m 15.128750 16.000000 l 30.571250 16.000000 l 30.571250 11.000000 l cp s
gsave 18.503750 12.495000 translate 0.035278 -0.035278 scale
start_ol
3648 3520 moveto
3648 0 lineto
2752 0 lineto
2752 2816 lineto
1344 2816 lineto
1344 0 lineto
448 0 lineto
448 3520 lineto
3648 3520 lineto
end_ol grestore 
gsave 19.038250 12.495000 translate 0.035278 -0.035278 scale
start_ol
1216 384 moveto
1216 -1024 lineto
384 -1024 lineto
384 2688 lineto
1216 2688 lineto
1216 2304 lineto
1396 2534 1614 2643 conicto
1832 2752 2116 2752 conicto
2619 2752 2941 2358 conicto
3264 1964 3264 1344 conicto
3264 724 2941 330 conicto
2619 -64 2116 -64 conicto
1832 -64 1614 45 conicto
1396 154 1216 384 conicto
1794 2112 moveto
1515 2112 1365 1914 conicto
1216 1716 1216 1344 conicto
1216 972 1365 774 conicto
1515 576 1794 576 conicto
2074 576 2221 772 conicto
2368 969 2368 1344 conicto
2368 1719 2221 1915 conicto
2074 2112 1794 2112 conicto
end_ol grestore 
gsave 19.495317 12.495000 translate 0.035278 -0.035278 scale
start_ol
1668 2112 moveto
1385 2112 1236 1914 conicto
1088 1716 1088 1344 conicto
1088 972 1236 774 conicto
1385 576 1668 576 conicto
1945 576 2092 774 conicto
2240 972 2240 1344 conicto
2240 1716 2092 1914 conicto
1945 2112 1668 2112 conicto
1668 2752 moveto
2359 2752 2747 2378 conicto
3136 2005 3136 1344 conicto
3136 683 2747 309 conicto
2359 -64 1668 -64 conicto
974 -64 583 309 conicto
192 683 192 1344 conicto
192 2005 583 2378 conicto
974 2752 1668 2752 conicto
end_ol grestore 
gsave 19.934906 12.495000 translate 0.035278 -0.035278 scale
start_ol
1583 1664 moveto
1717 1664 1786 1712 conicto
1856 1761 1856 1857 conicto
1856 1952 1786 2000 conicto
1717 2048 1583 2048 conicto
1216 2048 lineto
1216 1664 lineto
1583 1664 lineto
1625 640 moveto
1803 640 1893 688 conicto
1984 737 1984 834 conicto
1984 929 1893 976 conicto
1803 1024 1625 1024 conicto
1216 1024 lineto
1216 640 lineto
1625 640 lineto
384 2688 moveto
1584 2688 lineto
2166 2688 2427 2519 conicto
2688 2350 2688 1978 conicto
2688 1781 2590 1643 conicto
2493 1505 2310 1438 conicto
2545 1373 2680 1199 conicto
2816 1025 2816 770 conicto
2816 382 2541 191 conicto
2266 0 1706 0 conicto
384 0 lineto
384 2688 lineto
end_ol grestore 
gsave 20.339520 12.495000 translate 0.035278 -0.035278 scale
start_ol
3072 1388 moveto
3072 1152 lineto
1024 1152 lineto
1056 832 1247 672 conicto
1438 512 1781 512 conicto
2057 512 2347 591 conicto
2638 671 2944 832 conicto
2944 192 lineto
2640 65 2335 0 conicto
2031 -64 1727 -64 conicto
999 -64 595 306 conicto
192 676 192 1344 conicto
192 2000 588 2376 conicto
985 2752 1680 2752 conicto
2312 2752 2692 2380 conicto
3072 2009 3072 1388 conicto
2240 1664 moveto
2240 1894 2085 2035 conicto
1931 2176 1682 2176 conicto
1413 2176 1244 2044 conicto
1075 1912 1034 1664 conicto
2240 1664 lineto
end_ol grestore 
gsave 20.774107 12.495000 translate 0.035278 -0.035278 scale
start_ol
1216 384 moveto
1216 -1024 lineto
384 -1024 lineto
384 2688 lineto
1216 2688 lineto
1216 2304 lineto
1396 2534 1614 2643 conicto
1832 2752 2116 2752 conicto
2619 2752 2941 2358 conicto
3264 1964 3264 1344 conicto
3264 724 2941 330 conicto
2619 -64 2116 -64 conicto
1832 -64 1614 45 conicto
1396 154 1216 384 conicto
1794 2112 moveto
1515 2112 1365 1914 conicto
1216 1716 1216 1344 conicto
1216 972 1365 774 conicto
1515 576 1794 576 conicto
2074 576 2221 772 conicto
2368 969 2368 1344 conicto
2368 1719 2221 1915 conicto
2074 2112 1794 2112 conicto
end_ol grestore 
gsave 21.231174 12.495000 translate 0.035278 -0.035278 scale
start_ol
384 2688 moveto
1216 2688 lineto
1216 1778 lineto
2184 2688 lineto
3136 2688 lineto
1976 1596 lineto
3200 0 lineto
2317 0 lineto
1461 1111 lineto
1216 881 lineto
1216 0 lineto
384 0 lineto
384 2688 lineto
end_ol grestore 
gsave 21.665761 12.495000 translate 0.035278 -0.035278 scale
start_ol
1585 1216 moveto
1306 1216 1165 1125 conicto
1024 1035 1024 858 conicto
1024 696 1137 604 conicto
1251 512 1453 512 conicto
1704 512 1876 685 conicto
2048 858 2048 1118 conicto
2048 1216 lineto
1585 1216 lineto
2880 1541 moveto
2880 0 lineto
2048 0 lineto
2048 384 lineto
1875 150 1658 43 conicto
1442 -64 1132 -64 conicto
714 -64 453 180 conicto
192 424 192 813 conicto
192 1286 513 1507 conicto
834 1728 1522 1728 conicto
2048 1728 lineto
2048 1800 lineto
2048 1995 1889 2085 conicto
1730 2176 1393 2176 conicto
1120 2176 885 2128 conicto
650 2080 448 1984 conicto
448 2624 lineto
715 2687 984 2719 conicto
1253 2752 1522 2752 conicto
2241 2752 2560 2467 conicto
2880 2182 2880 1541 conicto
end_ol grestore 
gsave 22.097850 12.495000 translate 0.035278 -0.035278 scale
start_ol
end_ol grestore 
gsave 22.320141 12.495000 translate 0.035278 -0.035278 scale
start_ol
0 2688 moveto
2752 2688 lineto
2752 2048 lineto
1792 2048 lineto
1792 0 lineto
960 0 lineto
960 2048 lineto
0 2048 lineto
0 2688 lineto
end_ol grestore 
gsave 22.689789 12.495000 translate 0.035278 -0.035278 scale
start_ol
2944 2688 moveto
2944 0 lineto
2112 0 lineto
2112 1430 lineto
1249 0 lineto
384 0 lineto
384 2688 lineto
1216 2688 lineto
1216 1258 lineto
2079 2688 lineto
2944 2688 lineto
end_ol grestore 
gsave 23.136869 12.495000 translate 0.035278 -0.035278 scale
start_ol
2944 2688 moveto
2944 0 lineto
2112 0 lineto
2112 2048 lineto
1216 2048 lineto
1216 0 lineto
384 0 lineto
384 2688 lineto
2944 2688 lineto
end_ol grestore 
gsave 23.578954 12.495000 translate 0.035278 -0.035278 scale
start_ol
1585 1216 moveto
1306 1216 1165 1125 conicto
1024 1035 1024 858 conicto
1024 696 1137 604 conicto
1251 512 1453 512 conicto
1704 512 1876 685 conicto
2048 858 2048 1118 conicto
2048 1216 lineto
1585 1216 lineto
2880 1541 moveto
2880 0 lineto
2048 0 lineto
2048 384 lineto
1875 150 1658 43 conicto
1442 -64 1132 -64 conicto
714 -64 453 180 conicto
192 424 192 813 conicto
192 1286 513 1507 conicto
834 1728 1522 1728 conicto
2048 1728 lineto
2048 1800 lineto
2048 1995 1889 2085 conicto
1730 2176 1393 2176 conicto
1120 2176 885 2128 conicto
650 2080 448 1984 conicto
448 2624 lineto
715 2687 984 2719 conicto
1253 2752 1522 2752 conicto
2241 2752 2560 2467 conicto
2880 2182 2880 1541 conicto
end_ol grestore 
gsave 24.011044 12.495000 translate 0.035278 -0.035278 scale
start_ol
end_ol grestore 
gsave 24.233335 12.495000 translate 0.035278 -0.035278 scale
start_ol
704 1664 moveto
1106 1664 lineto
1466 1664 1597 1741 conicto
1728 1819 1728 1926 conicto
1728 2176 1156 2176 conicto
679 2176 384 1984 conicto
384 2624 lineto
820 2752 1336 2752 conicto
1940 2752 2218 2581 conicto
2496 2410 2496 2048 conicto
2496 1574 1976 1452 conicto
2560 1306 2560 767 conicto
2560 353 2233 144 conicto
1907 -64 1209 -64 conicto
688 -64 256 128 conicto
256 768 lineto
799 512 1121 512 conicto
1475 512 1633 587 conicto
1792 663 1792 758 conicto
1792 1024 1089 1024 conicto
704 1024 lineto
704 1664 lineto
end_ol grestore 
gsave 24.605480 12.495000 translate 0.035278 -0.035278 scale
start_ol
1585 1216 moveto
1306 1216 1165 1125 conicto
1024 1035 1024 858 conicto
1024 696 1137 604 conicto
1251 512 1453 512 conicto
1704 512 1876 685 conicto
2048 858 2048 1118 conicto
2048 1216 lineto
1585 1216 lineto
2880 1541 moveto
2880 0 lineto
2048 0 lineto
2048 384 lineto
1875 150 1658 43 conicto
1442 -64 1132 -64 conicto
714 -64 453 180 conicto
192 424 192 813 conicto
192 1286 513 1507 conicto
834 1728 1522 1728 conicto
2048 1728 lineto
2048 1800 lineto
2048 1995 1889 2085 conicto
1730 2176 1393 2176 conicto
1120 2176 885 2128 conicto
650 2080 448 1984 conicto
448 2624 lineto
715 2687 984 2719 conicto
1253 2752 1522 2752 conicto
2241 2752 2560 2467 conicto
2880 2182 2880 1541 conicto
end_ol grestore 
gsave 25.037569 12.495000 translate 0.035278 -0.035278 scale
start_ol
2944 2688 moveto
2944 0 lineto
2112 0 lineto
2112 2048 lineto
1216 2048 lineto
1216 0 lineto
384 0 lineto
384 2688 lineto
2944 2688 lineto
end_ol grestore 
gsave 25.479655 12.495000 translate 0.035278 -0.035278 scale
start_ol
1216 384 moveto
1216 -1024 lineto
384 -1024 lineto
384 2688 lineto
1216 2688 lineto
1216 2304 lineto
1396 2534 1614 2643 conicto
1832 2752 2116 2752 conicto
2619 2752 2941 2358 conicto
3264 1964 3264 1344 conicto
3264 724 2941 330 conicto
2619 -64 2116 -64 conicto
1832 -64 1614 45 conicto
1396 154 1216 384 conicto
1794 2112 moveto
1515 2112 1365 1914 conicto
1216 1716 1216 1344 conicto
1216 972 1365 774 conicto
1515 576 1794 576 conicto
2074 576 2221 772 conicto
2368 969 2368 1344 conicto
2368 1719 2221 1915 conicto
2074 2112 1794 2112 conicto
end_ol grestore 
gsave 25.936723 12.495000 translate 0.035278 -0.035278 scale
start_ol
1668 2112 moveto
1385 2112 1236 1914 conicto
1088 1716 1088 1344 conicto
1088 972 1236 774 conicto
1385 576 1668 576 conicto
1945 576 2092 774 conicto
2240 972 2240 1344 conicto
2240 1716 2092 1914 conicto
1945 2112 1668 2112 conicto
1668 2752 moveto
2359 2752 2747 2378 conicto
3136 2005 3136 1344 conicto
3136 683 2747 309 conicto
2359 -64 1668 -64 conicto
974 -64 583 309 conicto
192 683 192 1344 conicto
192 2005 583 2378 conicto
974 2752 1668 2752 conicto
end_ol grestore 
gsave 26.376311 12.495000 translate 0.035278 -0.035278 scale
start_ol
2560 2560 moveto
2560 1856 lineto
2386 1987 2210 2049 conicto
2034 2112 1846 2112 conicto
1487 2112 1287 1909 conicto
1088 1707 1088 1344 conicto
1088 981 1287 778 conicto
1487 576 1846 576 conicto
2046 576 2226 640 conicto
2407 705 2560 832 conicto
2560 128 lineto
2359 32 2152 -16 conicto
1945 -64 1736 -64 conicto
1011 -64 601 308 conicto
192 681 192 1344 conicto
192 2007 601 2379 conicto
1011 2752 1736 2752 conicto
1947 2752 2151 2704 conicto
2356 2656 2560 2560 conicto
end_ol grestore 
gsave 26.755955 12.495000 translate 0.035278 -0.035278 scale
start_ol
1585 1216 moveto
1306 1216 1165 1125 conicto
1024 1035 1024 858 conicto
1024 696 1137 604 conicto
1251 512 1453 512 conicto
1704 512 1876 685 conicto
2048 858 2048 1118 conicto
2048 1216 lineto
1585 1216 lineto
2880 1541 moveto
2880 0 lineto
2048 0 lineto
2048 384 lineto
1875 150 1658 43 conicto
1442 -64 1132 -64 conicto
714 -64 453 180 conicto
192 424 192 813 conicto
192 1286 513 1507 conicto
834 1728 1522 1728 conicto
2048 1728 lineto
2048 1800 lineto
2048 1995 1889 2085 conicto
1730 2176 1393 2176 conicto
1120 2176 885 2128 conicto
650 2080 448 1984 conicto
448 2624 lineto
715 2687 984 2719 conicto
1253 2752 1522 2752 conicto
2241 2752 2560 2467 conicto
2880 2182 2880 1541 conicto
end_ol grestore 
gsave 18.817500 13.295000 translate 0.035278 -0.035278 scale
start_ol
1856 -640 moveto
1116 -640 lineto
741 -51 562 480 conicto
384 1011 384 1534 conicto
384 2056 564 2591 conicto
744 3127 1116 3712 conicto
1856 3712 lineto
1536 3147 1376 2606 conicto
1216 2066 1216 1538 conicto
1216 1011 1375 469 conicto
1534 -72 1856 -640 conicto
end_ol grestore 
gsave 19.109724 13.295000 translate 0.035278 -0.035278 scale
start_ol
2560 2560 moveto
2560 1856 lineto
2386 1987 2210 2049 conicto
2034 2112 1846 2112 conicto
1487 2112 1287 1909 conicto
1088 1707 1088 1344 conicto
1088 981 1287 778 conicto
1487 576 1846 576 conicto
2046 576 2226 640 conicto
2407 705 2560 832 conicto
2560 128 lineto
2359 32 2152 -16 conicto
1945 -64 1736 -64 conicto
1011 -64 601 308 conicto
192 681 192 1344 conicto
192 2007 601 2379 conicto
1011 2752 1736 2752 conicto
1947 2752 2151 2704 conicto
2356 2656 2560 2560 conicto
end_ol grestore 
gsave 19.489368 13.295000 translate 0.035278 -0.035278 scale
start_ol
1668 2112 moveto
1385 2112 1236 1914 conicto
1088 1716 1088 1344 conicto
1088 972 1236 774 conicto
1385 576 1668 576 conicto
1945 576 2092 774 conicto
2240 972 2240 1344 conicto
2240 1716 2092 1914 conicto
1945 2112 1668 2112 conicto
1668 2752 moveto
2359 2752 2747 2378 conicto
3136 2005 3136 1344 conicto
3136 683 2747 309 conicto
2359 -64 1668 -64 conicto
974 -64 583 309 conicto
192 683 192 1344 conicto
192 2005 583 2378 conicto
974 2752 1668 2752 conicto
end_ol grestore 
gsave 19.928957 13.295000 translate 0.035278 -0.035278 scale
start_ol
704 1664 moveto
1106 1664 lineto
1466 1664 1597 1741 conicto
1728 1819 1728 1926 conicto
1728 2176 1156 2176 conicto
679 2176 384 1984 conicto
384 2624 lineto
820 2752 1336 2752 conicto
1940 2752 2218 2581 conicto
2496 2410 2496 2048 conicto
2496 1574 1976 1452 conicto
2560 1306 2560 767 conicto
2560 353 2233 144 conicto
1907 -64 1209 -64 conicto
688 -64 256 128 conicto
256 768 lineto
799 512 1121 512 conicto
1475 512 1633 587 conicto
1792 663 1792 758 conicto
1792 1024 1089 1024 conicto
704 1024 lineto
704 1664 lineto
end_ol grestore 
gsave 20.301101 13.295000 translate 0.035278 -0.035278 scale
start_ol
398 640 moveto
668 730 782 1030 conicto
896 1330 896 2185 conicto
896 2688 lineto
3200 2688 lineto
3200 640 lineto
3648 640 lineto
3648 -704 lineto
3008 -704 lineto
3008 0 lineto
896 0 lineto
896 -704 lineto
256 -704 lineto
256 640 lineto
398 640 lineto
2368 2048 moveto
1728 2048 lineto
1728 1976 lineto
1728 1126 1531 640 conicto
2368 640 lineto
2368 2048 lineto
end_ol grestore 
gsave 20.818114 13.295000 translate 0.035278 -0.035278 scale
start_ol
1585 1216 moveto
1306 1216 1165 1125 conicto
1024 1035 1024 858 conicto
1024 696 1137 604 conicto
1251 512 1453 512 conicto
1704 512 1876 685 conicto
2048 858 2048 1118 conicto
2048 1216 lineto
1585 1216 lineto
2880 1541 moveto
2880 0 lineto
2048 0 lineto
2048 384 lineto
1875 150 1658 43 conicto
1442 -64 1132 -64 conicto
714 -64 453 180 conicto
192 424 192 813 conicto
192 1286 513 1507 conicto
834 1728 1522 1728 conicto
2048 1728 lineto
2048 1800 lineto
2048 1995 1889 2085 conicto
1730 2176 1393 2176 conicto
1120 2176 885 2128 conicto
650 2080 448 1984 conicto
448 2624 lineto
715 2687 984 2719 conicto
1253 2752 1522 2752 conicto
2241 2752 2560 2467 conicto
2880 2182 2880 1541 conicto
end_ol grestore 
gsave 21.250203 13.295000 translate 0.035278 -0.035278 scale
start_ol
384 2688 moveto
1216 2688 lineto
1216 1664 lineto
2112 1664 lineto
2112 2688 lineto
2944 2688 lineto
2944 0 lineto
2112 0 lineto
2112 1024 lineto
1216 1024 lineto
1216 0 lineto
384 0 lineto
384 2688 lineto
end_ol grestore 
gsave 21.692289 13.295000 translate 0.035278 -0.035278 scale
start_ol
2944 2688 moveto
2944 0 lineto
2112 0 lineto
2112 1430 lineto
1249 0 lineto
384 0 lineto
384 2688 lineto
1216 2688 lineto
1216 1258 lineto
2079 2688 lineto
2944 2688 lineto
end_ol grestore 
gsave 22.139369 13.295000 translate 0.035278 -0.035278 scale
start_ol
3072 1388 moveto
3072 1152 lineto
1024 1152 lineto
1056 832 1247 672 conicto
1438 512 1781 512 conicto
2057 512 2347 591 conicto
2638 671 2944 832 conicto
2944 192 lineto
2640 65 2335 0 conicto
2031 -64 1727 -64 conicto
999 -64 595 306 conicto
192 676 192 1344 conicto
192 2000 588 2376 conicto
985 2752 1680 2752 conicto
2312 2752 2692 2380 conicto
3072 2009 3072 1388 conicto
2240 1664 moveto
2240 1894 2085 2035 conicto
1931 2176 1682 2176 conicto
1413 2176 1244 2044 conicto
1075 1912 1034 1664 conicto
2240 1664 lineto
end_ol grestore 
gsave 22.573955 13.295000 translate 0.035278 -0.035278 scale
start_ol
512 896 moveto
1344 896 lineto
1344 176 lineto
768 -704 lineto
256 -704 lineto
512 176 lineto
512 896 lineto
end_ol grestore 
gsave 22.816222 13.295000 translate 0.035278 -0.035278 scale
start_ol
end_ol grestore 
gsave 23.038514 13.295000 translate 0.035278 -0.035278 scale
start_ol
64 2688 moveto
910 2688 lineto
1621 864 lineto
2226 2688 lineto
3072 2688 lineto
1959 -209 lineto
1791 -663 1567 -843 conicto
1344 -1024 978 -1024 conicto
489 -1024 lineto
489 -448 lineto
754 -448 lineto
969 -448 1067 -385 conicto
1165 -322 1219 -160 conicto
1243 -86 lineto
64 2688 lineto
end_ol grestore 
gsave 23.455621 13.295000 translate 0.035278 -0.035278 scale
start_ol
398 640 moveto
668 730 782 1030 conicto
896 1330 896 2185 conicto
896 2688 lineto
3200 2688 lineto
3200 640 lineto
3648 640 lineto
3648 -704 lineto
3008 -704 lineto
3008 0 lineto
896 0 lineto
896 -704 lineto
256 -704 lineto
256 640 lineto
398 640 lineto
2368 2048 moveto
1728 2048 lineto
1728 1976 lineto
1728 1126 1531 640 conicto
2368 640 lineto
2368 2048 lineto
end_ol grestore 
gsave 23.972633 13.295000 translate 0.035278 -0.035278 scale
start_ol
1585 1216 moveto
1306 1216 1165 1125 conicto
1024 1035 1024 858 conicto
1024 696 1137 604 conicto
1251 512 1453 512 conicto
1704 512 1876 685 conicto
2048 858 2048 1118 conicto
2048 1216 lineto
1585 1216 lineto
2880 1541 moveto
2880 0 lineto
2048 0 lineto
2048 384 lineto
1875 150 1658 43 conicto
1442 -64 1132 -64 conicto
714 -64 453 180 conicto
192 424 192 813 conicto
192 1286 513 1507 conicto
834 1728 1522 1728 conicto
2048 1728 lineto
2048 1800 lineto
2048 1995 1889 2085 conicto
1730 2176 1393 2176 conicto
1120 2176 885 2128 conicto
650 2080 448 1984 conicto
448 2624 lineto
715 2687 984 2719 conicto
1253 2752 1522 2752 conicto
2241 2752 2560 2467 conicto
2880 2182 2880 1541 conicto
end_ol grestore 
gsave 24.404723 13.295000 translate 0.035278 -0.035278 scale
start_ol
256 0 moveto
256 640 lineto
669 725 762 1003 conicto
832 1214 832 2254 conicto
832 2688 lineto
3136 2688 lineto
3136 0 lineto
2304 0 lineto
2304 2048 lineto
1664 2048 lineto
1664 1960 lineto
1664 920 1503 616 conicto
1178 0 256 0 conicto
end_ol grestore 
gsave 24.874284 13.295000 translate 0.035278 -0.035278 scale
start_ol
3072 1388 moveto
3072 1152 lineto
1024 1152 lineto
1056 832 1247 672 conicto
1438 512 1781 512 conicto
2057 512 2347 591 conicto
2638 671 2944 832 conicto
2944 192 lineto
2640 65 2335 0 conicto
2031 -64 1727 -64 conicto
999 -64 595 306 conicto
192 676 192 1344 conicto
192 2000 588 2376 conicto
985 2752 1680 2752 conicto
2312 2752 2692 2380 conicto
3072 2009 3072 1388 conicto
2240 1664 moveto
2240 1894 2085 2035 conicto
1931 2176 1682 2176 conicto
1413 2176 1244 2044 conicto
1075 1912 1034 1664 conicto
2240 1664 lineto
end_ol grestore 
gsave 25.308870 13.295000 translate 0.035278 -0.035278 scale
start_ol
384 2688 moveto
1216 2688 lineto
1216 1664 lineto
2112 1664 lineto
2112 2688 lineto
2944 2688 lineto
2944 0 lineto
2112 0 lineto
2112 1024 lineto
1216 1024 lineto
1216 0 lineto
384 0 lineto
384 2688 lineto
end_ol grestore 
gsave 25.750956 13.295000 translate 0.035278 -0.035278 scale
start_ol
2944 2688 moveto
2944 0 lineto
2112 0 lineto
2112 1430 lineto
1249 0 lineto
384 0 lineto
384 2688 lineto
1216 2688 lineto
1216 1258 lineto
2079 2688 lineto
2944 2688 lineto
end_ol grestore 
gsave 26.198036 13.295000 translate 0.035278 -0.035278 scale
start_ol
3072 1388 moveto
3072 1152 lineto
1024 1152 lineto
1056 832 1247 672 conicto
1438 512 1781 512 conicto
2057 512 2347 591 conicto
2638 671 2944 832 conicto
2944 192 lineto
2640 65 2335 0 conicto
2031 -64 1727 -64 conicto
999 -64 595 306 conicto
192 676 192 1344 conicto
192 2000 588 2376 conicto
985 2752 1680 2752 conicto
2312 2752 2692 2380 conicto
3072 2009 3072 1388 conicto
2240 1664 moveto
2240 1894 2085 2035 conicto
1931 2176 1682 2176 conicto
1413 2176 1244 2044 conicto
1075 1912 1034 1664 conicto
2240 1664 lineto
end_ol grestore 
gsave 26.632622 13.295000 translate 0.035278 -0.035278 scale
start_ol
512 896 moveto
1344 896 lineto
1344 176 lineto
768 -704 lineto
256 -704 lineto
512 176 lineto
512 896 lineto
end_ol grestore 
gsave 19.651250 14.095000 translate 0.035278 -0.035278 scale
start_ol
1216 384 moveto
1216 -1024 lineto
384 -1024 lineto
384 2688 lineto
1216 2688 lineto
1216 2304 lineto
1396 2534 1614 2643 conicto
1832 2752 2116 2752 conicto
2619 2752 2941 2358 conicto
3264 1964 3264 1344 conicto
3264 724 2941 330 conicto
2619 -64 2116 -64 conicto
1832 -64 1614 45 conicto
1396 154 1216 384 conicto
1794 2112 moveto
1515 2112 1365 1914 conicto
1216 1716 1216 1344 conicto
1216 972 1365 774 conicto
1515 576 1794 576 conicto
2074 576 2221 772 conicto
2368 969 2368 1344 conicto
2368 1719 2221 1915 conicto
2074 2112 1794 2112 conicto
end_ol grestore 
gsave 20.108318 14.095000 translate 0.035278 -0.035278 scale
start_ol
3072 1388 moveto
3072 1152 lineto
1024 1152 lineto
1056 832 1247 672 conicto
1438 512 1781 512 conicto
2057 512 2347 591 conicto
2638 671 2944 832 conicto
2944 192 lineto
2640 65 2335 0 conicto
2031 -64 1727 -64 conicto
999 -64 595 306 conicto
192 676 192 1344 conicto
192 2000 588 2376 conicto
985 2752 1680 2752 conicto
2312 2752 2692 2380 conicto
3072 2009 3072 1388 conicto
2240 1664 moveto
2240 1894 2085 2035 conicto
1931 2176 1682 2176 conicto
1413 2176 1244 2044 conicto
1075 1912 1034 1664 conicto
2240 1664 lineto
end_ol grestore 
gsave 20.542904 14.095000 translate 0.035278 -0.035278 scale
start_ol
398 640 moveto
668 730 782 1030 conicto
896 1330 896 2185 conicto
896 2688 lineto
3200 2688 lineto
3200 640 lineto
3648 640 lineto
3648 -704 lineto
3008 -704 lineto
3008 0 lineto
896 0 lineto
896 -704 lineto
256 -704 lineto
256 640 lineto
398 640 lineto
2368 2048 moveto
1728 2048 lineto
1728 1976 lineto
1728 1126 1531 640 conicto
2368 640 lineto
2368 2048 lineto
end_ol grestore 
gsave 21.059916 14.095000 translate 0.035278 -0.035278 scale
start_ol
1585 1216 moveto
1306 1216 1165 1125 conicto
1024 1035 1024 858 conicto
1024 696 1137 604 conicto
1251 512 1453 512 conicto
1704 512 1876 685 conicto
2048 858 2048 1118 conicto
2048 1216 lineto
1585 1216 lineto
2880 1541 moveto
2880 0 lineto
2048 0 lineto
2048 384 lineto
1875 150 1658 43 conicto
1442 -64 1132 -64 conicto
714 -64 453 180 conicto
192 424 192 813 conicto
192 1286 513 1507 conicto
834 1728 1522 1728 conicto
2048 1728 lineto
2048 1800 lineto
2048 1995 1889 2085 conicto
1730 2176 1393 2176 conicto
1120 2176 885 2128 conicto
650 2080 448 1984 conicto
448 2624 lineto
715 2687 984 2719 conicto
1253 2752 1522 2752 conicto
2241 2752 2560 2467 conicto
2880 2182 2880 1541 conicto
end_ol grestore 
gsave 21.492006 14.095000 translate 0.035278 -0.035278 scale
start_ol
384 2688 moveto
1216 2688 lineto
1216 1778 lineto
2184 2688 lineto
3136 2688 lineto
1976 1596 lineto
3200 0 lineto
2317 0 lineto
1461 1111 lineto
1216 881 lineto
1216 0 lineto
384 0 lineto
384 2688 lineto
end_ol grestore 
gsave 21.926592 14.095000 translate 0.035278 -0.035278 scale
start_ol
0 2688 moveto
2752 2688 lineto
2752 2048 lineto
1792 2048 lineto
1792 0 lineto
960 0 lineto
960 2048 lineto
0 2048 lineto
0 2688 lineto
end_ol grestore 
gsave 22.296240 14.095000 translate 0.035278 -0.035278 scale
start_ol
2944 2688 moveto
2944 0 lineto
2112 0 lineto
2112 1430 lineto
1249 0 lineto
384 0 lineto
384 2688 lineto
1216 2688 lineto
1216 1258 lineto
2079 2688 lineto
2944 2688 lineto
end_ol grestore 
gsave 22.743320 14.095000 translate 0.035278 -0.035278 scale
start_ol
1216 384 moveto
1216 -1024 lineto
384 -1024 lineto
384 2688 lineto
1216 2688 lineto
1216 2304 lineto
1396 2534 1614 2643 conicto
1832 2752 2116 2752 conicto
2619 2752 2941 2358 conicto
3264 1964 3264 1344 conicto
3264 724 2941 330 conicto
2619 -64 2116 -64 conicto
1832 -64 1614 45 conicto
1396 154 1216 384 conicto
1794 2112 moveto
1515 2112 1365 1914 conicto
1216 1716 1216 1344 conicto
1216 972 1365 774 conicto
1515 576 1794 576 conicto
2074 576 2221 772 conicto
2368 969 2368 1344 conicto
2368 1719 2221 1915 conicto
2074 2112 1794 2112 conicto
end_ol grestore 
gsave 23.200387 14.095000 translate 0.035278 -0.035278 scale
start_ol
1668 2112 moveto
1385 2112 1236 1914 conicto
1088 1716 1088 1344 conicto
1088 972 1236 774 conicto
1385 576 1668 576 conicto
1945 576 2092 774 conicto
2240 972 2240 1344 conicto
2240 1716 2092 1914 conicto
1945 2112 1668 2112 conicto
1668 2752 moveto
2359 2752 2747 2378 conicto
3136 2005 3136 1344 conicto
3136 683 2747 309 conicto
2359 -64 1668 -64 conicto
974 -64 583 309 conicto
192 683 192 1344 conicto
192 2005 583 2378 conicto
974 2752 1668 2752 conicto
end_ol grestore 
gsave 23.639976 14.095000 translate 0.035278 -0.035278 scale
start_ol
1583 1664 moveto
1717 1664 1786 1712 conicto
1856 1761 1856 1857 conicto
1856 1952 1786 2000 conicto
1717 2048 1583 2048 conicto
1216 2048 lineto
1216 1664 lineto
1583 1664 lineto
1625 640 moveto
1803 640 1893 688 conicto
1984 737 1984 834 conicto
1984 929 1893 976 conicto
1803 1024 1625 1024 conicto
1216 1024 lineto
1216 640 lineto
1625 640 lineto
384 2688 moveto
1584 2688 lineto
2166 2688 2427 2519 conicto
2688 2350 2688 1978 conicto
2688 1781 2590 1643 conicto
2493 1505 2310 1438 conicto
2545 1373 2680 1199 conicto
2816 1025 2816 770 conicto
2816 382 2541 191 conicto
2266 0 1706 0 conicto
384 0 lineto
384 2688 lineto
end_ol grestore 
gsave 24.044590 14.095000 translate 0.035278 -0.035278 scale
start_ol
1585 1216 moveto
1306 1216 1165 1125 conicto
1024 1035 1024 858 conicto
1024 696 1137 604 conicto
1251 512 1453 512 conicto
1704 512 1876 685 conicto
2048 858 2048 1118 conicto
2048 1216 lineto
1585 1216 lineto
2880 1541 moveto
2880 0 lineto
2048 0 lineto
2048 384 lineto
1875 150 1658 43 conicto
1442 -64 1132 -64 conicto
714 -64 453 180 conicto
192 424 192 813 conicto
192 1286 513 1507 conicto
834 1728 1522 1728 conicto
2048 1728 lineto
2048 1800 lineto
2048 1995 1889 2085 conicto
1730 2176 1393 2176 conicto
1120 2176 885 2128 conicto
650 2080 448 1984 conicto
448 2624 lineto
715 2687 984 2719 conicto
1253 2752 1522 2752 conicto
2241 2752 2560 2467 conicto
2880 2182 2880 1541 conicto
end_ol grestore 
gsave 24.476679 14.095000 translate 0.035278 -0.035278 scale
start_ol
384 2688 moveto
1216 2688 lineto
1216 1664 lineto
2112 1664 lineto
2112 2688 lineto
2944 2688 lineto
2944 0 lineto
2112 0 lineto
2112 1024 lineto
1216 1024 lineto
1216 0 lineto
384 0 lineto
384 2688 lineto
end_ol grestore 
gsave 24.918765 14.095000 translate 0.035278 -0.035278 scale
start_ol
2944 2688 moveto
2944 0 lineto
2112 0 lineto
2112 1430 lineto
1249 0 lineto
384 0 lineto
384 2688 lineto
1216 2688 lineto
1216 1258 lineto
2079 2688 lineto
2944 2688 lineto
end_ol grestore 
gsave 25.365845 14.095000 translate 0.035278 -0.035278 scale
start_ol
3072 1388 moveto
3072 1152 lineto
1024 1152 lineto
1056 832 1247 672 conicto
1438 512 1781 512 conicto
2057 512 2347 591 conicto
2638 671 2944 832 conicto
2944 192 lineto
2640 65 2335 0 conicto
2031 -64 1727 -64 conicto
999 -64 595 306 conicto
192 676 192 1344 conicto
192 2000 588 2376 conicto
985 2752 1680 2752 conicto
2312 2752 2692 2380 conicto
3072 2009 3072 1388 conicto
2240 1664 moveto
2240 1894 2085 2035 conicto
1931 2176 1682 2176 conicto
1413 2176 1244 2044 conicto
1075 1912 1034 1664 conicto
2240 1664 lineto
end_ol grestore 
gsave 25.800431 14.095000 translate 0.035278 -0.035278 scale
start_ol
512 896 moveto
1344 896 lineto
1344 176 lineto
768 -704 lineto
256 -704 lineto
512 176 lineto
512 896 lineto
end_ol grestore 
gsave 19.312500 14.895000 translate 0.035278 -0.035278 scale
start_ol
end_ol grestore 
gsave 19.534791 14.895000 translate 0.035278 -0.035278 scale
start_ol
2944 2688 moveto
2944 0 lineto
2112 0 lineto
2112 2048 lineto
1216 2048 lineto
1216 0 lineto
384 0 lineto
384 2688 lineto
2944 2688 lineto
end_ol grestore 
gsave 19.976877 14.895000 translate 0.035278 -0.035278 scale
start_ol
1216 384 moveto
1216 -1024 lineto
384 -1024 lineto
384 2688 lineto
1216 2688 lineto
1216 2304 lineto
1396 2534 1614 2643 conicto
1832 2752 2116 2752 conicto
2619 2752 2941 2358 conicto
3264 1964 3264 1344 conicto
3264 724 2941 330 conicto
2619 -64 2116 -64 conicto
1832 -64 1614 45 conicto
1396 154 1216 384 conicto
1794 2112 moveto
1515 2112 1365 1914 conicto
1216 1716 1216 1344 conicto
1216 972 1365 774 conicto
1515 576 1794 576 conicto
2074 576 2221 772 conicto
2368 969 2368 1344 conicto
2368 1719 2221 1915 conicto
2074 2112 1794 2112 conicto
end_ol grestore 
gsave 20.433945 14.895000 translate 0.035278 -0.035278 scale
start_ol
1668 2112 moveto
1385 2112 1236 1914 conicto
1088 1716 1088 1344 conicto
1088 972 1236 774 conicto
1385 576 1668 576 conicto
1945 576 2092 774 conicto
2240 972 2240 1344 conicto
2240 1716 2092 1914 conicto
1945 2112 1668 2112 conicto
1668 2752 moveto
2359 2752 2747 2378 conicto
3136 2005 3136 1344 conicto
3136 683 2747 309 conicto
2359 -64 1668 -64 conicto
974 -64 583 309 conicto
192 683 192 1344 conicto
192 2005 583 2378 conicto
974 2752 1668 2752 conicto
end_ol grestore 
gsave 20.873533 14.895000 translate 0.035278 -0.035278 scale
start_ol
2560 2560 moveto
2560 1856 lineto
2386 1987 2210 2049 conicto
2034 2112 1846 2112 conicto
1487 2112 1287 1909 conicto
1088 1707 1088 1344 conicto
1088 981 1287 778 conicto
1487 576 1846 576 conicto
2046 576 2226 640 conicto
2407 705 2560 832 conicto
2560 128 lineto
2359 32 2152 -16 conicto
1945 -64 1736 -64 conicto
1011 -64 601 308 conicto
192 681 192 1344 conicto
192 2007 601 2379 conicto
1011 2752 1736 2752 conicto
1947 2752 2151 2704 conicto
2356 2656 2560 2560 conicto
end_ol grestore 
gsave 21.253177 14.895000 translate 0.035278 -0.035278 scale
start_ol
384 2688 moveto
1356 2688 lineto
1951 1341 lineto
2545 2688 lineto
3520 2688 lineto
3520 0 lineto
2688 0 lineto
2688 1521 lineto
2235 512 lineto
1672 512 lineto
1216 1521 lineto
1216 0 lineto
384 0 lineto
384 2688 lineto
end_ol grestore 
gsave 21.775184 14.895000 translate 0.035278 -0.035278 scale
start_ol
1668 2112 moveto
1385 2112 1236 1914 conicto
1088 1716 1088 1344 conicto
1088 972 1236 774 conicto
1385 576 1668 576 conicto
1945 576 2092 774 conicto
2240 972 2240 1344 conicto
2240 1716 2092 1914 conicto
1945 2112 1668 2112 conicto
1668 2752 moveto
2359 2752 2747 2378 conicto
3136 2005 3136 1344 conicto
3136 683 2747 309 conicto
2359 -64 1668 -64 conicto
974 -64 583 309 conicto
192 683 192 1344 conicto
192 2005 583 2378 conicto
974 2752 1668 2752 conicto
end_ol grestore 
gsave 22.214772 14.895000 translate 0.035278 -0.035278 scale
start_ol
0 2688 moveto
2752 2688 lineto
2752 2048 lineto
1792 2048 lineto
1792 0 lineto
960 0 lineto
960 2048 lineto
0 2048 lineto
0 2688 lineto
end_ol grestore 
gsave 22.584420 14.895000 translate 0.035278 -0.035278 scale
start_ol
1216 384 moveto
1216 -1024 lineto
384 -1024 lineto
384 2688 lineto
1216 2688 lineto
1216 2304 lineto
1396 2534 1614 2643 conicto
1832 2752 2116 2752 conicto
2619 2752 2941 2358 conicto
3264 1964 3264 1344 conicto
3264 724 2941 330 conicto
2619 -64 2116 -64 conicto
1832 -64 1614 45 conicto
1396 154 1216 384 conicto
1794 2112 moveto
1515 2112 1365 1914 conicto
1216 1716 1216 1344 conicto
1216 972 1365 774 conicto
1515 576 1794 576 conicto
2074 576 2221 772 conicto
2368 969 2368 1344 conicto
2368 1719 2221 1915 conicto
2074 2112 1794 2112 conicto
end_ol grestore 
gsave 23.041488 14.895000 translate 0.035278 -0.035278 scale
start_ol
end_ol grestore 
gsave 23.263779 14.895000 translate 0.035278 -0.035278 scale
start_ol
398 640 moveto
668 730 782 1030 conicto
896 1330 896 2185 conicto
896 2688 lineto
3200 2688 lineto
3200 640 lineto
3648 640 lineto
3648 -704 lineto
3008 -704 lineto
3008 0 lineto
896 0 lineto
896 -704 lineto
256 -704 lineto
256 640 lineto
398 640 lineto
2368 2048 moveto
1728 2048 lineto
1728 1976 lineto
1728 1126 1531 640 conicto
2368 640 lineto
2368 2048 lineto
end_ol grestore 
gsave 23.780792 14.895000 translate 0.035278 -0.035278 scale
start_ol
1585 1216 moveto
1306 1216 1165 1125 conicto
1024 1035 1024 858 conicto
1024 696 1137 604 conicto
1251 512 1453 512 conicto
1704 512 1876 685 conicto
2048 858 2048 1118 conicto
2048 1216 lineto
1585 1216 lineto
2880 1541 moveto
2880 0 lineto
2048 0 lineto
2048 384 lineto
1875 150 1658 43 conicto
1442 -64 1132 -64 conicto
714 -64 453 180 conicto
192 424 192 813 conicto
192 1286 513 1507 conicto
834 1728 1522 1728 conicto
2048 1728 lineto
2048 1800 lineto
2048 1995 1889 2085 conicto
1730 2176 1393 2176 conicto
1120 2176 885 2128 conicto
650 2080 448 1984 conicto
448 2624 lineto
715 2687 984 2719 conicto
1253 2752 1522 2752 conicto
2241 2752 2560 2467 conicto
2880 2182 2880 1541 conicto
end_ol grestore 
gsave 24.212881 14.895000 translate 0.035278 -0.035278 scale
start_ol
384 2688 moveto
1216 2688 lineto
1216 1664 lineto
2112 1664 lineto
2112 2688 lineto
2944 2688 lineto
2944 0 lineto
2112 0 lineto
2112 1024 lineto
1216 1024 lineto
1216 0 lineto
384 0 lineto
384 2688 lineto
end_ol grestore 
gsave 24.654967 14.895000 translate 0.035278 -0.035278 scale
start_ol
384 2688 moveto
1216 2688 lineto
1216 1664 lineto
2112 1664 lineto
2112 2688 lineto
2944 2688 lineto
2944 0 lineto
2112 0 lineto
2112 1024 lineto
1216 1024 lineto
1216 0 lineto
384 0 lineto
384 2688 lineto
end_ol grestore 
gsave 25.097052 14.895000 translate 0.035278 -0.035278 scale
start_ol
3136 2688 moveto
3968 2688 lineto
3968 0 lineto
3136 0 lineto
3136 2688 lineto
1984 834 moveto
1984 930 1894 978 conicto
1806 1024 1625 1024 conicto
1216 1024 lineto
1216 640 lineto
1625 640 lineto
1803 640 1894 689 conicto
1984 737 1984 834 conicto
384 2688 moveto
1216 2688 lineto
1216 1664 lineto
1697 1664 lineto
2235 1664 2524 1465 conicto
2816 1264 2816 828 conicto
2816 393 2526 196 conicto
2239 0 1705 0 conicto
384 0 lineto
384 2688 lineto
end_ol grestore 
gsave 25.676506 14.895000 translate 0.035278 -0.035278 scale
start_ol
1082 1375 moveto
128 2688 lineto
1023 2688 lineto
1564 1891 lineto
2112 2688 lineto
3008 2688 lineto
2054 1380 lineto
3072 0 lineto
2166 0 lineto
1564 850 lineto
969 0 lineto
64 0 lineto
1082 1375 lineto
end_ol grestore 
gsave 26.088620 14.895000 translate 0.035278 -0.035278 scale
start_ol
384 -640 moveto
704 -72 864 469 conicto
1024 1011 1024 1538 conicto
1024 2066 864 2606 conicto
704 3147 384 3712 conicto
1124 3712 lineto
1496 3127 1676 2591 conicto
1856 2056 1856 1534 conicto
1856 1011 1677 480 conicto
1499 -51 1124 -640 conicto
384 -640 lineto
end_ol grestore 
gsave 29.683750 15.820000 translate 0.035278 -0.035278 scale
start_ol
1951 448 moveto
867 448 lineto
696 0 lineto
0 0 lineto
995 2688 lineto
1821 2688 lineto
2816 0 lineto
2120 0 lineto
1951 448 lineto
1040 960 moveto
1776 960 lineto
1409 2047 lineto
1040 960 lineto
end_ol grestore 
gsave 30.055895 15.820000 translate 0.035278 -0.035278 scale
start_ol
1664 1350 moveto
1664 1875 1576 2089 conicto
1488 2304 1281 2304 conicto
1073 2304 984 2089 conicto
896 1875 896 1350 conicto
896 819 984 601 conicto
1073 384 1281 384 conicto
1487 384 1575 601 conicto
1664 819 1664 1350 conicto
2368 1343 moveto
2368 669 2084 302 conicto
1801 -64 1281 -64 conicto
759 -64 475 302 conicto
192 669 192 1343 conicto
192 2019 475 2385 conicto
759 2752 1281 2752 conicto
1801 2752 2084 2385 conicto
2368 2019 2368 1343 conicto
end_ol grestore 
0.100000 slw
[] 0 sd
0 slc
0.450000 0.450000 0.450000 srgb
n 15.505000 7.500000 0.750000 0.750000 90.000000 180.000000 ellipse s
n 14.755000 4.900000 m 14.755000 7.500000 l s
n 20.633999 8.921751 0.671751 0.671751 270.000000 0.000000 ellipse s
n 15.505000 8.250000 m 20.633999 8.250000 l s
n 21.305750 8.921751 m 21.305750 10.150000 l s
0 slj
n 20.905750 10.150000 m 21.305750 10.950000 l 21.705750 10.150000 l ef
0.100000 slw
[] 0 sd
0 slj
n 20.905750 10.150000 m 21.305750 10.950000 l 21.705750 10.150000 l cp s
1.000000 1.000000 1.000000 srgb
n 34.751350 16.650000 m 34.751350 19.250000 l 44.448850 19.250000 l 44.448850 16.650000 l f
0.100000 slw
[] 0 sd
0 slj
0.000000 0.000000 0.000000 srgb
n 34.751350 16.650000 m 34.751350 19.250000 l 44.448850 19.250000 l 44.448850 16.650000 l cp s
gsave 36.006350 17.745000 translate 0.035278 -0.035278 scale
start_ol
2079 2944 moveto
1668 2944 1442 2633 conicto
1216 2323 1216 1759 conicto
1216 1197 1442 886 conicto
1668 576 2079 576 conicto
2492 576 2718 886 conicto
2944 1197 2944 1759 conicto
2944 2323 2718 2633 conicto
2492 2944 2079 2944 conicto
2080 3584 moveto
2935 3584 3419 3099 conicto
3904 2614 3904 1759 conicto
3904 906 3419 421 conicto
2935 -64 2080 -64 conicto
1227 -64 741 421 conicto
256 906 256 1759 conicto
256 2614 741 3099 conicto
1227 3584 2080 3584 conicto
end_ol grestore 
gsave 36.550838 17.745000 translate 0.035278 -0.035278 scale
start_ol
189 1481 moveto
170 1858 lineto
128 2009 128 2160 conicto
128 2602 266 2891 conicto
520 3423 860 3532 conicto
1140 3624 2306 3712 conicto
2425 3721 2560 3743 conicto
2752 3203 lineto
2594 3155 1784 3072 conicto
1429 3044 1284 2956 conicto
1043 2809 1024 2534 conicto
1340 2752 1815 2752 conicto
2437 2752 2786 2378 conicto
3136 2005 3136 1344 conicto
3136 683 2748 309 conicto
2361 -64 1668 -64 conicto
974 -64 583 309 conicto
192 682 192 1341 conicto
192 1427 189 1481 conicto
1665 2112 moveto
1385 2112 1236 1914 conicto
1088 1716 1088 1344 conicto
1088 972 1236 774 conicto
1385 576 1665 576 conicto
1945 576 2092 774 conicto
2240 972 2240 1344 conicto
2240 1716 2092 1914 conicto
1945 2112 1665 2112 conicto
end_ol grestore 
gsave 36.997917 17.745000 translate 0.035278 -0.035278 scale
start_ol
1216 384 moveto
1216 -1024 lineto
384 -1024 lineto
384 2688 lineto
1216 2688 lineto
1216 2304 lineto
1396 2534 1614 2643 conicto
1832 2752 2116 2752 conicto
2619 2752 2941 2358 conicto
3264 1964 3264 1344 conicto
3264 724 2941 330 conicto
2619 -64 2116 -64 conicto
1832 -64 1614 45 conicto
1396 154 1216 384 conicto
1794 2112 moveto
1515 2112 1365 1914 conicto
1216 1716 1216 1344 conicto
1216 972 1365 774 conicto
1515 576 1794 576 conicto
2074 576 2221 772 conicto
2368 969 2368 1344 conicto
2368 1719 2221 1915 conicto
2074 2112 1794 2112 conicto
end_ol grestore 
gsave 37.454985 17.745000 translate 0.035278 -0.035278 scale
start_ol
1585 1216 moveto
1306 1216 1165 1125 conicto
1024 1035 1024 858 conicto
1024 696 1137 604 conicto
1251 512 1453 512 conicto
1704 512 1876 685 conicto
2048 858 2048 1118 conicto
2048 1216 lineto
1585 1216 lineto
2880 1541 moveto
2880 0 lineto
2048 0 lineto
2048 384 lineto
1875 150 1658 43 conicto
1442 -64 1132 -64 conicto
714 -64 453 180 conicto
192 424 192 813 conicto
192 1286 513 1507 conicto
834 1728 1522 1728 conicto
2048 1728 lineto
2048 1800 lineto
2048 1995 1889 2085 conicto
1730 2176 1393 2176 conicto
1120 2176 885 2128 conicto
650 2080 448 1984 conicto
448 2624 lineto
715 2687 984 2719 conicto
1253 2752 1522 2752 conicto
2241 2752 2560 2467 conicto
2880 2182 2880 1541 conicto
end_ol grestore 
gsave 37.887074 17.745000 translate 0.035278 -0.035278 scale
start_ol
189 1481 moveto
170 1858 lineto
128 2009 128 2160 conicto
128 2602 266 2891 conicto
520 3423 860 3532 conicto
1140 3624 2306 3712 conicto
2425 3721 2560 3743 conicto
2752 3203 lineto
2594 3155 1784 3072 conicto
1429 3044 1284 2956 conicto
1043 2809 1024 2534 conicto
1340 2752 1815 2752 conicto
2437 2752 2786 2378 conicto
3136 2005 3136 1344 conicto
3136 683 2748 309 conicto
2361 -64 1668 -64 conicto
974 -64 583 309 conicto
192 682 192 1341 conicto
192 1427 189 1481 conicto
1665 2112 moveto
1385 2112 1236 1914 conicto
1088 1716 1088 1344 conicto
1088 972 1236 774 conicto
1385 576 1665 576 conicto
1945 576 2092 774 conicto
2240 972 2240 1344 conicto
2240 1716 2092 1914 conicto
1945 2112 1665 2112 conicto
end_ol grestore 
gsave 38.334154 17.745000 translate 0.035278 -0.035278 scale
start_ol
1668 2112 moveto
1385 2112 1236 1914 conicto
1088 1716 1088 1344 conicto
1088 972 1236 774 conicto
1385 576 1668 576 conicto
1945 576 2092 774 conicto
2240 972 2240 1344 conicto
2240 1716 2092 1914 conicto
1945 2112 1668 2112 conicto
1668 2752 moveto
2359 2752 2747 2378 conicto
3136 2005 3136 1344 conicto
3136 683 2747 309 conicto
2359 -64 1668 -64 conicto
974 -64 583 309 conicto
192 683 192 1344 conicto
192 2005 583 2378 conicto
974 2752 1668 2752 conicto
end_ol grestore 
gsave 38.773743 17.745000 translate 0.035278 -0.035278 scale
start_ol
0 2688 moveto
2752 2688 lineto
2752 2048 lineto
1792 2048 lineto
1792 0 lineto
960 0 lineto
960 2048 lineto
0 2048 lineto
0 2688 lineto
end_ol grestore 
gsave 39.143391 17.745000 translate 0.035278 -0.035278 scale
start_ol
384 2688 moveto
1216 2688 lineto
1216 1778 lineto
2184 2688 lineto
3136 2688 lineto
1976 1596 lineto
3200 0 lineto
2317 0 lineto
1461 1111 lineto
1216 881 lineto
1216 0 lineto
384 0 lineto
384 2688 lineto
end_ol grestore 
gsave 39.577977 17.745000 translate 0.035278 -0.035278 scale
start_ol
1585 1216 moveto
1306 1216 1165 1125 conicto
1024 1035 1024 858 conicto
1024 696 1137 604 conicto
1251 512 1453 512 conicto
1704 512 1876 685 conicto
2048 858 2048 1118 conicto
2048 1216 lineto
1585 1216 lineto
2880 1541 moveto
2880 0 lineto
2048 0 lineto
2048 384 lineto
1875 150 1658 43 conicto
1442 -64 1132 -64 conicto
714 -64 453 180 conicto
192 424 192 813 conicto
192 1286 513 1507 conicto
834 1728 1522 1728 conicto
2048 1728 lineto
2048 1800 lineto
2048 1995 1889 2085 conicto
1730 2176 1393 2176 conicto
1120 2176 885 2128 conicto
650 2080 448 1984 conicto
448 2624 lineto
715 2687 984 2719 conicto
1253 2752 1522 2752 conicto
2241 2752 2560 2467 conicto
2880 2182 2880 1541 conicto
end_ol grestore 
gsave 40.010066 17.745000 translate 0.035278 -0.035278 scale
start_ol
end_ol grestore 
gsave 40.232358 17.745000 translate 0.035278 -0.035278 scale
start_ol
704 1664 moveto
1106 1664 lineto
1466 1664 1597 1741 conicto
1728 1819 1728 1926 conicto
1728 2176 1156 2176 conicto
679 2176 384 1984 conicto
384 2624 lineto
820 2752 1336 2752 conicto
1940 2752 2218 2581 conicto
2496 2410 2496 2048 conicto
2496 1574 1976 1452 conicto
2560 1306 2560 767 conicto
2560 353 2233 144 conicto
1907 -64 1209 -64 conicto
688 -64 256 128 conicto
256 768 lineto
799 512 1121 512 conicto
1475 512 1633 587 conicto
1792 663 1792 758 conicto
1792 1024 1089 1024 conicto
704 1024 lineto
704 1664 lineto
end_ol grestore 
gsave 40.604502 17.745000 translate 0.035278 -0.035278 scale
start_ol
1585 1216 moveto
1306 1216 1165 1125 conicto
1024 1035 1024 858 conicto
1024 696 1137 604 conicto
1251 512 1453 512 conicto
1704 512 1876 685 conicto
2048 858 2048 1118 conicto
2048 1216 lineto
1585 1216 lineto
2880 1541 moveto
2880 0 lineto
2048 0 lineto
2048 384 lineto
1875 150 1658 43 conicto
1442 -64 1132 -64 conicto
714 -64 453 180 conicto
192 424 192 813 conicto
192 1286 513 1507 conicto
834 1728 1522 1728 conicto
2048 1728 lineto
2048 1800 lineto
2048 1995 1889 2085 conicto
1730 2176 1393 2176 conicto
1120 2176 885 2128 conicto
650 2080 448 1984 conicto
448 2624 lineto
715 2687 984 2719 conicto
1253 2752 1522 2752 conicto
2241 2752 2560 2467 conicto
2880 2182 2880 1541 conicto
end_ol grestore 
gsave 41.036592 17.745000 translate 0.035278 -0.035278 scale
start_ol
2944 2688 moveto
2944 0 lineto
2112 0 lineto
2112 2048 lineto
1216 2048 lineto
1216 0 lineto
384 0 lineto
384 2688 lineto
2944 2688 lineto
end_ol grestore 
gsave 41.478677 17.745000 translate 0.035278 -0.035278 scale
start_ol
1216 384 moveto
1216 -1024 lineto
384 -1024 lineto
384 2688 lineto
1216 2688 lineto
1216 2304 lineto
1396 2534 1614 2643 conicto
1832 2752 2116 2752 conicto
2619 2752 2941 2358 conicto
3264 1964 3264 1344 conicto
3264 724 2941 330 conicto
2619 -64 2116 -64 conicto
1832 -64 1614 45 conicto
1396 154 1216 384 conicto
1794 2112 moveto
1515 2112 1365 1914 conicto
1216 1716 1216 1344 conicto
1216 972 1365 774 conicto
1515 576 1794 576 conicto
2074 576 2221 772 conicto
2368 969 2368 1344 conicto
2368 1719 2221 1915 conicto
2074 2112 1794 2112 conicto
end_ol grestore 
gsave 41.935745 17.745000 translate 0.035278 -0.035278 scale
start_ol
1668 2112 moveto
1385 2112 1236 1914 conicto
1088 1716 1088 1344 conicto
1088 972 1236 774 conicto
1385 576 1668 576 conicto
1945 576 2092 774 conicto
2240 972 2240 1344 conicto
2240 1716 2092 1914 conicto
1945 2112 1668 2112 conicto
1668 2752 moveto
2359 2752 2747 2378 conicto
3136 2005 3136 1344 conicto
3136 683 2747 309 conicto
2359 -64 1668 -64 conicto
974 -64 583 309 conicto
192 683 192 1344 conicto
192 2005 583 2378 conicto
974 2752 1668 2752 conicto
end_ol grestore 
gsave 42.375334 17.745000 translate 0.035278 -0.035278 scale
start_ol
2560 2560 moveto
2560 1856 lineto
2386 1987 2210 2049 conicto
2034 2112 1846 2112 conicto
1487 2112 1287 1909 conicto
1088 1707 1088 1344 conicto
1088 981 1287 778 conicto
1487 576 1846 576 conicto
2046 576 2226 640 conicto
2407 705 2560 832 conicto
2560 128 lineto
2359 32 2152 -16 conicto
1945 -64 1736 -64 conicto
1011 -64 601 308 conicto
192 681 192 1344 conicto
192 2007 601 2379 conicto
1011 2752 1736 2752 conicto
1947 2752 2151 2704 conicto
2356 2656 2560 2560 conicto
end_ol grestore 
gsave 42.754978 17.745000 translate 0.035278 -0.035278 scale
start_ol
1585 1216 moveto
1306 1216 1165 1125 conicto
1024 1035 1024 858 conicto
1024 696 1137 604 conicto
1251 512 1453 512 conicto
1704 512 1876 685 conicto
2048 858 2048 1118 conicto
2048 1216 lineto
1585 1216 lineto
2880 1541 moveto
2880 0 lineto
2048 0 lineto
2048 384 lineto
1875 150 1658 43 conicto
1442 -64 1132 -64 conicto
714 -64 453 180 conicto
192 424 192 813 conicto
192 1286 513 1507 conicto
834 1728 1522 1728 conicto
2048 1728 lineto
2048 1800 lineto
2048 1995 1889 2085 conicto
1730 2176 1393 2176 conicto
1120 2176 885 2128 conicto
650 2080 448 1984 conicto
448 2624 lineto
715 2687 984 2719 conicto
1253 2752 1522 2752 conicto
2241 2752 2560 2467 conicto
2880 2182 2880 1541 conicto
end_ol grestore 
gsave 36.235100 18.545000 translate 0.035278 -0.035278 scale
start_ol
1583 1664 moveto
1717 1664 1786 1712 conicto
1856 1761 1856 1857 conicto
1856 1952 1786 2000 conicto
1717 2048 1583 2048 conicto
1216 2048 lineto
1216 1664 lineto
1583 1664 lineto
1625 640 moveto
1803 640 1893 688 conicto
1984 737 1984 834 conicto
1984 929 1893 976 conicto
1803 1024 1625 1024 conicto
1216 1024 lineto
1216 640 lineto
1625 640 lineto
384 2688 moveto
1584 2688 lineto
2166 2688 2427 2519 conicto
2688 2350 2688 1978 conicto
2688 1781 2590 1643 conicto
2493 1505 2310 1438 conicto
2545 1373 2680 1199 conicto
2816 1025 2816 770 conicto
2816 382 2541 191 conicto
2266 0 1706 0 conicto
384 0 lineto
384 2688 lineto
end_ol grestore 
gsave 36.639714 18.545000 translate 0.035278 -0.035278 scale
start_ol
3072 1388 moveto
3072 1152 lineto
1024 1152 lineto
1056 832 1247 672 conicto
1438 512 1781 512 conicto
2057 512 2347 591 conicto
2638 671 2944 832 conicto
2944 192 lineto
2640 65 2335 0 conicto
2031 -64 1727 -64 conicto
999 -64 595 306 conicto
192 676 192 1344 conicto
192 2000 588 2376 conicto
985 2752 1680 2752 conicto
2312 2752 2692 2380 conicto
3072 2009 3072 1388 conicto
2240 1664 moveto
2240 1894 2085 2035 conicto
1931 2176 1682 2176 conicto
1413 2176 1244 2044 conicto
1075 1912 1034 1664 conicto
2240 1664 lineto
end_ol grestore 
gsave 37.074300 18.545000 translate 0.035278 -0.035278 scale
start_ol
189 1481 moveto
170 1858 lineto
128 2009 128 2160 conicto
128 2602 266 2891 conicto
520 3423 860 3532 conicto
1140 3624 2306 3712 conicto
2425 3721 2560 3743 conicto
2752 3203 lineto
2594 3155 1784 3072 conicto
1429 3044 1284 2956 conicto
1043 2809 1024 2534 conicto
1340 2752 1815 2752 conicto
2437 2752 2786 2378 conicto
3136 2005 3136 1344 conicto
3136 683 2748 309 conicto
2361 -64 1668 -64 conicto
974 -64 583 309 conicto
192 682 192 1341 conicto
192 1427 189 1481 conicto
1665 2112 moveto
1385 2112 1236 1914 conicto
1088 1716 1088 1344 conicto
1088 972 1236 774 conicto
1385 576 1665 576 conicto
1945 576 2092 774 conicto
2240 972 2240 1344 conicto
2240 1716 2092 1914 conicto
1945 2112 1665 2112 conicto
end_ol grestore 
gsave 37.521380 18.545000 translate 0.035278 -0.035278 scale
start_ol
256 1728 moveto
1728 1728 lineto
1728 1024 lineto
256 1024 lineto
256 1728 lineto
end_ol grestore 
gsave 37.786129 18.545000 translate 0.035278 -0.035278 scale
start_ol
2944 2688 moveto
2944 0 lineto
2112 0 lineto
2112 2048 lineto
1216 2048 lineto
1216 0 lineto
384 0 lineto
384 2688 lineto
2944 2688 lineto
end_ol grestore 
gsave 38.228215 18.545000 translate 0.035278 -0.035278 scale
start_ol
1216 384 moveto
1216 -1024 lineto
384 -1024 lineto
384 2688 lineto
1216 2688 lineto
1216 2304 lineto
1396 2534 1614 2643 conicto
1832 2752 2116 2752 conicto
2619 2752 2941 2358 conicto
3264 1964 3264 1344 conicto
3264 724 2941 330 conicto
2619 -64 2116 -64 conicto
1832 -64 1614 45 conicto
1396 154 1216 384 conicto
1794 2112 moveto
1515 2112 1365 1914 conicto
1216 1716 1216 1344 conicto
1216 972 1365 774 conicto
1515 576 1794 576 conicto
2074 576 2221 772 conicto
2368 969 2368 1344 conicto
2368 1719 2221 1915 conicto
2074 2112 1794 2112 conicto
end_ol grestore 
gsave 38.685282 18.545000 translate 0.035278 -0.035278 scale
start_ol
2944 2688 moveto
2944 0 lineto
2112 0 lineto
2112 1430 lineto
1249 0 lineto
384 0 lineto
384 2688 lineto
1216 2688 lineto
1216 1258 lineto
2079 2688 lineto
2944 2688 lineto
end_ol grestore 
gsave 39.132362 18.545000 translate 0.035278 -0.035278 scale
start_ol
256 0 moveto
256 640 lineto
669 725 762 1003 conicto
832 1214 832 2254 conicto
832 2688 lineto
3136 2688 lineto
3136 0 lineto
2304 0 lineto
2304 2048 lineto
1664 2048 lineto
1664 1960 lineto
1664 920 1503 616 conicto
1178 0 256 0 conicto
end_ol grestore 
gsave 39.601923 18.545000 translate 0.035278 -0.035278 scale
start_ol
1668 2112 moveto
1385 2112 1236 1914 conicto
1088 1716 1088 1344 conicto
1088 972 1236 774 conicto
1385 576 1668 576 conicto
1945 576 2092 774 conicto
2240 972 2240 1344 conicto
2240 1716 2092 1914 conicto
1945 2112 1668 2112 conicto
1668 2752 moveto
2359 2752 2747 2378 conicto
3136 2005 3136 1344 conicto
3136 683 2747 309 conicto
2359 -64 1668 -64 conicto
974 -64 583 309 conicto
192 683 192 1344 conicto
192 2005 583 2378 conicto
974 2752 1668 2752 conicto
end_ol grestore 
gsave 40.041512 18.545000 translate 0.035278 -0.035278 scale
start_ol
64 0 moveto
1255 1596 lineto
128 2688 lineto
1072 2688 lineto
1984 1802 lineto
1984 2688 lineto
2816 2688 lineto
2816 1802 lineto
3728 2688 lineto
4672 2688 lineto
3545 1596 lineto
4736 0 lineto
3861 0 lineto
3033 1099 lineto
2816 890 lineto
2816 0 lineto
1984 0 lineto
1984 890 lineto
1767 1099 lineto
939 0 lineto
64 0 lineto
end_ol grestore 
gsave 40.678413 18.545000 translate 0.035278 -0.035278 scale
start_ol
3072 1388 moveto
3072 1152 lineto
1024 1152 lineto
1056 832 1247 672 conicto
1438 512 1781 512 conicto
2057 512 2347 591 conicto
2638 671 2944 832 conicto
2944 192 lineto
2640 65 2335 0 conicto
2031 -64 1727 -64 conicto
999 -64 595 306 conicto
192 676 192 1344 conicto
192 2000 588 2376 conicto
985 2752 1680 2752 conicto
2312 2752 2692 2380 conicto
3072 2009 3072 1388 conicto
2240 1664 moveto
2240 1894 2085 2035 conicto
1931 2176 1682 2176 conicto
1413 2176 1244 2044 conicto
1075 1912 1034 1664 conicto
2240 1664 lineto
end_ol grestore 
gsave 41.113000 18.545000 translate 0.035278 -0.035278 scale
start_ol
384 2688 moveto
1216 2688 lineto
1216 1664 lineto
2112 1664 lineto
2112 2688 lineto
2944 2688 lineto
2944 0 lineto
2112 0 lineto
2112 1024 lineto
1216 1024 lineto
1216 0 lineto
384 0 lineto
384 2688 lineto
end_ol grestore 
gsave 41.555085 18.545000 translate 0.035278 -0.035278 scale
start_ol
2944 2688 moveto
2944 0 lineto
2112 0 lineto
2112 1430 lineto
1249 0 lineto
384 0 lineto
384 2688 lineto
1216 2688 lineto
1216 1258 lineto
2079 2688 lineto
2944 2688 lineto
end_ol grestore 
gsave 42.002165 18.545000 translate 0.035278 -0.035278 scale
start_ol
3072 1388 moveto
3072 1152 lineto
1024 1152 lineto
1056 832 1247 672 conicto
1438 512 1781 512 conicto
2057 512 2347 591 conicto
2638 671 2944 832 conicto
2944 192 lineto
2640 65 2335 0 conicto
2031 -64 1727 -64 conicto
999 -64 595 306 conicto
192 676 192 1344 conicto
192 2000 588 2376 conicto
985 2752 1680 2752 conicto
2312 2752 2692 2380 conicto
3072 2009 3072 1388 conicto
2240 1664 moveto
2240 1894 2085 2035 conicto
1931 2176 1682 2176 conicto
1413 2176 1244 2044 conicto
1075 1912 1034 1664 conicto
2240 1664 lineto
end_ol grestore 
gsave 42.436751 18.545000 translate 0.035278 -0.035278 scale
start_ol
384 2688 moveto
1356 2688 lineto
1951 1341 lineto
2545 2688 lineto
3520 2688 lineto
3520 0 lineto
2688 0 lineto
2688 1521 lineto
2235 512 lineto
1672 512 lineto
1216 1521 lineto
1216 0 lineto
384 0 lineto
384 2688 lineto
end_ol grestore 
gsave 43.561350 19.070000 translate 0.035278 -0.035278 scale
start_ol
1951 448 moveto
867 448 lineto
696 0 lineto
0 0 lineto
995 2688 lineto
1821 2688 lineto
2816 0 lineto
2120 0 lineto
1951 448 lineto
1040 960 moveto
1776 960 lineto
1409 2047 lineto
1040 960 lineto
end_ol grestore 
gsave 43.933495 19.070000 translate 0.035278 -0.035278 scale
start_ol
1664 1350 moveto
1664 1875 1576 2089 conicto
1488 2304 1281 2304 conicto
1073 2304 984 2089 conicto
896 1875 896 1350 conicto
896 819 984 601 conicto
1073 384 1281 384 conicto
1487 384 1575 601 conicto
1664 819 1664 1350 conicto
2368 1343 moveto
2368 669 2084 302 conicto
1801 -64 1281 -64 conicto
759 -64 475 302 conicto
192 669 192 1343 conicto
192 2019 475 2385 conicto
759 2752 1281 2752 conicto
1801 2752 2084 2385 conicto
2368 2019 2368 1343 conicto
end_ol grestore 
0.100000 slw
[] 0 sd
0 slc
0.450000 0.450000 0.450000 srgb
n 30.953653 14.346447 0.353553 0.353553 90.000000 180.000000 ellipse s
n 30.600100 13.700000 m 30.600100 14.346447 l s
n 38.241441 15.088909 0.388909 0.388909 270.000000 360.000000 ellipse s
n 30.953653 14.700000 m 38.241441 14.700000 l s
n 38.630350 15.088909 m 38.630350 15.800000 l s
0 slj
n 38.230350 15.800000 m 38.630350 16.600000 l 39.030350 15.800000 l ef
0.100000 slw
[] 0 sd
0 slj
n 38.230350 15.800000 m 38.630350 16.600000 l 39.030350 15.800000 l cp s
1.000000 1.000000 1.000000 srgb
n 44.078850 21.650000 m 44.078850 24.800000 l 56.300100 24.800000 l 56.300100 21.650000 l f
0.100000 slw
[] 0 sd
0 slj
0.000000 0.000000 0.000000 srgb
n 44.078850 21.650000 m 44.078850 24.800000 l 56.300100 24.800000 l 56.300100 21.650000 l cp s
gsave 45.451975 23.020000 translate 0.035278 -0.035278 scale
start_ol
2079 2944 moveto
1668 2944 1442 2633 conicto
1216 2323 1216 1759 conicto
1216 1197 1442 886 conicto
1668 576 2079 576 conicto
2492 576 2718 886 conicto
2944 1197 2944 1759 conicto
2944 2323 2718 2633 conicto
2492 2944 2079 2944 conicto
2080 3584 moveto
2935 3584 3419 3099 conicto
3904 2614 3904 1759 conicto
3904 906 3419 421 conicto
2935 -64 2080 -64 conicto
1227 -64 741 421 conicto
256 906 256 1759 conicto
256 2614 741 3099 conicto
1227 3584 2080 3584 conicto
end_ol grestore 
gsave 45.996463 23.020000 translate 0.035278 -0.035278 scale
start_ol
0 2688 moveto
2752 2688 lineto
2752 2048 lineto
1792 2048 lineto
1792 0 lineto
960 0 lineto
960 2048 lineto
0 2048 lineto
0 2688 lineto
end_ol grestore 
gsave 46.366110 23.020000 translate 0.035278 -0.035278 scale
start_ol
1668 2112 moveto
1385 2112 1236 1914 conicto
1088 1716 1088 1344 conicto
1088 972 1236 774 conicto
1385 576 1668 576 conicto
1945 576 2092 774 conicto
2240 972 2240 1344 conicto
2240 1716 2092 1914 conicto
1945 2112 1668 2112 conicto
1668 2752 moveto
2359 2752 2747 2378 conicto
3136 2005 3136 1344 conicto
3136 683 2747 309 conicto
2359 -64 1668 -64 conicto
974 -64 583 309 conicto
192 683 192 1344 conicto
192 2005 583 2378 conicto
974 2752 1668 2752 conicto
end_ol grestore 
gsave 46.805699 23.020000 translate 0.035278 -0.035278 scale
start_ol
189 1481 moveto
170 1858 lineto
128 2009 128 2160 conicto
128 2602 266 2891 conicto
520 3423 860 3532 conicto
1140 3624 2306 3712 conicto
2425 3721 2560 3743 conicto
2752 3203 lineto
2594 3155 1784 3072 conicto
1429 3044 1284 2956 conicto
1043 2809 1024 2534 conicto
1340 2752 1815 2752 conicto
2437 2752 2786 2378 conicto
3136 2005 3136 1344 conicto
3136 683 2748 309 conicto
2361 -64 1668 -64 conicto
974 -64 583 309 conicto
192 682 192 1341 conicto
192 1427 189 1481 conicto
1665 2112 moveto
1385 2112 1236 1914 conicto
1088 1716 1088 1344 conicto
1088 972 1236 774 conicto
1385 576 1665 576 conicto
1945 576 2092 774 conicto
2240 972 2240 1344 conicto
2240 1716 2092 1914 conicto
1945 2112 1665 2112 conicto
end_ol grestore 
gsave 47.252779 23.020000 translate 0.035278 -0.035278 scale
start_ol
1216 384 moveto
1216 -1024 lineto
384 -1024 lineto
384 2688 lineto
1216 2688 lineto
1216 2304 lineto
1396 2534 1614 2643 conicto
1832 2752 2116 2752 conicto
2619 2752 2941 2358 conicto
3264 1964 3264 1344 conicto
3264 724 2941 330 conicto
2619 -64 2116 -64 conicto
1832 -64 1614 45 conicto
1396 154 1216 384 conicto
1794 2112 moveto
1515 2112 1365 1914 conicto
1216 1716 1216 1344 conicto
1216 972 1365 774 conicto
1515 576 1794 576 conicto
2074 576 2221 772 conicto
2368 969 2368 1344 conicto
2368 1719 2221 1915 conicto
2074 2112 1794 2112 conicto
end_ol grestore 
gsave 47.709846 23.020000 translate 0.035278 -0.035278 scale
start_ol
1585 1216 moveto
1306 1216 1165 1125 conicto
1024 1035 1024 858 conicto
1024 696 1137 604 conicto
1251 512 1453 512 conicto
1704 512 1876 685 conicto
2048 858 2048 1118 conicto
2048 1216 lineto
1585 1216 lineto
2880 1541 moveto
2880 0 lineto
2048 0 lineto
2048 384 lineto
1875 150 1658 43 conicto
1442 -64 1132 -64 conicto
714 -64 453 180 conicto
192 424 192 813 conicto
192 1286 513 1507 conicto
834 1728 1522 1728 conicto
2048 1728 lineto
2048 1800 lineto
2048 1995 1889 2085 conicto
1730 2176 1393 2176 conicto
1120 2176 885 2128 conicto
650 2080 448 1984 conicto
448 2624 lineto
715 2687 984 2719 conicto
1253 2752 1522 2752 conicto
2241 2752 2560 2467 conicto
2880 2182 2880 1541 conicto
end_ol grestore 
gsave 48.141936 23.020000 translate 0.035278 -0.035278 scale
start_ol
64 0 moveto
1255 1596 lineto
128 2688 lineto
1072 2688 lineto
1984 1802 lineto
1984 2688 lineto
2816 2688 lineto
2816 1802 lineto
3728 2688 lineto
4672 2688 lineto
3545 1596 lineto
4736 0 lineto
3861 0 lineto
3033 1099 lineto
2816 890 lineto
2816 0 lineto
1984 0 lineto
1984 890 lineto
1767 1099 lineto
939 0 lineto
64 0 lineto
end_ol grestore 
gsave 48.778838 23.020000 translate 0.035278 -0.035278 scale
start_ol
3072 1388 moveto
3072 1152 lineto
1024 1152 lineto
1056 832 1247 672 conicto
1438 512 1781 512 conicto
2057 512 2347 591 conicto
2638 671 2944 832 conicto
2944 192 lineto
2640 65 2335 0 conicto
2031 -64 1727 -64 conicto
999 -64 595 306 conicto
192 676 192 1344 conicto
192 2000 588 2376 conicto
985 2752 1680 2752 conicto
2312 2752 2692 2380 conicto
3072 2009 3072 1388 conicto
2240 1664 moveto
2240 1894 2085 2035 conicto
1931 2176 1682 2176 conicto
1413 2176 1244 2044 conicto
1075 1912 1034 1664 conicto
2240 1664 lineto
end_ol grestore 
gsave 49.213424 23.020000 translate 0.035278 -0.035278 scale
start_ol
384 2688 moveto
1216 2688 lineto
1216 1664 lineto
2112 1664 lineto
2112 2688 lineto
2944 2688 lineto
2944 0 lineto
2112 0 lineto
2112 1024 lineto
1216 1024 lineto
1216 0 lineto
384 0 lineto
384 2688 lineto
end_ol grestore 
gsave 49.655510 23.020000 translate 0.035278 -0.035278 scale
start_ol
2944 2688 moveto
2944 0 lineto
2112 0 lineto
2112 1430 lineto
1249 0 lineto
384 0 lineto
384 2688 lineto
1216 2688 lineto
1216 1258 lineto
2079 2688 lineto
2944 2688 lineto
end_ol grestore 
gsave 50.102589 23.020000 translate 0.035278 -0.035278 scale
start_ol
3072 1388 moveto
3072 1152 lineto
1024 1152 lineto
1056 832 1247 672 conicto
1438 512 1781 512 conicto
2057 512 2347 591 conicto
2638 671 2944 832 conicto
2944 192 lineto
2640 65 2335 0 conicto
2031 -64 1727 -64 conicto
999 -64 595 306 conicto
192 676 192 1344 conicto
192 2000 588 2376 conicto
985 2752 1680 2752 conicto
2312 2752 2692 2380 conicto
3072 2009 3072 1388 conicto
2240 1664 moveto
2240 1894 2085 2035 conicto
1931 2176 1682 2176 conicto
1413 2176 1244 2044 conicto
1075 1912 1034 1664 conicto
2240 1664 lineto
end_ol grestore 
gsave 50.537176 23.020000 translate 0.035278 -0.035278 scale
start_ol
end_ol grestore 
gsave 50.759467 23.020000 translate 0.035278 -0.035278 scale
start_ol
1216 384 moveto
1216 -1024 lineto
384 -1024 lineto
384 2688 lineto
1216 2688 lineto
1216 2304 lineto
1396 2534 1614 2643 conicto
1832 2752 2116 2752 conicto
2619 2752 2941 2358 conicto
3264 1964 3264 1344 conicto
3264 724 2941 330 conicto
2619 -64 2116 -64 conicto
1832 -64 1614 45 conicto
1396 154 1216 384 conicto
1794 2112 moveto
1515 2112 1365 1914 conicto
1216 1716 1216 1344 conicto
1216 972 1365 774 conicto
1515 576 1794 576 conicto
2074 576 2221 772 conicto
2368 969 2368 1344 conicto
2368 1719 2221 1915 conicto
2074 2112 1794 2112 conicto
end_ol grestore 
gsave 51.216535 23.020000 translate 0.035278 -0.035278 scale
start_ol
3072 1388 moveto
3072 1152 lineto
1024 1152 lineto
1056 832 1247 672 conicto
1438 512 1781 512 conicto
2057 512 2347 591 conicto
2638 671 2944 832 conicto
2944 192 lineto
2640 65 2335 0 conicto
2031 -64 1727 -64 conicto
999 -64 595 306 conicto
192 676 192 1344 conicto
192 2000 588 2376 conicto
985 2752 1680 2752 conicto
2312 2752 2692 2380 conicto
3072 2009 3072 1388 conicto
2240 1664 moveto
2240 1894 2085 2035 conicto
1931 2176 1682 2176 conicto
1413 2176 1244 2044 conicto
1075 1912 1034 1664 conicto
2240 1664 lineto
end_ol grestore 
gsave 51.651121 23.020000 translate 0.035278 -0.035278 scale
start_ol
704 1664 moveto
1106 1664 lineto
1466 1664 1597 1741 conicto
1728 1819 1728 1926 conicto
1728 2176 1156 2176 conicto
679 2176 384 1984 conicto
384 2624 lineto
820 2752 1336 2752 conicto
1940 2752 2218 2581 conicto
2496 2410 2496 2048 conicto
2496 1574 1976 1452 conicto
2560 1306 2560 767 conicto
2560 353 2233 144 conicto
1907 -64 1209 -64 conicto
688 -64 256 128 conicto
256 768 lineto
799 512 1121 512 conicto
1475 512 1633 587 conicto
1792 663 1792 758 conicto
1792 1024 1089 1024 conicto
704 1024 lineto
704 1664 lineto
end_ol grestore 
gsave 52.023266 23.020000 translate 0.035278 -0.035278 scale
start_ol
64 2688 moveto
910 2688 lineto
1621 864 lineto
2226 2688 lineto
3072 2688 lineto
1959 -209 lineto
1791 -663 1567 -843 conicto
1344 -1024 978 -1024 conicto
489 -1024 lineto
489 -448 lineto
754 -448 lineto
969 -448 1067 -385 conicto
1165 -322 1219 -160 conicto
1243 -86 lineto
64 2688 lineto
end_ol grestore 
gsave 52.440373 23.020000 translate 0.035278 -0.035278 scale
start_ol
256 0 moveto
256 640 lineto
669 725 762 1003 conicto
832 1214 832 2254 conicto
832 2688 lineto
3136 2688 lineto
3136 0 lineto
2304 0 lineto
2304 2048 lineto
1664 2048 lineto
1664 1960 lineto
1664 920 1503 616 conicto
1178 0 256 0 conicto
end_ol grestore 
gsave 52.909934 23.020000 translate 0.035278 -0.035278 scale
start_ol
1984 834 moveto
1984 930 1894 978 conicto
1806 1024 1625 1024 conicto
1216 1024 lineto
1216 640 lineto
1625 640 lineto
1803 640 1894 689 conicto
1984 737 1984 834 conicto
384 2688 moveto
1216 2688 lineto
1216 1664 lineto
1697 1664 lineto
2235 1664 2524 1465 conicto
2816 1264 2816 828 conicto
2816 393 2526 196 conicto
2239 0 1705 0 conicto
384 0 lineto
384 2688 lineto
end_ol grestore 
gsave 53.314548 23.020000 translate 0.035278 -0.035278 scale
start_ol
0 2688 moveto
2752 2688 lineto
2752 2048 lineto
1792 2048 lineto
1792 0 lineto
960 0 lineto
960 2048 lineto
0 2048 lineto
0 2688 lineto
end_ol grestore 
gsave 53.684196 23.020000 translate 0.035278 -0.035278 scale
start_ol
1585 1216 moveto
1306 1216 1165 1125 conicto
1024 1035 1024 858 conicto
1024 696 1137 604 conicto
1251 512 1453 512 conicto
1704 512 1876 685 conicto
2048 858 2048 1118 conicto
2048 1216 lineto
1585 1216 lineto
2880 1541 moveto
2880 0 lineto
2048 0 lineto
2048 384 lineto
1875 150 1658 43 conicto
1442 -64 1132 -64 conicto
714 -64 453 180 conicto
192 424 192 813 conicto
192 1286 513 1507 conicto
834 1728 1522 1728 conicto
2048 1728 lineto
2048 1800 lineto
2048 1995 1889 2085 conicto
1730 2176 1393 2176 conicto
1120 2176 885 2128 conicto
650 2080 448 1984 conicto
448 2624 lineto
715 2687 984 2719 conicto
1253 2752 1522 2752 conicto
2241 2752 2560 2467 conicto
2880 2182 2880 1541 conicto
end_ol grestore 
gsave 54.116285 23.020000 translate 0.035278 -0.035278 scale
start_ol
0 2688 moveto
2752 2688 lineto
2752 2048 lineto
1792 2048 lineto
1792 0 lineto
960 0 lineto
960 2048 lineto
0 2048 lineto
0 2688 lineto
end_ol grestore 
gsave 54.485933 23.020000 translate 0.035278 -0.035278 scale
start_ol
1585 1216 moveto
1306 1216 1165 1125 conicto
1024 1035 1024 858 conicto
1024 696 1137 604 conicto
1251 512 1453 512 conicto
1704 512 1876 685 conicto
2048 858 2048 1118 conicto
2048 1216 lineto
1585 1216 lineto
2880 1541 moveto
2880 0 lineto
2048 0 lineto
2048 384 lineto
1875 150 1658 43 conicto
1442 -64 1132 -64 conicto
714 -64 453 180 conicto
192 424 192 813 conicto
192 1286 513 1507 conicto
834 1728 1522 1728 conicto
2048 1728 lineto
2048 1800 lineto
2048 1995 1889 2085 conicto
1730 2176 1393 2176 conicto
1120 2176 885 2128 conicto
650 2080 448 1984 conicto
448 2624 lineto
715 2687 984 2719 conicto
1253 2752 1522 2752 conicto
2241 2752 2560 2467 conicto
2880 2182 2880 1541 conicto
end_ol grestore 
gsave 48.230725 23.820000 translate 0.035278 -0.035278 scale
start_ol
1668 2112 moveto
1385 2112 1236 1914 conicto
1088 1716 1088 1344 conicto
1088 972 1236 774 conicto
1385 576 1668 576 conicto
1945 576 2092 774 conicto
2240 972 2240 1344 conicto
2240 1716 2092 1914 conicto
1945 2112 1668 2112 conicto
1668 2752 moveto
2359 2752 2747 2378 conicto
3136 2005 3136 1344 conicto
3136 683 2747 309 conicto
2359 -64 1668 -64 conicto
974 -64 583 309 conicto
192 683 192 1344 conicto
192 2005 583 2378 conicto
974 2752 1668 2752 conicto
end_ol grestore 
gsave 48.670314 23.820000 translate 0.035278 -0.035278 scale
start_ol
189 1481 moveto
170 1858 lineto
128 2009 128 2160 conicto
128 2602 266 2891 conicto
520 3423 860 3532 conicto
1140 3624 2306 3712 conicto
2425 3721 2560 3743 conicto
2752 3203 lineto
2594 3155 1784 3072 conicto
1429 3044 1284 2956 conicto
1043 2809 1024 2534 conicto
1340 2752 1815 2752 conicto
2437 2752 2786 2378 conicto
3136 2005 3136 1344 conicto
3136 683 2748 309 conicto
2361 -64 1668 -64 conicto
974 -64 583 309 conicto
192 682 192 1341 conicto
192 1427 189 1481 conicto
1665 2112 moveto
1385 2112 1236 1914 conicto
1088 1716 1088 1344 conicto
1088 972 1236 774 conicto
1385 576 1665 576 conicto
1945 576 2092 774 conicto
2240 972 2240 1344 conicto
2240 1716 2092 1914 conicto
1945 2112 1665 2112 conicto
end_ol grestore 
gsave 49.117393 23.820000 translate 0.035278 -0.035278 scale
start_ol
1216 384 moveto
1216 -1024 lineto
384 -1024 lineto
384 2688 lineto
1216 2688 lineto
1216 2304 lineto
1396 2534 1614 2643 conicto
1832 2752 2116 2752 conicto
2619 2752 2941 2358 conicto
3264 1964 3264 1344 conicto
3264 724 2941 330 conicto
2619 -64 2116 -64 conicto
1832 -64 1614 45 conicto
1396 154 1216 384 conicto
1794 2112 moveto
1515 2112 1365 1914 conicto
1216 1716 1216 1344 conicto
1216 972 1365 774 conicto
1515 576 1794 576 conicto
2074 576 2221 772 conicto
2368 969 2368 1344 conicto
2368 1719 2221 1915 conicto
2074 2112 1794 2112 conicto
end_ol grestore 
gsave 49.574461 23.820000 translate 0.035278 -0.035278 scale
start_ol
1585 1216 moveto
1306 1216 1165 1125 conicto
1024 1035 1024 858 conicto
1024 696 1137 604 conicto
1251 512 1453 512 conicto
1704 512 1876 685 conicto
2048 858 2048 1118 conicto
2048 1216 lineto
1585 1216 lineto
2880 1541 moveto
2880 0 lineto
2048 0 lineto
2048 384 lineto
1875 150 1658 43 conicto
1442 -64 1132 -64 conicto
714 -64 453 180 conicto
192 424 192 813 conicto
192 1286 513 1507 conicto
834 1728 1522 1728 conicto
2048 1728 lineto
2048 1800 lineto
2048 1995 1889 2085 conicto
1730 2176 1393 2176 conicto
1120 2176 885 2128 conicto
650 2080 448 1984 conicto
448 2624 lineto
715 2687 984 2719 conicto
1253 2752 1522 2752 conicto
2241 2752 2560 2467 conicto
2880 2182 2880 1541 conicto
end_ol grestore 
gsave 50.006550 23.820000 translate 0.035278 -0.035278 scale
start_ol
189 1481 moveto
170 1858 lineto
128 2009 128 2160 conicto
128 2602 266 2891 conicto
520 3423 860 3532 conicto
1140 3624 2306 3712 conicto
2425 3721 2560 3743 conicto
2752 3203 lineto
2594 3155 1784 3072 conicto
1429 3044 1284 2956 conicto
1043 2809 1024 2534 conicto
1340 2752 1815 2752 conicto
2437 2752 2786 2378 conicto
3136 2005 3136 1344 conicto
3136 683 2748 309 conicto
2361 -64 1668 -64 conicto
974 -64 583 309 conicto
192 682 192 1341 conicto
192 1427 189 1481 conicto
1665 2112 moveto
1385 2112 1236 1914 conicto
1088 1716 1088 1344 conicto
1088 972 1236 774 conicto
1385 576 1665 576 conicto
1945 576 2092 774 conicto
2240 972 2240 1344 conicto
2240 1716 2092 1914 conicto
1945 2112 1665 2112 conicto
end_ol grestore 
gsave 50.453630 23.820000 translate 0.035278 -0.035278 scale
start_ol
1668 2112 moveto
1385 2112 1236 1914 conicto
1088 1716 1088 1344 conicto
1088 972 1236 774 conicto
1385 576 1668 576 conicto
1945 576 2092 774 conicto
2240 972 2240 1344 conicto
2240 1716 2092 1914 conicto
1945 2112 1668 2112 conicto
1668 2752 moveto
2359 2752 2747 2378 conicto
3136 2005 3136 1344 conicto
3136 683 2747 309 conicto
2359 -64 1668 -64 conicto
974 -64 583 309 conicto
192 683 192 1344 conicto
192 2005 583 2378 conicto
974 2752 1668 2752 conicto
end_ol grestore 
gsave 50.893219 23.820000 translate 0.035278 -0.035278 scale
start_ol
0 2688 moveto
2752 2688 lineto
2752 2048 lineto
1792 2048 lineto
1792 0 lineto
960 0 lineto
960 2048 lineto
0 2048 lineto
0 2688 lineto
end_ol grestore 
gsave 51.262867 23.820000 translate 0.035278 -0.035278 scale
start_ol
384 2688 moveto
1216 2688 lineto
1216 1778 lineto
2184 2688 lineto
3136 2688 lineto
1976 1596 lineto
3200 0 lineto
2317 0 lineto
1461 1111 lineto
1216 881 lineto
1216 0 lineto
384 0 lineto
384 2688 lineto
end_ol grestore 
gsave 51.697453 23.820000 translate 0.035278 -0.035278 scale
start_ol
2944 2688 moveto
2944 0 lineto
2112 0 lineto
2112 1430 lineto
1249 0 lineto
384 0 lineto
384 2688 lineto
1216 2688 lineto
1216 1258 lineto
2079 2688 lineto
2944 2688 lineto
end_ol grestore 
gsave 55.412600 24.620000 translate 0.035278 -0.035278 scale
start_ol
1951 448 moveto
867 448 lineto
696 0 lineto
0 0 lineto
995 2688 lineto
1821 2688 lineto
2816 0 lineto
2120 0 lineto
1951 448 lineto
1040 960 moveto
1776 960 lineto
1409 2047 lineto
1040 960 lineto
end_ol grestore 
gsave 55.784745 24.620000 translate 0.035278 -0.035278 scale
start_ol
1664 1350 moveto
1664 1875 1576 2089 conicto
1488 2304 1281 2304 conicto
1073 2304 984 2089 conicto
896 1875 896 1350 conicto
896 819 984 601 conicto
1073 384 1281 384 conicto
1487 384 1575 601 conicto
1664 819 1664 1350 conicto
2368 1343 moveto
2368 669 2084 302 conicto
1801 -64 1281 -64 conicto
759 -64 475 302 conicto
192 669 192 1343 conicto
192 2019 475 2385 conicto
759 2752 1281 2752 conicto
1801 2752 2084 2385 conicto
2368 2019 2368 1343 conicto
end_ol grestore 
0.100000 slw
[] 0 sd
0 slc
0.450000 0.450000 0.450000 srgb
n 44.903653 18.796447 0.353553 0.353553 90.000000 180.000000 ellipse s
n 44.550100 18.150000 m 44.550100 18.796447 l s
n 50.828237 19.733363 0.583363 0.583363 270.000000 0.000000 ellipse s
n 44.903653 19.150000 m 50.828237 19.150000 l s
n 51.411600 19.733363 m 51.411600 20.800000 l s
0 slj
n 51.011600 20.800000 m 51.411600 21.600000 l 51.811600 20.800000 l ef
0.100000 slw
[] 0 sd
0 slj
n 51.011600 20.800000 m 51.411600 21.600000 l 51.811600 20.800000 l cp s
showpage
