%!PS-Adobe-2.0 EPSF-2.0
%%Title: /home/nikita/Documents/University/Kursovaya/Gusche/sequence.dia
%%Creator: Dia v0.97.2
%%CreationDate: Tue May  6 00:27:53 2014
%%For: nikita
%%Orientation: Portrait
%%Magnification: 1.0000
%%BoundingBox: 0 0 741 391
%%BeginSetup
%%EndSetup
%%EndComments
%%BeginProlog
[ /.notdef /.notdef /.notdef /.notdef /.notdef /.notdef /.notdef /.notdef /.notdef /.notdef
/.notdef /.notdef /.notdef /.notdef /.notdef /.notdef /.notdef /.notdef /.notdef /.notdef
/.notdef /.notdef /.notdef /.notdef /.notdef /.notdef /.notdef /.notdef /.notdef /.notdef
/.notdef /.notdef /space /exclam /quotedbl /numbersign /dollar /percent /ampersand /quoteright
/parenleft /parenright /asterisk /plus /comma /hyphen /period /slash /zero /one
/two /three /four /five /six /seven /eight /nine /colon /semicolon
/less /equal /greater /question /at /A /B /C /D /E
/F /G /H /I /J /K /L /M /N /O
/P /Q /R /S /T /U /V /W /X /Y
/Z /bracketleft /backslash /bracketright /asciicircum /underscore /quoteleft /a /b /c
/d /e /f /g /h /i /j /k /l /m
/n /o /p /q /r /s /t /u /v /w
/x /y /z /braceleft /bar /braceright /asciitilde /.notdef /.notdef /.notdef
/.notdef /.notdef /.notdef /.notdef /.notdef /.notdef /.notdef /.notdef /.notdef /.notdef
/.notdef /.notdef /.notdef /.notdef /.notdef /.notdef /.notdef /.notdef /.notdef /.notdef
/.notdef /.notdef /.notdef /.notdef /.notdef /.notdef /.notdef /.notdef /.notdef /.notdef
/space /exclamdown /cent /sterling /currency /yen /brokenbar /section /dieresis /copyright
/ordfeminine /guillemotleft /logicalnot /hyphen /registered /macron /degree /plusminus /twosuperior /threesuperior
/acute /mu /paragraph /periodcentered /cedilla /onesuperior /ordmasculine /guillemotright /onequarter /onehalf
/threequarters /questiondown /Agrave /Aacute /Acircumflex /Atilde /Adieresis /Aring /AE /Ccedilla
/Egrave /Eacute /Ecircumflex /Edieresis /Igrave /Iacute /Icircumflex /Idieresis /Eth /Ntilde
/Ograve /Oacute /Ocircumflex /Otilde /Odieresis /multiply /Oslash /Ugrave /Uacute /Ucircumflex
/Udieresis /Yacute /Thorn /germandbls /agrave /aacute /acircumflex /atilde /adieresis /aring
/ae /ccedilla /egrave /eacute /ecircumflex /edieresis /igrave /iacute /icircumflex /idieresis
/eth /ntilde /ograve /oacute /ocircumflex /otilde /odieresis /divide /oslash /ugrave
/uacute /ucircumflex /udieresis /yacute /thorn /ydieresis] /isolatin1encoding exch def
/cp {closepath} bind def
/c {curveto} bind def
/f {fill} bind def
/a {arc} bind def
/ef {eofill} bind def
/ex {exch} bind def
/gr {grestore} bind def
/gs {gsave} bind def
/sa {save} bind def
/rs {restore} bind def
/l {lineto} bind def
/m {moveto} bind def
/rm {rmoveto} bind def
/n {newpath} bind def
/s {stroke} bind def
/sh {show} bind def
/slc {setlinecap} bind def
/slj {setlinejoin} bind def
/slw {setlinewidth} bind def
/srgb {setrgbcolor} bind def
/rot {rotate} bind def
/sc {scale} bind def
/sd {setdash} bind def
/ff {findfont} bind def
/sf {setfont} bind def
/scf {scalefont} bind def
/sw {stringwidth pop} bind def
/tr {translate} bind def

/ellipsedict 8 dict def
ellipsedict /mtrx matrix put
/ellipse
{ ellipsedict begin
   /endangle exch def
   /startangle exch def
   /yrad exch def
   /xrad exch def
   /y exch def
   /x exch def   /savematrix mtrx currentmatrix def
   x y tr xrad yrad sc
   0 0 1 startangle endangle arc
   savematrix setmatrix
   end
} def

/mergeprocs {
dup length
3 -1 roll
dup
length
dup
5 1 roll
3 -1 roll
add
array cvx
dup
3 -1 roll
0 exch
putinterval
dup
4 2 roll
putinterval
} bind def
/dpi_x 300 def
/dpi_y 300 def
/conicto {
    /to_y exch def
    /to_x exch def
    /conic_cntrl_y exch def
    /conic_cntrl_x exch def
    currentpoint
    /p0_y exch def
    /p0_x exch def
    /p1_x p0_x conic_cntrl_x p0_x sub 2 3 div mul add def
    /p1_y p0_y conic_cntrl_y p0_y sub 2 3 div mul add def
    /p2_x p1_x to_x p0_x sub 1 3 div mul add def
    /p2_y p1_y to_y p0_y sub 1 3 div mul add def
    p1_x p1_y p2_x p2_y to_x to_y curveto
} bind def
/start_ol { gsave 1.1 dpi_x div dup scale} bind def
/end_ol { closepath fill grestore } bind def
28.346000 -28.346000 scale
-10.050000 -16.925000 translate
%%EndProlog


0.100000 slw
[] 0 sd
1.000000 1.000000 1.000000 srgb
n 14.400000 3.200000 m 14.400000 5.000000 l 19.577500 5.000000 l 19.577500 3.200000 l f
0.000000 0.000000 0.000000 srgb
n 14.400000 3.200000 m 14.400000 5.000000 l 19.577500 5.000000 l 19.577500 3.200000 l cp s
gsave 14.900000 4.295000 translate 0.035278 -0.035278 scale
start_ol
960 1728 moveto
960 384 lineto
1696 384 lineto
2071 384 2251 550 conicto
2432 716 2432 1057 conicto
2432 1401 2251 1564 conicto
2071 1728 1696 1728 conicto
960 1728 lineto
960 3136 moveto
960 2112 lineto
1639 2112 lineto
1975 2112 2139 2238 conicto
2304 2365 2304 2624 conicto
2304 2881 2139 3008 conicto
1975 3136 1639 3136 conicto
960 3136 lineto
448 3520 moveto
1673 3520 lineto
2222 3520 2519 3300 conicto
2816 3080 2816 2674 conicto
2816 2360 2658 2174 conicto
2500 1989 2193 1943 conicto
2549 1866 2746 1621 conicto
2944 1376 2944 1009 conicto
2944 526 2625 263 conicto
2306 0 1718 0 conicto
448 0 lineto
448 3520 lineto
end_ol grestore 
gsave 15.339589 4.295000 translate 0.035278 -0.035278 scale
start_ol
2752 1480 moveto
2752 1280 lineto
704 1280 lineto
733 811 978 565 conicto
1223 320 1660 320 conicto
1914 320 2152 384 conicto
2390 448 2624 576 conicto
2624 192 lineto
2388 67 2140 1 conicto
1893 -64 1639 -64 conicto
1001 -64 628 309 conicto
256 683 256 1320 conicto
256 1979 613 2365 conicto
970 2752 1576 2752 conicto
2120 2752 2436 2410 conicto
2752 2068 2752 1480 conicto
2304 1600 moveto
2299 1950 2099 2159 conicto
1900 2368 1572 2368 conicto
1200 2368 976 2166 conicto
753 1964 719 1597 conicto
2304 1600 lineto
end_ol grestore 
gsave 15.734215 4.295000 translate 0.035278 -0.035278 scale
start_ol
1465 2752 moveto
2036 2752 2362 2378 conicto
2688 2005 2688 1344 conicto
2688 685 2364 310 conicto
2040 -64 1472 -64 conicto
902 -64 587 299 conicto
273 662 256 1341 conicto
242 1876 lineto
230 2155 230 2251 conicto
230 2625 367 2901 conicto
582 3333 954 3520 conicto
1327 3707 1952 3712 conicto
2240 3714 2368 3755 conicto
2496 3437 lineto
2379 3394 2271 3392 conicto
1674 3352 lineto
1373 3331 1192 3228 conicto
716 2955 671 2597 conicto
654 2466 lineto
963 2752 1465 2752 conicto
1473 2368 moveto
1117 2368 910 2094 conicto
704 1820 704 1344 conicto
704 868 909 594 conicto
1115 320 1473 320 conicto
1827 320 2033 595 conicto
2240 870 2240 1344 conicto
2240 1816 2033 2092 conicto
1827 2368 1473 2368 conicto
end_ol grestore 
gsave 16.128841 4.295000 translate 0.035278 -0.035278 scale
start_ol
256 1536 moveto
1536 1536 lineto
1536 1152 lineto
256 1152 lineto
256 1536 lineto
end_ol grestore 
gsave 16.358623 4.295000 translate 0.035278 -0.035278 scale
start_ol
1465 2752 moveto
2036 2752 2362 2378 conicto
2688 2005 2688 1344 conicto
2688 685 2364 310 conicto
2040 -64 1472 -64 conicto
902 -64 587 299 conicto
273 662 256 1341 conicto
242 1876 lineto
230 2155 230 2251 conicto
230 2625 367 2901 conicto
582 3333 954 3520 conicto
1327 3707 1952 3712 conicto
2240 3714 2368 3755 conicto
2496 3437 lineto
2379 3394 2271 3392 conicto
1674 3352 lineto
1373 3331 1192 3228 conicto
716 2955 671 2597 conicto
654 2466 lineto
963 2752 1465 2752 conicto
1473 2368 moveto
1117 2368 910 2094 conicto
704 1820 704 1344 conicto
704 868 909 594 conicto
1115 320 1473 320 conicto
1827 320 2033 595 conicto
2240 870 2240 1344 conicto
2240 1816 2033 2092 conicto
1827 2368 1473 2368 conicto
end_ol grestore 
gsave 16.753249 4.295000 translate 0.035278 -0.035278 scale
start_ol
896 384 moveto
896 -1024 lineto
448 -1024 lineto
448 2688 lineto
896 2688 lineto
896 2304 lineto
1032 2531 1240 2641 conicto
1448 2752 1737 2752 conicto
2217 2752 2516 2364 conicto
2816 1976 2816 1344 conicto
2816 712 2516 324 conicto
2217 -64 1737 -64 conicto
1448 -64 1240 46 conicto
1032 157 896 384 conicto
2368 1344 moveto
2368 1823 2171 2095 conicto
1975 2368 1632 2368 conicto
1289 2368 1092 2095 conicto
896 1823 896 1344 conicto
896 865 1092 592 conicto
1289 320 1632 320 conicto
1975 320 2171 592 conicto
2368 865 2368 1344 conicto
end_ol grestore 
gsave 17.160368 4.295000 translate 0.035278 -0.035278 scale
start_ol
1622 1344 moveto
1104 1344 904 1225 conicto
704 1106 704 818 conicto
704 589 854 454 conicto
1004 320 1262 320 conicto
1618 320 1833 572 conicto
2048 825 2048 1244 conicto
2048 1344 lineto
1622 1344 lineto
2496 1513 moveto
2496 0 lineto
2048 0 lineto
2048 384 lineto
1900 154 1679 45 conicto
1458 -64 1138 -64 conicto
733 -64 494 162 conicto
256 389 256 769 conicto
256 1213 555 1438 conicto
854 1664 1448 1664 conicto
2048 1664 lineto
2048 1712 lineto
2048 2025 1851 2196 conicto
1655 2368 1300 2368 conicto
1074 2368 860 2320 conicto
646 2272 448 2176 conicto
448 2560 lineto
687 2656 912 2704 conicto
1138 2752 1351 2752 conicto
1927 2752 2211 2444 conicto
2496 2137 2496 1513 conicto
end_ol grestore 
gsave 17.552498 4.295000 translate 0.035278 -0.035278 scale
start_ol
1542 -238 moveto
1360 -726 1187 -875 conicto
1015 -1024 726 -1024 conicto
384 -1024 lineto
384 -640 lineto
636 -640 lineto
813 -640 910 -555 conicto
1008 -470 1127 -155 conicto
1204 46 lineto
128 2688 lineto
603 2688 lineto
1418 586 lineto
2234 2688 lineto
2688 2688 lineto
1542 -238 lineto
end_ol grestore 
gsave 17.932142 4.295000 translate 0.035278 -0.035278 scale
start_ol
1689 1450 moveto
1983 1393 2143 1218 conicto
2304 1044 2304 785 conicto
2304 371 1997 153 conicto
1691 -64 1125 -64 conicto
935 -64 734 -16 conicto
534 32 320 128 conicto
320 512 lineto
487 416 686 368 conicto
886 320 1104 320 conicto
1459 320 1657 455 conicto
1856 591 1856 808 conicto
1856 1021 1679 1150 conicto
1503 1280 1180 1280 conicto
832 1280 lineto
832 1600 lineto
1199 1600 lineto
1473 1600 1632 1708 conicto
1792 1817 1792 1988 conicto
1792 2144 1625 2256 conicto
1459 2368 1173 2368 conicto
1003 2368 810 2337 conicto
617 2307 384 2240 conicto
384 2624 lineto
621 2688 827 2720 conicto
1033 2752 1216 2752 conicto
1691 2752 1965 2564 conicto
2240 2376 2240 2039 conicto
2240 1817 2097 1662 conicto
1955 1508 1689 1450 conicto
end_ol grestore 
gsave 18.271817 4.295000 translate 0.035278 -0.035278 scale
start_ol
2752 1480 moveto
2752 1280 lineto
704 1280 lineto
733 811 978 565 conicto
1223 320 1660 320 conicto
1914 320 2152 384 conicto
2390 448 2624 576 conicto
2624 192 lineto
2388 67 2140 1 conicto
1893 -64 1639 -64 conicto
1001 -64 628 309 conicto
256 683 256 1320 conicto
256 1979 613 2365 conicto
970 2752 1576 2752 conicto
2120 2752 2436 2410 conicto
2752 2068 2752 1480 conicto
2304 1600 moveto
2299 1950 2099 2159 conicto
1900 2368 1572 2368 conicto
1200 2368 976 2166 conicto
753 1964 719 1597 conicto
2304 1600 lineto
end_ol grestore 
gsave 18.666443 4.295000 translate 0.035278 -0.035278 scale
start_ol
896 384 moveto
896 -1024 lineto
448 -1024 lineto
448 2688 lineto
896 2688 lineto
896 2304 lineto
1032 2531 1240 2641 conicto
1448 2752 1737 2752 conicto
2217 2752 2516 2364 conicto
2816 1976 2816 1344 conicto
2816 712 2516 324 conicto
2217 -64 1737 -64 conicto
1448 -64 1240 46 conicto
1032 157 896 384 conicto
2368 1344 moveto
2368 1823 2171 2095 conicto
1975 2368 1632 2368 conicto
1289 2368 1092 2095 conicto
896 1823 896 1344 conicto
896 865 1092 592 conicto
1289 320 1632 320 conicto
1975 320 2171 592 conicto
2368 865 2368 1344 conicto
end_ol grestore 
0.050000 slw
n 14.900000 4.445000 m 19.077500 4.445000 l s
0.100000 slw
[] 0 sd
1.000000 1.000000 1.000000 srgb
n 21.850000 3.300000 m 21.850000 5.100000 l 28.552500 5.100000 l 28.552500 3.300000 l f
0.000000 0.000000 0.000000 srgb
n 21.850000 3.300000 m 21.850000 5.100000 l 28.552500 5.100000 l 28.552500 3.300000 l cp s
gsave 22.350000 4.395000 translate 0.035278 -0.035278 scale
start_ol
960 1728 moveto
960 384 lineto
1696 384 lineto
2071 384 2251 550 conicto
2432 716 2432 1057 conicto
2432 1401 2251 1564 conicto
2071 1728 1696 1728 conicto
960 1728 lineto
960 3136 moveto
960 2112 lineto
1639 2112 lineto
1975 2112 2139 2238 conicto
2304 2365 2304 2624 conicto
2304 2881 2139 3008 conicto
1975 3136 1639 3136 conicto
960 3136 lineto
448 3520 moveto
1673 3520 lineto
2222 3520 2519 3300 conicto
2816 3080 2816 2674 conicto
2816 2360 2658 2174 conicto
2500 1989 2193 1943 conicto
2549 1866 2746 1621 conicto
2944 1376 2944 1009 conicto
2944 526 2625 263 conicto
2306 0 1718 0 conicto
448 0 lineto
448 3520 lineto
end_ol grestore 
gsave 22.789589 4.395000 translate 0.035278 -0.035278 scale
start_ol
2752 1480 moveto
2752 1280 lineto
704 1280 lineto
733 811 978 565 conicto
1223 320 1660 320 conicto
1914 320 2152 384 conicto
2390 448 2624 576 conicto
2624 192 lineto
2388 67 2140 1 conicto
1893 -64 1639 -64 conicto
1001 -64 628 309 conicto
256 683 256 1320 conicto
256 1979 613 2365 conicto
970 2752 1576 2752 conicto
2120 2752 2436 2410 conicto
2752 2068 2752 1480 conicto
2304 1600 moveto
2299 1950 2099 2159 conicto
1900 2368 1572 2368 conicto
1200 2368 976 2166 conicto
753 1964 719 1597 conicto
2304 1600 lineto
end_ol grestore 
gsave 23.184215 4.395000 translate 0.035278 -0.035278 scale
start_ol
1465 2752 moveto
2036 2752 2362 2378 conicto
2688 2005 2688 1344 conicto
2688 685 2364 310 conicto
2040 -64 1472 -64 conicto
902 -64 587 299 conicto
273 662 256 1341 conicto
242 1876 lineto
230 2155 230 2251 conicto
230 2625 367 2901 conicto
582 3333 954 3520 conicto
1327 3707 1952 3712 conicto
2240 3714 2368 3755 conicto
2496 3437 lineto
2379 3394 2271 3392 conicto
1674 3352 lineto
1373 3331 1192 3228 conicto
716 2955 671 2597 conicto
654 2466 lineto
963 2752 1465 2752 conicto
1473 2368 moveto
1117 2368 910 2094 conicto
704 1820 704 1344 conicto
704 868 909 594 conicto
1115 320 1473 320 conicto
1827 320 2033 595 conicto
2240 870 2240 1344 conicto
2240 1816 2033 2092 conicto
1827 2368 1473 2368 conicto
end_ol grestore 
gsave 23.578841 4.395000 translate 0.035278 -0.035278 scale
start_ol
256 1536 moveto
1536 1536 lineto
1536 1152 lineto
256 1152 lineto
256 1536 lineto
end_ol grestore 
gsave 23.808623 4.395000 translate 0.035278 -0.035278 scale
start_ol
2752 2688 moveto
2752 0 lineto
2304 0 lineto
2304 2368 lineto
896 2368 lineto
896 0 lineto
448 0 lineto
448 2688 lineto
2752 2688 lineto
end_ol grestore 
gsave 24.225730 4.395000 translate 0.035278 -0.035278 scale
start_ol
896 384 moveto
896 -1024 lineto
448 -1024 lineto
448 2688 lineto
896 2688 lineto
896 2304 lineto
1032 2531 1240 2641 conicto
1448 2752 1737 2752 conicto
2217 2752 2516 2364 conicto
2816 1976 2816 1344 conicto
2816 712 2516 324 conicto
2217 -64 1737 -64 conicto
1448 -64 1240 46 conicto
1032 157 896 384 conicto
2368 1344 moveto
2368 1823 2171 2095 conicto
1975 2368 1632 2368 conicto
1289 2368 1092 2095 conicto
896 1823 896 1344 conicto
896 865 1092 592 conicto
1289 320 1632 320 conicto
1975 320 2171 592 conicto
2368 865 2368 1344 conicto
end_ol grestore 
gsave 24.632850 4.395000 translate 0.035278 -0.035278 scale
start_ol
2752 2688 moveto
2752 0 lineto
2304 0 lineto
2304 2158 lineto
1022 0 lineto
448 0 lineto
448 2688 lineto
896 2688 lineto
896 535 lineto
2176 2688 lineto
2752 2688 lineto
end_ol grestore 
gsave 25.047460 4.395000 translate 0.035278 -0.035278 scale
start_ol
192 0 moveto
192 320 lineto
611 389 740 697 conicto
896 1131 896 2240 conicto
896 2688 lineto
2688 2688 lineto
2688 0 lineto
2240 0 lineto
2240 2368 lineto
1344 2368 lineto
1344 2098 lineto
1344 1046 1137 574 conicto
916 71 192 0 conicto
end_ol grestore 
gsave 25.457076 4.395000 translate 0.035278 -0.035278 scale
start_ol
1473 2368 moveto
1117 2368 910 2094 conicto
704 1820 704 1344 conicto
704 868 909 594 conicto
1115 320 1473 320 conicto
1827 320 2033 595 conicto
2240 870 2240 1344 conicto
2240 1816 2033 2092 conicto
1827 2368 1473 2368 conicto
1472 2752 moveto
2040 2752 2364 2378 conicto
2688 2005 2688 1344 conicto
2688 685 2364 310 conicto
2040 -64 1472 -64 conicto
902 -64 579 310 conicto
256 685 256 1344 conicto
256 2005 579 2378 conicto
902 2752 1472 2752 conicto
end_ol grestore 
gsave 25.849206 4.395000 translate 0.035278 -0.035278 scale
start_ol
1984 2688 moveto
2432 2688 lineto
2432 1426 lineto
3589 2688 lineto
4096 2688 lineto
3144 1654 lineto
4224 0 lineto
3761 0 lineto
2875 1358 lineto
2432 876 lineto
2432 0 lineto
1984 0 lineto
1984 876 lineto
1541 1358 lineto
655 0 lineto
192 0 lineto
1272 1654 lineto
320 2688 lineto
827 2688 lineto
1984 1426 lineto
1984 2688 lineto
end_ol grestore 
gsave 26.426163 4.395000 translate 0.035278 -0.035278 scale
start_ol
2752 1480 moveto
2752 1280 lineto
704 1280 lineto
733 811 978 565 conicto
1223 320 1660 320 conicto
1914 320 2152 384 conicto
2390 448 2624 576 conicto
2624 192 lineto
2388 67 2140 1 conicto
1893 -64 1639 -64 conicto
1001 -64 628 309 conicto
256 683 256 1320 conicto
256 1979 613 2365 conicto
970 2752 1576 2752 conicto
2120 2752 2436 2410 conicto
2752 2068 2752 1480 conicto
2304 1600 moveto
2299 1950 2099 2159 conicto
1900 2368 1572 2368 conicto
1200 2368 976 2166 conicto
753 1964 719 1597 conicto
2304 1600 lineto
end_ol grestore 
gsave 26.820789 4.395000 translate 0.035278 -0.035278 scale
start_ol
448 2688 moveto
896 2688 lineto
896 1600 lineto
2304 1600 lineto
2304 2688 lineto
2752 2688 lineto
2752 0 lineto
2304 0 lineto
2304 1280 lineto
896 1280 lineto
896 0 lineto
448 0 lineto
448 2688 lineto
end_ol grestore 
gsave 27.237896 4.395000 translate 0.035278 -0.035278 scale
start_ol
2752 2688 moveto
2752 0 lineto
2304 0 lineto
2304 2158 lineto
1022 0 lineto
448 0 lineto
448 2688 lineto
896 2688 lineto
896 535 lineto
2176 2688 lineto
2752 2688 lineto
end_ol grestore 
gsave 27.652506 4.395000 translate 0.035278 -0.035278 scale
start_ol
2752 1480 moveto
2752 1280 lineto
704 1280 lineto
733 811 978 565 conicto
1223 320 1660 320 conicto
1914 320 2152 384 conicto
2390 448 2624 576 conicto
2624 192 lineto
2388 67 2140 1 conicto
1893 -64 1639 -64 conicto
1001 -64 628 309 conicto
256 683 256 1320 conicto
256 1979 613 2365 conicto
970 2752 1576 2752 conicto
2120 2752 2436 2410 conicto
2752 2068 2752 1480 conicto
2304 1600 moveto
2299 1950 2099 2159 conicto
1900 2368 1572 2368 conicto
1200 2368 976 2166 conicto
753 1964 719 1597 conicto
2304 1600 lineto
end_ol grestore 
0.050000 slw
n 22.350000 4.545000 m 28.052500 4.545000 l s
0.100000 slw
[] 0 sd
1.000000 1.000000 1.000000 srgb
n 30.800000 3.300000 m 30.800000 5.100000 l 36.117500 5.100000 l 36.117500 3.300000 l f
0.000000 0.000000 0.000000 srgb
n 30.800000 3.300000 m 30.800000 5.100000 l 36.117500 5.100000 l 36.117500 3.300000 l cp s
gsave 31.300000 4.395000 translate 0.035278 -0.035278 scale
start_ol
2432 1055 moveto
2432 1396 2252 1562 conicto
2073 1728 1701 1728 conicto
960 1728 lineto
960 384 lineto
1701 384 lineto
2073 384 2252 550 conicto
2432 716 2432 1055 conicto
2688 3520 moveto
2688 3136 lineto
960 3136 lineto
960 2112 lineto
1733 2112 lineto
2314 2112 2629 1850 conicto
2944 1588 2944 1055 conicto
2944 524 2634 262 conicto
2324 0 1711 0 conicto
448 0 lineto
448 3520 lineto
2688 3520 lineto
end_ol grestore 
gsave 31.737092 4.395000 translate 0.035278 -0.035278 scale
start_ol
1622 1344 moveto
1104 1344 904 1225 conicto
704 1106 704 818 conicto
704 589 854 454 conicto
1004 320 1262 320 conicto
1618 320 1833 572 conicto
2048 825 2048 1244 conicto
2048 1344 lineto
1622 1344 lineto
2496 1513 moveto
2496 0 lineto
2048 0 lineto
2048 384 lineto
1900 154 1679 45 conicto
1458 -64 1138 -64 conicto
733 -64 494 162 conicto
256 389 256 769 conicto
256 1213 555 1438 conicto
854 1664 1448 1664 conicto
2048 1664 lineto
2048 1712 lineto
2048 2025 1851 2196 conicto
1655 2368 1300 2368 conicto
1074 2368 860 2320 conicto
646 2272 448 2176 conicto
448 2560 lineto
687 2656 912 2704 conicto
1138 2752 1351 2752 conicto
1927 2752 2211 2444 conicto
2496 2137 2496 1513 conicto
end_ol grestore 
gsave 32.129221 4.395000 translate 0.035278 -0.035278 scale
start_ol
1689 1450 moveto
1983 1393 2143 1218 conicto
2304 1044 2304 785 conicto
2304 371 1997 153 conicto
1691 -64 1125 -64 conicto
935 -64 734 -16 conicto
534 32 320 128 conicto
320 512 lineto
487 416 686 368 conicto
886 320 1104 320 conicto
1459 320 1657 455 conicto
1856 591 1856 808 conicto
1856 1021 1679 1150 conicto
1503 1280 1180 1280 conicto
832 1280 lineto
832 1600 lineto
1199 1600 lineto
1473 1600 1632 1708 conicto
1792 1817 1792 1988 conicto
1792 2144 1625 2256 conicto
1459 2368 1173 2368 conicto
1003 2368 810 2337 conicto
617 2307 384 2240 conicto
384 2624 lineto
621 2688 827 2720 conicto
1033 2752 1216 2752 conicto
1691 2752 1965 2564 conicto
2240 2376 2240 2039 conicto
2240 1817 2097 1662 conicto
1955 1508 1689 1450 conicto
end_ol grestore 
gsave 32.468896 4.395000 translate 0.035278 -0.035278 scale
start_ol
1622 1344 moveto
1104 1344 904 1225 conicto
704 1106 704 818 conicto
704 589 854 454 conicto
1004 320 1262 320 conicto
1618 320 1833 572 conicto
2048 825 2048 1244 conicto
2048 1344 lineto
1622 1344 lineto
2496 1513 moveto
2496 0 lineto
2048 0 lineto
2048 384 lineto
1900 154 1679 45 conicto
1458 -64 1138 -64 conicto
733 -64 494 162 conicto
256 389 256 769 conicto
256 1213 555 1438 conicto
854 1664 1448 1664 conicto
2048 1664 lineto
2048 1712 lineto
2048 2025 1851 2196 conicto
1655 2368 1300 2368 conicto
1074 2368 860 2320 conicto
646 2272 448 2176 conicto
448 2560 lineto
687 2656 912 2704 conicto
1138 2752 1351 2752 conicto
1927 2752 2211 2444 conicto
2496 2137 2496 1513 conicto
end_ol grestore 
gsave 32.861025 4.395000 translate 0.035278 -0.035278 scale
start_ol
end_ol grestore 
gsave 33.063332 4.395000 translate 0.035278 -0.035278 scale
start_ol
1059 320 moveto
2368 320 lineto
2368 2368 lineto
1408 2368 lineto
1408 2021 lineto
1408 999 1128 454 conicto
1059 320 lineto
419 320 moveto
634 417 728 624 conicto
960 1138 960 2172 conicto
960 2688 lineto
2816 2688 lineto
2816 320 lineto
3136 320 lineto
3136 -704 lineto
2816 -704 lineto
2816 0 lineto
576 0 lineto
576 -704 lineto
256 -704 lineto
256 320 lineto
419 320 lineto
end_ol grestore 
gsave 33.502921 4.395000 translate 0.035278 -0.035278 scale
start_ol
1622 1344 moveto
1104 1344 904 1225 conicto
704 1106 704 818 conicto
704 589 854 454 conicto
1004 320 1262 320 conicto
1618 320 1833 572 conicto
2048 825 2048 1244 conicto
2048 1344 lineto
1622 1344 lineto
2496 1513 moveto
2496 0 lineto
2048 0 lineto
2048 384 lineto
1900 154 1679 45 conicto
1458 -64 1138 -64 conicto
733 -64 494 162 conicto
256 389 256 769 conicto
256 1213 555 1438 conicto
854 1664 1448 1664 conicto
2048 1664 lineto
2048 1712 lineto
2048 2025 1851 2196 conicto
1655 2368 1300 2368 conicto
1074 2368 860 2320 conicto
646 2272 448 2176 conicto
448 2560 lineto
687 2656 912 2704 conicto
1138 2752 1351 2752 conicto
1927 2752 2211 2444 conicto
2496 2137 2496 1513 conicto
end_ol grestore 
gsave 33.895050 4.395000 translate 0.035278 -0.035278 scale
start_ol
448 2688 moveto
896 2688 lineto
896 1600 lineto
2304 1600 lineto
2304 2688 lineto
2752 2688 lineto
2752 0 lineto
2304 0 lineto
2304 1280 lineto
896 1280 lineto
896 0 lineto
448 0 lineto
448 2688 lineto
end_ol grestore 
gsave 34.312157 4.395000 translate 0.035278 -0.035278 scale
start_ol
448 2688 moveto
896 2688 lineto
896 1600 lineto
2304 1600 lineto
2304 2688 lineto
2752 2688 lineto
2752 0 lineto
2304 0 lineto
2304 1280 lineto
896 1280 lineto
896 0 lineto
448 0 lineto
448 2688 lineto
end_ol grestore 
gsave 34.729265 4.395000 translate 0.035278 -0.035278 scale
start_ol
2944 2688 moveto
3392 2688 lineto
3392 0 lineto
2944 0 lineto
2944 2688 lineto
3168 2752 moveto
3168 2752 lineto
2112 801 moveto
2112 1035 1958 1157 conicto
1805 1280 1510 1280 conicto
896 1280 lineto
896 320 lineto
1510 320 lineto
1805 320 1958 443 conicto
2112 567 2112 801 conicto
448 2688 moveto
896 2688 lineto
896 1600 lineto
1524 1600 lineto
2022 1600 2291 1403 conicto
2560 1207 2560 801 conicto
2560 396 2289 198 conicto
2018 0 1516 0 conicto
448 0 lineto
448 2688 lineto
end_ol grestore 
gsave 35.233792 4.395000 translate 0.035278 -0.035278 scale
start_ol
2624 2688 moveto
1666 1380 lineto
2688 0 lineto
2169 0 lineto
1389 1056 lineto
632 0 lineto
128 0 lineto
1134 1406 lineto
192 2688 lineto
705 2688 lineto
1408 1730 lineto
2111 2688 lineto
2624 2688 lineto
end_ol grestore 
0.050000 slw
n 31.300000 4.545000 m 35.617500 4.545000 l s
0.050000 slw
[] 0 sd
[0.400000] 0 sd
n 16.988750 5.000000 m 16.988750 7.050000 l s
n 16.988750 15.050000 m 16.988750 16.900000 l s
0.100000 slw
[] 0 sd
1.000000 1.000000 1.000000 srgb
n 16.638750 7.050000 m 16.638750 15.050000 l 17.338750 15.050000 l 17.338750 7.050000 l f
0.000000 0.000000 0.000000 srgb
n 16.638750 7.050000 m 16.638750 15.050000 l 17.338750 15.050000 l 17.338750 7.050000 l cp s
0.100000 slw
[] 0 sd
n 10.600000 7.050000 0.500000 0.500000 0 360 ellipse f
0.100000 slw
0 slc
[] 0 sd
n 15.788750 7.050000 m 11.150284 7.050000 l s
0 slj
n 15.788750 7.300000 m 16.588750 7.050000 l 15.788750 6.800000 l ef
0.100000 slw
[] 0 sd
0 slj
n 15.788750 7.300000 m 16.588750 7.050000 l 15.788750 6.800000 l cp s
gsave 11.297487 6.700000 translate 0.035278 -0.035278 scale
start_ol
3136 3520 moveto
3136 0 lineto
2624 0 lineto
2624 3136 lineto
960 3136 lineto
960 0 lineto
448 0 lineto
448 3520 lineto
3136 3520 lineto
end_ol grestore 
gsave 11.777036 6.700000 translate 0.035278 -0.035278 scale
start_ol
1473 2368 moveto
1117 2368 910 2094 conicto
704 1820 704 1344 conicto
704 868 909 594 conicto
1115 320 1473 320 conicto
1827 320 2033 595 conicto
2240 870 2240 1344 conicto
2240 1816 2033 2092 conicto
1827 2368 1473 2368 conicto
1472 2752 moveto
2040 2752 2364 2378 conicto
2688 2005 2688 1344 conicto
2688 685 2364 310 conicto
2040 -64 1472 -64 conicto
902 -64 579 310 conicto
256 685 256 1344 conicto
256 2005 579 2378 conicto
902 2752 1472 2752 conicto
end_ol grestore 
gsave 12.169165 6.700000 translate 0.035278 -0.035278 scale
start_ol
2752 2688 moveto
2752 0 lineto
2304 0 lineto
2304 2158 lineto
1022 0 lineto
448 0 lineto
448 2688 lineto
896 2688 lineto
896 535 lineto
2176 2688 lineto
2752 2688 lineto
end_ol grestore 
gsave 12.583776 6.700000 translate 0.035278 -0.035278 scale
start_ol
2368 2560 moveto
2368 2176 lineto
2180 2272 1991 2320 conicto
1803 2368 1611 2368 conicto
1180 2368 942 2099 conicto
704 1830 704 1344 conicto
704 858 942 589 conicto
1180 320 1611 320 conicto
1803 320 1991 368 conicto
2180 416 2368 512 conicto
2368 128 lineto
2184 32 1987 -16 conicto
1791 -64 1569 -64 conicto
966 -64 611 316 conicto
256 697 256 1344 conicto
256 2000 615 2376 conicto
974 2752 1598 2752 conicto
1801 2752 1994 2704 conicto
2187 2656 2368 2560 conicto
end_ol grestore 
gsave 12.935944 6.700000 translate 0.035278 -0.035278 scale
start_ol
448 2688 moveto
896 2688 lineto
896 1426 lineto
2100 2688 lineto
2624 2688 lineto
1631 1649 lineto
2752 0 lineto
2274 0 lineto
1353 1356 lineto
896 876 lineto
896 0 lineto
448 0 lineto
448 2688 lineto
end_ol grestore 
gsave 13.323079 6.700000 translate 0.035278 -0.035278 scale
start_ol
end_ol grestore 
gsave 13.525386 6.700000 translate 0.035278 -0.035278 scale
start_ol
704 1344 moveto
704 790 878 555 conicto
1052 320 1347 320 conicto
1582 320 1856 716 conicto
1856 1972 lineto
1582 2368 1347 2368 conicto
1052 2368 878 2133 conicto
704 1898 704 1344 conicto
1856 -1024 moveto
1856 345 lineto
1720 121 1564 28 conicto
1408 -64 1210 -64 conicto
812 -64 534 306 conicto
256 676 256 1334 conicto
256 1993 534 2372 conicto
812 2752 1210 2752 conicto
1408 2752 1564 2662 conicto
1720 2572 1856 2348 conicto
1856 3712 lineto
2304 3712 lineto
2304 2348 lineto
2440 2572 2596 2662 conicto
2752 2752 2950 2752 conicto
3348 2752 3626 2372 conicto
3904 1993 3904 1334 conicto
3904 676 3626 306 conicto
3348 -64 2950 -64 conicto
2752 -64 2596 28 conicto
2440 121 2304 345 conicto
2304 -1024 lineto
1856 -1024 lineto
3456 1344 moveto
3456 1898 3282 2133 conicto
3108 2368 2813 2368 conicto
2578 2368 2304 1972 conicto
2304 716 lineto
2578 320 2813 320 conicto
3108 320 3282 555 conicto
3456 790 3456 1344 conicto
end_ol grestore 
gsave 14.072371 6.700000 translate 0.035278 -0.035278 scale
start_ol
2752 2688 moveto
2752 0 lineto
2304 0 lineto
2304 2158 lineto
1022 0 lineto
448 0 lineto
448 2688 lineto
896 2688 lineto
896 535 lineto
2176 2688 lineto
2752 2688 lineto
end_ol grestore 
gsave 14.486982 6.700000 translate 0.035278 -0.035278 scale
start_ol
192 0 moveto
192 320 lineto
611 389 740 697 conicto
896 1131 896 2240 conicto
896 2688 lineto
2688 2688 lineto
2688 0 lineto
2240 0 lineto
2240 2368 lineto
1344 2368 lineto
1344 2098 lineto
1344 1046 1137 574 conicto
916 71 192 0 conicto
end_ol grestore 
gsave 14.896598 6.700000 translate 0.035278 -0.035278 scale
start_ol
2112 801 moveto
2112 1035 1958 1157 conicto
1805 1280 1510 1280 conicto
896 1280 lineto
896 320 lineto
1510 320 lineto
1805 320 1958 443 conicto
2112 567 2112 801 conicto
448 2688 moveto
896 2688 lineto
896 1600 lineto
1524 1600 lineto
2022 1600 2291 1403 conicto
2560 1207 2560 801 conicto
2560 396 2289 198 conicto
2018 0 1516 0 conicto
448 0 lineto
448 2688 lineto
end_ol grestore 
gsave 15.273745 6.700000 translate 0.035278 -0.035278 scale
start_ol
448 2688 moveto
1094 2688 lineto
1857 884 lineto
2623 2688 lineto
3264 2688 lineto
3264 0 lineto
2816 0 lineto
2816 2265 lineto
2077 512 lineto
1637 512 lineto
896 2265 lineto
896 0 lineto
448 0 lineto
448 2688 lineto
end_ol grestore 
gsave 15.755791 6.700000 translate 0.035278 -0.035278 scale
start_ol
1622 1344 moveto
1104 1344 904 1225 conicto
704 1106 704 818 conicto
704 589 854 454 conicto
1004 320 1262 320 conicto
1618 320 1833 572 conicto
2048 825 2048 1244 conicto
2048 1344 lineto
1622 1344 lineto
2496 1513 moveto
2496 0 lineto
2048 0 lineto
2048 384 lineto
1900 154 1679 45 conicto
1458 -64 1138 -64 conicto
733 -64 494 162 conicto
256 389 256 769 conicto
256 1213 555 1438 conicto
854 1664 1448 1664 conicto
2048 1664 lineto
2048 1712 lineto
2048 2025 1851 2196 conicto
1655 2368 1300 2368 conicto
1074 2368 860 2320 conicto
646 2272 448 2176 conicto
448 2560 lineto
687 2656 912 2704 conicto
1138 2752 1351 2752 conicto
1927 2752 2211 2444 conicto
2496 2137 2496 1513 conicto
end_ol grestore 
0.050000 slw
[] 0 sd
[0.400000] 0 sd
n 25.201250 5.100000 m 25.201250 9.000000 l s
n 25.201250 13.000000 m 25.201250 16.500000 l s
0.100000 slw
[] 0 sd
1.000000 1.000000 1.000000 srgb
n 24.851250 9.000000 m 24.851250 13.000000 l 25.551250 13.000000 l 25.551250 9.000000 l f
0.000000 0.000000 0.000000 srgb
n 24.851250 9.000000 m 24.851250 13.000000 l 25.551250 13.000000 l 25.551250 9.000000 l cp s
0.050000 slw
[] 0 sd
[0.400000] 0 sd
n 33.458750 4.200000 m 33.458750 10.050000 l s
n 33.458750 12.050000 m 33.458750 13.800000 l s
0.100000 slw
[] 0 sd
1.000000 1.000000 1.000000 srgb
n 33.108750 10.050000 m 33.108750 12.050000 l 33.808750 12.050000 l 33.808750 10.050000 l f
0.000000 0.000000 0.000000 srgb
n 33.108750 10.050000 m 33.108750 12.050000 l 33.808750 12.050000 l 33.808750 10.050000 l cp s
0.100000 slw
0 slc
[] 0 sd
n 24.001269 9.005657 m 17.338750 9.050000 l s
0 slj
n 24.002933 9.255652 m 24.801251 9.000333 l 23.999605 8.755663 l ef
0.100000 slw
[] 0 sd
0 slj
n 24.002933 9.255652 m 24.801251 9.000333 l 23.999605 8.755663 l cp s
gsave 18.022500 8.450000 translate 0.035278 -0.035278 scale
start_ol
1890 3200 moveto
1375 3200 1071 2813 conicto
768 2426 768 1759 conicto
768 1094 1071 707 conicto
1375 320 1890 320 conicto
2406 320 2707 707 conicto
3008 1094 3008 1759 conicto
3008 2426 2707 2813 conicto
2406 3200 1890 3200 conicto
1890 3584 moveto
2632 3584 3076 3088 conicto
3520 2593 3520 1759 conicto
3520 927 3076 431 conicto
2632 -64 1890 -64 conicto
1146 -64 701 430 conicto
256 925 256 1759 conicto
256 2593 701 3088 conicto
1146 3584 1890 3584 conicto
end_ol grestore 
gsave 18.527027 8.450000 translate 0.035278 -0.035278 scale
start_ol
128 2688 moveto
2752 2688 lineto
2752 2368 lineto
1664 2368 lineto
1664 0 lineto
1216 0 lineto
1216 2368 lineto
128 2368 lineto
128 2688 lineto
end_ol grestore 
gsave 18.904174 8.450000 translate 0.035278 -0.035278 scale
start_ol
2752 2688 moveto
2752 0 lineto
2304 0 lineto
2304 2368 lineto
896 2368 lineto
896 0 lineto
448 0 lineto
448 2688 lineto
2752 2688 lineto
end_ol grestore 
gsave 19.321282 8.450000 translate 0.035278 -0.035278 scale
start_ol
896 384 moveto
896 -1024 lineto
448 -1024 lineto
448 2688 lineto
896 2688 lineto
896 2304 lineto
1032 2531 1240 2641 conicto
1448 2752 1737 2752 conicto
2217 2752 2516 2364 conicto
2816 1976 2816 1344 conicto
2816 712 2516 324 conicto
2217 -64 1737 -64 conicto
1448 -64 1240 46 conicto
1032 157 896 384 conicto
2368 1344 moveto
2368 1823 2171 2095 conicto
1975 2368 1632 2368 conicto
1289 2368 1092 2095 conicto
896 1823 896 1344 conicto
896 865 1092 592 conicto
1289 320 1632 320 conicto
1975 320 2171 592 conicto
2368 865 2368 1344 conicto
end_ol grestore 
gsave 19.728401 8.450000 translate 0.035278 -0.035278 scale
start_ol
1622 1344 moveto
1104 1344 904 1225 conicto
704 1106 704 818 conicto
704 589 854 454 conicto
1004 320 1262 320 conicto
1618 320 1833 572 conicto
2048 825 2048 1244 conicto
2048 1344 lineto
1622 1344 lineto
2496 1513 moveto
2496 0 lineto
2048 0 lineto
2048 384 lineto
1900 154 1679 45 conicto
1458 -64 1138 -64 conicto
733 -64 494 162 conicto
256 389 256 769 conicto
256 1213 555 1438 conicto
854 1664 1448 1664 conicto
2048 1664 lineto
2048 1712 lineto
2048 2025 1851 2196 conicto
1655 2368 1300 2368 conicto
1074 2368 860 2320 conicto
646 2272 448 2176 conicto
448 2560 lineto
687 2656 912 2704 conicto
1138 2752 1351 2752 conicto
1927 2752 2211 2444 conicto
2496 2137 2496 1513 conicto
end_ol grestore 
gsave 20.120530 8.450000 translate 0.035278 -0.035278 scale
start_ol
896 1280 moveto
896 320 lineto
1509 320 lineto
1803 320 1957 443 conicto
2112 567 2112 801 conicto
2112 1035 1957 1157 conicto
1803 1280 1509 1280 conicto
896 1280 lineto
896 2368 moveto
896 1600 lineto
1447 1600 lineto
1684 1600 1834 1703 conicto
1984 1806 1984 1989 conicto
1984 2172 1834 2270 conicto
1684 2368 1447 2368 conicto
896 2368 lineto
448 2688 moveto
1474 2688 lineto
1935 2688 2183 2515 conicto
2432 2342 2432 2023 conicto
2432 1776 2304 1631 conicto
2176 1486 1924 1450 conicto
2226 1392 2393 1209 conicto
2560 1027 2560 754 conicto
2560 394 2289 197 conicto
2018 0 1516 0 conicto
448 0 lineto
448 2688 lineto
end_ol grestore 
gsave 20.497677 8.450000 translate 0.035278 -0.035278 scale
start_ol
448 2688 moveto
896 2688 lineto
896 1426 lineto
2100 2688 lineto
2624 2688 lineto
1631 1649 lineto
2752 0 lineto
2274 0 lineto
1353 1356 lineto
896 876 lineto
896 0 lineto
448 0 lineto
448 2688 lineto
end_ol grestore 
gsave 20.884812 8.450000 translate 0.035278 -0.035278 scale
start_ol
1622 1344 moveto
1104 1344 904 1225 conicto
704 1106 704 818 conicto
704 589 854 454 conicto
1004 320 1262 320 conicto
1618 320 1833 572 conicto
2048 825 2048 1244 conicto
2048 1344 lineto
1622 1344 lineto
2496 1513 moveto
2496 0 lineto
2048 0 lineto
2048 384 lineto
1900 154 1679 45 conicto
1458 -64 1138 -64 conicto
733 -64 494 162 conicto
256 389 256 769 conicto
256 1213 555 1438 conicto
854 1664 1448 1664 conicto
2048 1664 lineto
2048 1712 lineto
2048 2025 1851 2196 conicto
1655 2368 1300 2368 conicto
1074 2368 860 2320 conicto
646 2272 448 2176 conicto
448 2560 lineto
687 2656 912 2704 conicto
1138 2752 1351 2752 conicto
1927 2752 2211 2444 conicto
2496 2137 2496 1513 conicto
end_ol grestore 
gsave 21.276941 8.450000 translate 0.035278 -0.035278 scale
start_ol
end_ol grestore 
gsave 21.479248 8.450000 translate 0.035278 -0.035278 scale
start_ol
1689 1450 moveto
1983 1393 2143 1218 conicto
2304 1044 2304 785 conicto
2304 371 1997 153 conicto
1691 -64 1125 -64 conicto
935 -64 734 -16 conicto
534 32 320 128 conicto
320 512 lineto
487 416 686 368 conicto
886 320 1104 320 conicto
1459 320 1657 455 conicto
1856 591 1856 808 conicto
1856 1021 1679 1150 conicto
1503 1280 1180 1280 conicto
832 1280 lineto
832 1600 lineto
1199 1600 lineto
1473 1600 1632 1708 conicto
1792 1817 1792 1988 conicto
1792 2144 1625 2256 conicto
1459 2368 1173 2368 conicto
1003 2368 810 2337 conicto
617 2307 384 2240 conicto
384 2624 lineto
621 2688 827 2720 conicto
1033 2752 1216 2752 conicto
1691 2752 1965 2564 conicto
2240 2376 2240 2039 conicto
2240 1817 2097 1662 conicto
1955 1508 1689 1450 conicto
end_ol grestore 
gsave 21.818924 8.450000 translate 0.035278 -0.035278 scale
start_ol
1622 1344 moveto
1104 1344 904 1225 conicto
704 1106 704 818 conicto
704 589 854 454 conicto
1004 320 1262 320 conicto
1618 320 1833 572 conicto
2048 825 2048 1244 conicto
2048 1344 lineto
1622 1344 lineto
2496 1513 moveto
2496 0 lineto
2048 0 lineto
2048 384 lineto
1900 154 1679 45 conicto
1458 -64 1138 -64 conicto
733 -64 494 162 conicto
256 389 256 769 conicto
256 1213 555 1438 conicto
854 1664 1448 1664 conicto
2048 1664 lineto
2048 1712 lineto
2048 2025 1851 2196 conicto
1655 2368 1300 2368 conicto
1074 2368 860 2320 conicto
646 2272 448 2176 conicto
448 2560 lineto
687 2656 912 2704 conicto
1138 2752 1351 2752 conicto
1927 2752 2211 2444 conicto
2496 2137 2496 1513 conicto
end_ol grestore 
gsave 22.211053 8.450000 translate 0.035278 -0.035278 scale
start_ol
2752 2688 moveto
2752 0 lineto
2304 0 lineto
2304 2368 lineto
896 2368 lineto
896 0 lineto
448 0 lineto
448 2688 lineto
2752 2688 lineto
end_ol grestore 
gsave 22.628160 8.450000 translate 0.035278 -0.035278 scale
start_ol
896 384 moveto
896 -1024 lineto
448 -1024 lineto
448 2688 lineto
896 2688 lineto
896 2304 lineto
1032 2531 1240 2641 conicto
1448 2752 1737 2752 conicto
2217 2752 2516 2364 conicto
2816 1976 2816 1344 conicto
2816 712 2516 324 conicto
2217 -64 1737 -64 conicto
1448 -64 1240 46 conicto
1032 157 896 384 conicto
2368 1344 moveto
2368 1823 2171 2095 conicto
1975 2368 1632 2368 conicto
1289 2368 1092 2095 conicto
896 1823 896 1344 conicto
896 865 1092 592 conicto
1289 320 1632 320 conicto
1975 320 2171 592 conicto
2368 865 2368 1344 conicto
end_ol grestore 
gsave 23.035279 8.450000 translate 0.035278 -0.035278 scale
start_ol
1473 2368 moveto
1117 2368 910 2094 conicto
704 1820 704 1344 conicto
704 868 909 594 conicto
1115 320 1473 320 conicto
1827 320 2033 595 conicto
2240 870 2240 1344 conicto
2240 1816 2033 2092 conicto
1827 2368 1473 2368 conicto
1472 2752 moveto
2040 2752 2364 2378 conicto
2688 2005 2688 1344 conicto
2688 685 2364 310 conicto
2040 -64 1472 -64 conicto
902 -64 579 310 conicto
256 685 256 1344 conicto
256 2005 579 2378 conicto
902 2752 1472 2752 conicto
end_ol grestore 
gsave 23.427408 8.450000 translate 0.035278 -0.035278 scale
start_ol
2368 2560 moveto
2368 2176 lineto
2180 2272 1991 2320 conicto
1803 2368 1611 2368 conicto
1180 2368 942 2099 conicto
704 1830 704 1344 conicto
704 858 942 589 conicto
1180 320 1611 320 conicto
1803 320 1991 368 conicto
2180 416 2368 512 conicto
2368 128 lineto
2184 32 1987 -16 conicto
1791 -64 1569 -64 conicto
966 -64 611 316 conicto
256 697 256 1344 conicto
256 2000 615 2376 conicto
974 2752 1598 2752 conicto
1801 2752 1994 2704 conicto
2187 2656 2368 2560 conicto
end_ol grestore 
gsave 23.779577 8.450000 translate 0.035278 -0.035278 scale
start_ol
1622 1344 moveto
1104 1344 904 1225 conicto
704 1106 704 818 conicto
704 589 854 454 conicto
1004 320 1262 320 conicto
1618 320 1833 572 conicto
2048 825 2048 1244 conicto
2048 1344 lineto
1622 1344 lineto
2496 1513 moveto
2496 0 lineto
2048 0 lineto
2048 384 lineto
1900 154 1679 45 conicto
1458 -64 1138 -64 conicto
733 -64 494 162 conicto
256 389 256 769 conicto
256 1213 555 1438 conicto
854 1664 1448 1664 conicto
2048 1664 lineto
2048 1712 lineto
2048 2025 1851 2196 conicto
1655 2368 1300 2368 conicto
1074 2368 860 2320 conicto
646 2272 448 2176 conicto
448 2560 lineto
687 2656 912 2704 conicto
1138 2752 1351 2752 conicto
1927 2752 2211 2444 conicto
2496 2137 2496 1513 conicto
end_ol grestore 
0.100000 slw
0 slc
[] 0 sd
n 32.258769 10.044377 m 25.551250 10.000000 l s
0 slj
n 32.257115 10.294371 m 33.058751 10.049669 l 32.260423 9.794382 l ef
0.100000 slw
[] 0 sd
0 slj
n 32.257115 10.294371 m 33.058751 10.049669 l 32.260423 9.794382 l cp s
gsave 26.786250 9.750000 translate 0.035278 -0.035278 scale
start_ol
1469 3584 moveto
2063 3584 2439 3338 conicto
2816 3092 2816 2673 conicto
2816 2381 2647 2179 conicto
2478 1978 2167 1900 conicto
2512 1827 2696 1596 conicto
2880 1366 2880 1026 conicto
2880 485 2455 210 conicto
2030 -64 1461 -64 conicto
1169 -64 829 48 conicto
489 161 384 256 conicto
384 768 lineto
745 466 944 393 conicto
1143 320 1435 320 conicto
1878 320 2123 496 conicto
2368 673 2368 1039 conicto
2368 1363 2155 1545 conicto
1942 1728 1493 1728 conicto
1024 1728 lineto
1024 2112 lineto
1518 2112 lineto
1936 2112 2120 2250 conicto
2304 2388 2304 2648 conicto
2304 2915 2110 3057 conicto
1916 3200 1445 3200 conicto
1126 3200 1016 3147 conicto
907 3094 419 2752 conicto
419 3264 lineto
692 3437 976 3510 conicto
1261 3584 1469 3584 conicto
end_ol grestore 
gsave 27.195866 9.750000 translate 0.035278 -0.035278 scale
start_ol
1622 1344 moveto
1104 1344 904 1225 conicto
704 1106 704 818 conicto
704 589 854 454 conicto
1004 320 1262 320 conicto
1618 320 1833 572 conicto
2048 825 2048 1244 conicto
2048 1344 lineto
1622 1344 lineto
2496 1513 moveto
2496 0 lineto
2048 0 lineto
2048 384 lineto
1900 154 1679 45 conicto
1458 -64 1138 -64 conicto
733 -64 494 162 conicto
256 389 256 769 conicto
256 1213 555 1438 conicto
854 1664 1448 1664 conicto
2048 1664 lineto
2048 1712 lineto
2048 2025 1851 2196 conicto
1655 2368 1300 2368 conicto
1074 2368 860 2320 conicto
646 2272 448 2176 conicto
448 2560 lineto
687 2656 912 2704 conicto
1138 2752 1351 2752 conicto
1927 2752 2211 2444 conicto
2496 2137 2496 1513 conicto
end_ol grestore 
gsave 27.587995 9.750000 translate 0.035278 -0.035278 scale
start_ol
2752 2688 moveto
2752 0 lineto
2304 0 lineto
2304 2368 lineto
896 2368 lineto
896 0 lineto
448 0 lineto
448 2688 lineto
2752 2688 lineto
end_ol grestore 
gsave 28.005103 9.750000 translate 0.035278 -0.035278 scale
start_ol
896 384 moveto
896 -1024 lineto
448 -1024 lineto
448 2688 lineto
896 2688 lineto
896 2304 lineto
1032 2531 1240 2641 conicto
1448 2752 1737 2752 conicto
2217 2752 2516 2364 conicto
2816 1976 2816 1344 conicto
2816 712 2516 324 conicto
2217 -64 1737 -64 conicto
1448 -64 1240 46 conicto
1032 157 896 384 conicto
2368 1344 moveto
2368 1823 2171 2095 conicto
1975 2368 1632 2368 conicto
1289 2368 1092 2095 conicto
896 1823 896 1344 conicto
896 865 1092 592 conicto
1289 320 1632 320 conicto
1975 320 2171 592 conicto
2368 865 2368 1344 conicto
end_ol grestore 
gsave 28.412222 9.750000 translate 0.035278 -0.035278 scale
start_ol
1473 2368 moveto
1117 2368 910 2094 conicto
704 1820 704 1344 conicto
704 868 909 594 conicto
1115 320 1473 320 conicto
1827 320 2033 595 conicto
2240 870 2240 1344 conicto
2240 1816 2033 2092 conicto
1827 2368 1473 2368 conicto
1472 2752 moveto
2040 2752 2364 2378 conicto
2688 2005 2688 1344 conicto
2688 685 2364 310 conicto
2040 -64 1472 -64 conicto
902 -64 579 310 conicto
256 685 256 1344 conicto
256 2005 579 2378 conicto
902 2752 1472 2752 conicto
end_ol grestore 
gsave 28.804351 9.750000 translate 0.035278 -0.035278 scale
start_ol
2368 2560 moveto
2368 2176 lineto
2180 2272 1991 2320 conicto
1803 2368 1611 2368 conicto
1180 2368 942 2099 conicto
704 1830 704 1344 conicto
704 858 942 589 conicto
1180 320 1611 320 conicto
1803 320 1991 368 conicto
2180 416 2368 512 conicto
2368 128 lineto
2184 32 1987 -16 conicto
1791 -64 1569 -64 conicto
966 -64 611 316 conicto
256 697 256 1344 conicto
256 2000 615 2376 conicto
974 2752 1598 2752 conicto
1801 2752 1994 2704 conicto
2187 2656 2368 2560 conicto
end_ol grestore 
gsave 29.156520 9.750000 translate 0.035278 -0.035278 scale
start_ol
end_ol grestore 
gsave 29.358827 9.750000 translate 0.035278 -0.035278 scale
start_ol
1059 320 moveto
2368 320 lineto
2368 2368 lineto
1408 2368 lineto
1408 2021 lineto
1408 999 1128 454 conicto
1059 320 lineto
419 320 moveto
634 417 728 624 conicto
960 1138 960 2172 conicto
960 2688 lineto
2816 2688 lineto
2816 320 lineto
3136 320 lineto
3136 -704 lineto
2816 -704 lineto
2816 0 lineto
576 0 lineto
576 -704 lineto
256 -704 lineto
256 320 lineto
419 320 lineto
end_ol grestore 
gsave 29.798415 9.750000 translate 0.035278 -0.035278 scale
start_ol
1622 1344 moveto
1104 1344 904 1225 conicto
704 1106 704 818 conicto
704 589 854 454 conicto
1004 320 1262 320 conicto
1618 320 1833 572 conicto
2048 825 2048 1244 conicto
2048 1344 lineto
1622 1344 lineto
2496 1513 moveto
2496 0 lineto
2048 0 lineto
2048 384 lineto
1900 154 1679 45 conicto
1458 -64 1138 -64 conicto
733 -64 494 162 conicto
256 389 256 769 conicto
256 1213 555 1438 conicto
854 1664 1448 1664 conicto
2048 1664 lineto
2048 1712 lineto
2048 2025 1851 2196 conicto
1655 2368 1300 2368 conicto
1074 2368 860 2320 conicto
646 2272 448 2176 conicto
448 2560 lineto
687 2656 912 2704 conicto
1138 2752 1351 2752 conicto
1927 2752 2211 2444 conicto
2496 2137 2496 1513 conicto
end_ol grestore 
gsave 30.190545 9.750000 translate 0.035278 -0.035278 scale
start_ol
448 2688 moveto
896 2688 lineto
896 1600 lineto
2304 1600 lineto
2304 2688 lineto
2752 2688 lineto
2752 0 lineto
2304 0 lineto
2304 1280 lineto
896 1280 lineto
896 0 lineto
448 0 lineto
448 2688 lineto
end_ol grestore 
gsave 30.607652 9.750000 translate 0.035278 -0.035278 scale
start_ol
448 2688 moveto
896 2688 lineto
896 1600 lineto
2304 1600 lineto
2304 2688 lineto
2752 2688 lineto
2752 0 lineto
2304 0 lineto
2304 1280 lineto
896 1280 lineto
896 0 lineto
448 0 lineto
448 2688 lineto
end_ol grestore 
gsave 31.024759 9.750000 translate 0.035278 -0.035278 scale
start_ol
2944 2688 moveto
3392 2688 lineto
3392 0 lineto
2944 0 lineto
2944 2688 lineto
3168 2752 moveto
3168 2752 lineto
2112 801 moveto
2112 1035 1958 1157 conicto
1805 1280 1510 1280 conicto
896 1280 lineto
896 320 lineto
1510 320 lineto
1805 320 1958 443 conicto
2112 567 2112 801 conicto
448 2688 moveto
896 2688 lineto
896 1600 lineto
1524 1600 lineto
2022 1600 2291 1403 conicto
2560 1207 2560 801 conicto
2560 396 2289 198 conicto
2018 0 1516 0 conicto
448 0 lineto
448 2688 lineto
end_ol grestore 
gsave 31.529287 9.750000 translate 0.035278 -0.035278 scale
start_ol
2624 2688 moveto
1666 1380 lineto
2688 0 lineto
2169 0 lineto
1389 1056 lineto
632 0 lineto
128 0 lineto
1134 1406 lineto
192 2688 lineto
705 2688 lineto
1408 1730 lineto
2111 2688 lineto
2624 2688 lineto
end_ol grestore 
0.100000 slw
0 slc
[] 0 sd
n 26.401231 12.005623 m 33.108750 12.050000 l s
0 slj
n 26.402885 11.755629 m 25.601249 12.000331 l 26.399577 12.255618 l ef
0.100000 slw
[] 0 sd
0 slj
n 26.402885 11.755629 m 25.601249 12.000331 l 26.399577 12.255618 l cp s
gsave 26.808750 11.700000 translate 0.035278 -0.035278 scale
start_ol
960 1728 moveto
960 384 lineto
1696 384 lineto
2071 384 2251 550 conicto
2432 716 2432 1057 conicto
2432 1401 2251 1564 conicto
2071 1728 1696 1728 conicto
960 1728 lineto
960 3136 moveto
960 2112 lineto
1639 2112 lineto
1975 2112 2139 2238 conicto
2304 2365 2304 2624 conicto
2304 2881 2139 3008 conicto
1975 3136 1639 3136 conicto
960 3136 lineto
448 3520 moveto
1673 3520 lineto
2222 3520 2519 3300 conicto
2816 3080 2816 2674 conicto
2816 2360 2658 2174 conicto
2500 1989 2193 1943 conicto
2549 1866 2746 1621 conicto
2944 1376 2944 1009 conicto
2944 526 2625 263 conicto
2306 0 1718 0 conicto
448 0 lineto
448 3520 lineto
end_ol grestore 
gsave 27.248339 11.700000 translate 0.035278 -0.035278 scale
start_ol
1473 2368 moveto
1117 2368 910 2094 conicto
704 1820 704 1344 conicto
704 868 909 594 conicto
1115 320 1473 320 conicto
1827 320 2033 595 conicto
2240 870 2240 1344 conicto
2240 1816 2033 2092 conicto
1827 2368 1473 2368 conicto
1472 2752 moveto
2040 2752 2364 2378 conicto
2688 2005 2688 1344 conicto
2688 685 2364 310 conicto
2040 -64 1472 -64 conicto
902 -64 579 310 conicto
256 685 256 1344 conicto
256 2005 579 2378 conicto
902 2752 1472 2752 conicto
end_ol grestore 
gsave 27.640468 11.700000 translate 0.035278 -0.035278 scale
start_ol
1689 1450 moveto
1983 1393 2143 1218 conicto
2304 1044 2304 785 conicto
2304 371 1997 153 conicto
1691 -64 1125 -64 conicto
935 -64 734 -16 conicto
534 32 320 128 conicto
320 512 lineto
487 416 686 368 conicto
886 320 1104 320 conicto
1459 320 1657 455 conicto
1856 591 1856 808 conicto
1856 1021 1679 1150 conicto
1503 1280 1180 1280 conicto
832 1280 lineto
832 1600 lineto
1199 1600 lineto
1473 1600 1632 1708 conicto
1792 1817 1792 1988 conicto
1792 2144 1625 2256 conicto
1459 2368 1173 2368 conicto
1003 2368 810 2337 conicto
617 2307 384 2240 conicto
384 2624 lineto
621 2688 827 2720 conicto
1033 2752 1216 2752 conicto
1691 2752 1965 2564 conicto
2240 2376 2240 2039 conicto
2240 1817 2097 1662 conicto
1955 1508 1689 1450 conicto
end_ol grestore 
gsave 27.980143 11.700000 translate 0.035278 -0.035278 scale
start_ol
896 1280 moveto
896 320 lineto
1509 320 lineto
1803 320 1957 443 conicto
2112 567 2112 801 conicto
2112 1035 1957 1157 conicto
1803 1280 1509 1280 conicto
896 1280 lineto
896 2368 moveto
896 1600 lineto
1447 1600 lineto
1684 1600 1834 1703 conicto
1984 1806 1984 1989 conicto
1984 2172 1834 2270 conicto
1684 2368 1447 2368 conicto
896 2368 lineto
448 2688 moveto
1474 2688 lineto
1935 2688 2183 2515 conicto
2432 2342 2432 2023 conicto
2432 1776 2304 1631 conicto
2176 1486 1924 1450 conicto
2226 1392 2393 1209 conicto
2560 1027 2560 754 conicto
2560 394 2289 197 conicto
2018 0 1516 0 conicto
448 0 lineto
448 2688 lineto
end_ol grestore 
gsave 28.357290 11.700000 translate 0.035278 -0.035278 scale
start_ol
896 384 moveto
896 -1024 lineto
448 -1024 lineto
448 2688 lineto
896 2688 lineto
896 2304 lineto
1032 2531 1240 2641 conicto
1448 2752 1737 2752 conicto
2217 2752 2516 2364 conicto
2816 1976 2816 1344 conicto
2816 712 2516 324 conicto
2217 -64 1737 -64 conicto
1448 -64 1240 46 conicto
1032 157 896 384 conicto
2368 1344 moveto
2368 1823 2171 2095 conicto
1975 2368 1632 2368 conicto
1289 2368 1092 2095 conicto
896 1823 896 1344 conicto
896 865 1092 592 conicto
1289 320 1632 320 conicto
1975 320 2171 592 conicto
2368 865 2368 1344 conicto
end_ol grestore 
gsave 28.764409 11.700000 translate 0.035278 -0.035278 scale
start_ol
1622 1344 moveto
1104 1344 904 1225 conicto
704 1106 704 818 conicto
704 589 854 454 conicto
1004 320 1262 320 conicto
1618 320 1833 572 conicto
2048 825 2048 1244 conicto
2048 1344 lineto
1622 1344 lineto
2496 1513 moveto
2496 0 lineto
2048 0 lineto
2048 384 lineto
1900 154 1679 45 conicto
1458 -64 1138 -64 conicto
733 -64 494 162 conicto
256 389 256 769 conicto
256 1213 555 1438 conicto
854 1664 1448 1664 conicto
2048 1664 lineto
2048 1712 lineto
2048 2025 1851 2196 conicto
1655 2368 1300 2368 conicto
1074 2368 860 2320 conicto
646 2272 448 2176 conicto
448 2560 lineto
687 2656 912 2704 conicto
1138 2752 1351 2752 conicto
1927 2752 2211 2444 conicto
2496 2137 2496 1513 conicto
end_ol grestore 
gsave 29.156538 11.700000 translate 0.035278 -0.035278 scale
start_ol
128 2688 moveto
2752 2688 lineto
2752 2368 lineto
1664 2368 lineto
1664 0 lineto
1216 0 lineto
1216 2368 lineto
128 2368 lineto
128 2688 lineto
end_ol grestore 
gsave 29.533685 11.700000 translate 0.035278 -0.035278 scale
start_ol
end_ol grestore 
gsave 29.735993 11.700000 translate 0.035278 -0.035278 scale
start_ol
1059 320 moveto
2368 320 lineto
2368 2368 lineto
1408 2368 lineto
1408 2021 lineto
1408 999 1128 454 conicto
1059 320 lineto
419 320 moveto
634 417 728 624 conicto
960 1138 960 2172 conicto
960 2688 lineto
2816 2688 lineto
2816 320 lineto
3136 320 lineto
3136 -704 lineto
2816 -704 lineto
2816 0 lineto
576 0 lineto
576 -704 lineto
256 -704 lineto
256 320 lineto
419 320 lineto
end_ol grestore 
gsave 30.175581 11.700000 translate 0.035278 -0.035278 scale
start_ol
1622 1344 moveto
1104 1344 904 1225 conicto
704 1106 704 818 conicto
704 589 854 454 conicto
1004 320 1262 320 conicto
1618 320 1833 572 conicto
2048 825 2048 1244 conicto
2048 1344 lineto
1622 1344 lineto
2496 1513 moveto
2496 0 lineto
2048 0 lineto
2048 384 lineto
1900 154 1679 45 conicto
1458 -64 1138 -64 conicto
733 -64 494 162 conicto
256 389 256 769 conicto
256 1213 555 1438 conicto
854 1664 1448 1664 conicto
2048 1664 lineto
2048 1712 lineto
2048 2025 1851 2196 conicto
1655 2368 1300 2368 conicto
1074 2368 860 2320 conicto
646 2272 448 2176 conicto
448 2560 lineto
687 2656 912 2704 conicto
1138 2752 1351 2752 conicto
1927 2752 2211 2444 conicto
2496 2137 2496 1513 conicto
end_ol grestore 
gsave 30.567710 11.700000 translate 0.035278 -0.035278 scale
start_ol
448 2688 moveto
896 2688 lineto
896 1600 lineto
2304 1600 lineto
2304 2688 lineto
2752 2688 lineto
2752 0 lineto
2304 0 lineto
2304 1280 lineto
896 1280 lineto
896 0 lineto
448 0 lineto
448 2688 lineto
end_ol grestore 
gsave 30.984818 11.700000 translate 0.035278 -0.035278 scale
start_ol
448 2688 moveto
896 2688 lineto
896 1600 lineto
2304 1600 lineto
2304 2688 lineto
2752 2688 lineto
2752 0 lineto
2304 0 lineto
2304 1280 lineto
896 1280 lineto
896 0 lineto
448 0 lineto
448 2688 lineto
end_ol grestore 
gsave 31.401925 11.700000 translate 0.035278 -0.035278 scale
start_ol
2944 2688 moveto
3392 2688 lineto
3392 0 lineto
2944 0 lineto
2944 2688 lineto
3168 2752 moveto
3168 2752 lineto
2112 801 moveto
2112 1035 1958 1157 conicto
1805 1280 1510 1280 conicto
896 1280 lineto
896 320 lineto
1510 320 lineto
1805 320 1958 443 conicto
2112 567 2112 801 conicto
448 2688 moveto
896 2688 lineto
896 1600 lineto
1524 1600 lineto
2022 1600 2291 1403 conicto
2560 1207 2560 801 conicto
2560 396 2289 198 conicto
2018 0 1516 0 conicto
448 0 lineto
448 2688 lineto
end_ol grestore 
gsave 31.906452 11.700000 translate 0.035278 -0.035278 scale
start_ol
2624 2688 moveto
1666 1380 lineto
2688 0 lineto
2169 0 lineto
1389 1056 lineto
632 0 lineto
128 0 lineto
1134 1406 lineto
192 2688 lineto
705 2688 lineto
1408 1730 lineto
2111 2688 lineto
2624 2688 lineto
end_ol grestore 
0.100000 slw
0 slc
[] 0 sd
n 18.188731 13.044343 m 24.851250 13.000000 l s
0 slj
n 18.187067 12.794348 m 17.388749 13.049667 l 18.190395 13.294337 l ef
0.100000 slw
[] 0 sd
0 slj
n 18.187067 12.794348 m 17.388749 13.049667 l 18.190395 13.294337 l cp s
gsave 18.163750 12.575000 translate 0.035278 -0.035278 scale
start_ol
1890 3200 moveto
1375 3200 1071 2813 conicto
768 2426 768 1759 conicto
768 1094 1071 707 conicto
1375 320 1890 320 conicto
2406 320 2707 707 conicto
3008 1094 3008 1759 conicto
3008 2426 2707 2813 conicto
2406 3200 1890 3200 conicto
1890 3584 moveto
2632 3584 3076 3088 conicto
3520 2593 3520 1759 conicto
3520 927 3076 431 conicto
2632 -64 1890 -64 conicto
1146 -64 701 430 conicto
256 925 256 1759 conicto
256 2593 701 3088 conicto
1146 3584 1890 3584 conicto
end_ol grestore 
gsave 18.668277 12.575000 translate 0.035278 -0.035278 scale
start_ol
128 2688 moveto
2752 2688 lineto
2752 2368 lineto
1664 2368 lineto
1664 0 lineto
1216 0 lineto
1216 2368 lineto
128 2368 lineto
128 2688 lineto
end_ol grestore 
gsave 19.045424 12.575000 translate 0.035278 -0.035278 scale
start_ol
2752 2688 moveto
2752 0 lineto
2304 0 lineto
2304 2368 lineto
896 2368 lineto
896 0 lineto
448 0 lineto
448 2688 lineto
2752 2688 lineto
end_ol grestore 
gsave 19.462532 12.575000 translate 0.035278 -0.035278 scale
start_ol
896 384 moveto
896 -1024 lineto
448 -1024 lineto
448 2688 lineto
896 2688 lineto
896 2304 lineto
1032 2531 1240 2641 conicto
1448 2752 1737 2752 conicto
2217 2752 2516 2364 conicto
2816 1976 2816 1344 conicto
2816 712 2516 324 conicto
2217 -64 1737 -64 conicto
1448 -64 1240 46 conicto
1032 157 896 384 conicto
2368 1344 moveto
2368 1823 2171 2095 conicto
1975 2368 1632 2368 conicto
1289 2368 1092 2095 conicto
896 1823 896 1344 conicto
896 865 1092 592 conicto
1289 320 1632 320 conicto
1975 320 2171 592 conicto
2368 865 2368 1344 conicto
end_ol grestore 
gsave 19.869651 12.575000 translate 0.035278 -0.035278 scale
start_ol
1622 1344 moveto
1104 1344 904 1225 conicto
704 1106 704 818 conicto
704 589 854 454 conicto
1004 320 1262 320 conicto
1618 320 1833 572 conicto
2048 825 2048 1244 conicto
2048 1344 lineto
1622 1344 lineto
2496 1513 moveto
2496 0 lineto
2048 0 lineto
2048 384 lineto
1900 154 1679 45 conicto
1458 -64 1138 -64 conicto
733 -64 494 162 conicto
256 389 256 769 conicto
256 1213 555 1438 conicto
854 1664 1448 1664 conicto
2048 1664 lineto
2048 1712 lineto
2048 2025 1851 2196 conicto
1655 2368 1300 2368 conicto
1074 2368 860 2320 conicto
646 2272 448 2176 conicto
448 2560 lineto
687 2656 912 2704 conicto
1138 2752 1351 2752 conicto
1927 2752 2211 2444 conicto
2496 2137 2496 1513 conicto
end_ol grestore 
gsave 20.261780 12.575000 translate 0.035278 -0.035278 scale
start_ol
896 1280 moveto
896 320 lineto
1509 320 lineto
1803 320 1957 443 conicto
2112 567 2112 801 conicto
2112 1035 1957 1157 conicto
1803 1280 1509 1280 conicto
896 1280 lineto
896 2368 moveto
896 1600 lineto
1447 1600 lineto
1684 1600 1834 1703 conicto
1984 1806 1984 1989 conicto
1984 2172 1834 2270 conicto
1684 2368 1447 2368 conicto
896 2368 lineto
448 2688 moveto
1474 2688 lineto
1935 2688 2183 2515 conicto
2432 2342 2432 2023 conicto
2432 1776 2304 1631 conicto
2176 1486 1924 1450 conicto
2226 1392 2393 1209 conicto
2560 1027 2560 754 conicto
2560 394 2289 197 conicto
2018 0 1516 0 conicto
448 0 lineto
448 2688 lineto
end_ol grestore 
gsave 20.638927 12.575000 translate 0.035278 -0.035278 scale
start_ol
448 2688 moveto
896 2688 lineto
896 1426 lineto
2100 2688 lineto
2624 2688 lineto
1631 1649 lineto
2752 0 lineto
2274 0 lineto
1353 1356 lineto
896 876 lineto
896 0 lineto
448 0 lineto
448 2688 lineto
end_ol grestore 
gsave 21.026062 12.575000 translate 0.035278 -0.035278 scale
start_ol
1622 1344 moveto
1104 1344 904 1225 conicto
704 1106 704 818 conicto
704 589 854 454 conicto
1004 320 1262 320 conicto
1618 320 1833 572 conicto
2048 825 2048 1244 conicto
2048 1344 lineto
1622 1344 lineto
2496 1513 moveto
2496 0 lineto
2048 0 lineto
2048 384 lineto
1900 154 1679 45 conicto
1458 -64 1138 -64 conicto
733 -64 494 162 conicto
256 389 256 769 conicto
256 1213 555 1438 conicto
854 1664 1448 1664 conicto
2048 1664 lineto
2048 1712 lineto
2048 2025 1851 2196 conicto
1655 2368 1300 2368 conicto
1074 2368 860 2320 conicto
646 2272 448 2176 conicto
448 2560 lineto
687 2656 912 2704 conicto
1138 2752 1351 2752 conicto
1927 2752 2211 2444 conicto
2496 2137 2496 1513 conicto
end_ol grestore 
gsave 21.418191 12.575000 translate 0.035278 -0.035278 scale
start_ol
end_ol grestore 
gsave 21.620498 12.575000 translate 0.035278 -0.035278 scale
start_ol
1473 2368 moveto
1117 2368 910 2094 conicto
704 1820 704 1344 conicto
704 868 909 594 conicto
1115 320 1473 320 conicto
1827 320 2033 595 conicto
2240 870 2240 1344 conicto
2240 1816 2033 2092 conicto
1827 2368 1473 2368 conicto
1472 2752 moveto
2040 2752 2364 2378 conicto
2688 2005 2688 1344 conicto
2688 685 2364 310 conicto
2040 -64 1472 -64 conicto
902 -64 579 310 conicto
256 685 256 1344 conicto
256 2005 579 2378 conicto
902 2752 1472 2752 conicto
end_ol grestore 
gsave 22.012627 12.575000 translate 0.035278 -0.035278 scale
start_ol
128 2688 moveto
2752 2688 lineto
2752 2368 lineto
1664 2368 lineto
1664 0 lineto
1216 0 lineto
1216 2368 lineto
128 2368 lineto
128 2688 lineto
end_ol grestore 
gsave 22.389774 12.575000 translate 0.035278 -0.035278 scale
start_ol
896 1280 moveto
896 320 lineto
1509 320 lineto
1803 320 1957 443 conicto
2112 567 2112 801 conicto
2112 1035 1957 1157 conicto
1803 1280 1509 1280 conicto
896 1280 lineto
896 2368 moveto
896 1600 lineto
1447 1600 lineto
1684 1600 1834 1703 conicto
1984 1806 1984 1989 conicto
1984 2172 1834 2270 conicto
1684 2368 1447 2368 conicto
896 2368 lineto
448 2688 moveto
1474 2688 lineto
1935 2688 2183 2515 conicto
2432 2342 2432 2023 conicto
2432 1776 2304 1631 conicto
2176 1486 1924 1450 conicto
2226 1392 2393 1209 conicto
2560 1027 2560 754 conicto
2560 394 2289 197 conicto
2018 0 1516 0 conicto
448 0 lineto
448 2688 lineto
end_ol grestore 
gsave 22.766921 12.575000 translate 0.035278 -0.035278 scale
start_ol
2752 1480 moveto
2752 1280 lineto
704 1280 lineto
733 811 978 565 conicto
1223 320 1660 320 conicto
1914 320 2152 384 conicto
2390 448 2624 576 conicto
2624 192 lineto
2388 67 2140 1 conicto
1893 -64 1639 -64 conicto
1001 -64 628 309 conicto
256 683 256 1320 conicto
256 1979 613 2365 conicto
970 2752 1576 2752 conicto
2120 2752 2436 2410 conicto
2752 2068 2752 1480 conicto
2304 1600 moveto
2299 1950 2099 2159 conicto
1900 2368 1572 2368 conicto
1200 2368 976 2166 conicto
753 1964 719 1597 conicto
2304 1600 lineto
end_ol grestore 
gsave 23.161547 12.575000 translate 0.035278 -0.035278 scale
start_ol
128 2688 moveto
2752 2688 lineto
2752 2368 lineto
1664 2368 lineto
1664 0 lineto
1216 0 lineto
1216 2368 lineto
128 2368 lineto
128 2688 lineto
end_ol grestore 
gsave 23.538694 12.575000 translate 0.035278 -0.035278 scale
start_ol
1622 1344 moveto
1104 1344 904 1225 conicto
704 1106 704 818 conicto
704 589 854 454 conicto
1004 320 1262 320 conicto
1618 320 1833 572 conicto
2048 825 2048 1244 conicto
2048 1344 lineto
1622 1344 lineto
2496 1513 moveto
2496 0 lineto
2048 0 lineto
2048 384 lineto
1900 154 1679 45 conicto
1458 -64 1138 -64 conicto
733 -64 494 162 conicto
256 389 256 769 conicto
256 1213 555 1438 conicto
854 1664 1448 1664 conicto
2048 1664 lineto
2048 1712 lineto
2048 2025 1851 2196 conicto
1655 2368 1300 2368 conicto
1074 2368 860 2320 conicto
646 2272 448 2176 conicto
448 2560 lineto
687 2656 912 2704 conicto
1138 2752 1351 2752 conicto
1927 2752 2211 2444 conicto
2496 2137 2496 1513 conicto
end_ol grestore 
showpage
