%!PS-Adobe-2.0 EPSF-2.0
%%Title: /home/nikita/Documents/University/Kursovaya/Gusche/structscheme.dia
%%Creator: Dia v0.97.2
%%CreationDate: Thu May 29 03:14:12 2014
%%For: nikita
%%Orientation: Portrait
%%Magnification: 1.0000
%%BoundingBox: 0 0 775 57
%%BeginSetup
%%EndSetup
%%EndComments
%%BeginProlog
[ /.notdef /.notdef /.notdef /.notdef /.notdef /.notdef /.notdef /.notdef /.notdef /.notdef
/.notdef /.notdef /.notdef /.notdef /.notdef /.notdef /.notdef /.notdef /.notdef /.notdef
/.notdef /.notdef /.notdef /.notdef /.notdef /.notdef /.notdef /.notdef /.notdef /.notdef
/.notdef /.notdef /space /exclam /quotedbl /numbersign /dollar /percent /ampersand /quoteright
/parenleft /parenright /asterisk /plus /comma /hyphen /period /slash /zero /one
/two /three /four /five /six /seven /eight /nine /colon /semicolon
/less /equal /greater /question /at /A /B /C /D /E
/F /G /H /I /J /K /L /M /N /O
/P /Q /R /S /T /U /V /W /X /Y
/Z /bracketleft /backslash /bracketright /asciicircum /underscore /quoteleft /a /b /c
/d /e /f /g /h /i /j /k /l /m
/n /o /p /q /r /s /t /u /v /w
/x /y /z /braceleft /bar /braceright /asciitilde /.notdef /.notdef /.notdef
/.notdef /.notdef /.notdef /.notdef /.notdef /.notdef /.notdef /.notdef /.notdef /.notdef
/.notdef /.notdef /.notdef /.notdef /.notdef /.notdef /.notdef /.notdef /.notdef /.notdef
/.notdef /.notdef /.notdef /.notdef /.notdef /.notdef /.notdef /.notdef /.notdef /.notdef
/space /exclamdown /cent /sterling /currency /yen /brokenbar /section /dieresis /copyright
/ordfeminine /guillemotleft /logicalnot /hyphen /registered /macron /degree /plusminus /twosuperior /threesuperior
/acute /mu /paragraph /periodcentered /cedilla /onesuperior /ordmasculine /guillemotright /onequarter /onehalf
/threequarters /questiondown /Agrave /Aacute /Acircumflex /Atilde /Adieresis /Aring /AE /Ccedilla
/Egrave /Eacute /Ecircumflex /Edieresis /Igrave /Iacute /Icircumflex /Idieresis /Eth /Ntilde
/Ograve /Oacute /Ocircumflex /Otilde /Odieresis /multiply /Oslash /Ugrave /Uacute /Ucircumflex
/Udieresis /Yacute /Thorn /germandbls /agrave /aacute /acircumflex /atilde /adieresis /aring
/ae /ccedilla /egrave /eacute /ecircumflex /edieresis /igrave /iacute /icircumflex /idieresis
/eth /ntilde /ograve /oacute /ocircumflex /otilde /odieresis /divide /oslash /ugrave
/uacute /ucircumflex /udieresis /yacute /thorn /ydieresis] /isolatin1encoding exch def
/cp {closepath} bind def
/c {curveto} bind def
/f {fill} bind def
/a {arc} bind def
/ef {eofill} bind def
/ex {exch} bind def
/gr {grestore} bind def
/gs {gsave} bind def
/sa {save} bind def
/rs {restore} bind def
/l {lineto} bind def
/m {moveto} bind def
/rm {rmoveto} bind def
/n {newpath} bind def
/s {stroke} bind def
/sh {show} bind def
/slc {setlinecap} bind def
/slj {setlinejoin} bind def
/slw {setlinewidth} bind def
/srgb {setrgbcolor} bind def
/rot {rotate} bind def
/sc {scale} bind def
/sd {setdash} bind def
/ff {findfont} bind def
/sf {setfont} bind def
/scf {scalefont} bind def
/sw {stringwidth pop} bind def
/tr {translate} bind def

/ellipsedict 8 dict def
ellipsedict /mtrx matrix put
/ellipse
{ ellipsedict begin
   /endangle exch def
   /startangle exch def
   /yrad exch def
   /xrad exch def
   /y exch def
   /x exch def   /savematrix mtrx currentmatrix def
   x y tr xrad yrad sc
   0 0 1 startangle endangle arc
   savematrix setmatrix
   end
} def

/mergeprocs {
dup length
3 -1 roll
dup
length
dup
5 1 roll
3 -1 roll
add
array cvx
dup
3 -1 roll
0 exch
putinterval
dup
4 2 roll
putinterval
} bind def
/dpi_x 300 def
/dpi_y 300 def
/conicto {
    /to_y exch def
    /to_x exch def
    /conic_cntrl_y exch def
    /conic_cntrl_x exch def
    currentpoint
    /p0_y exch def
    /p0_x exch def
    /p1_x p0_x conic_cntrl_x p0_x sub 2 3 div mul add def
    /p1_y p0_y conic_cntrl_y p0_y sub 2 3 div mul add def
    /p2_x p1_x to_x p0_x sub 1 3 div mul add def
    /p2_y p1_y to_y p0_y sub 1 3 div mul add def
    p1_x p1_y p2_x p2_y to_x to_y curveto
} bind def
/start_ol { gsave 1.1 dpi_x div dup scale} bind def
/end_ol { closepath fill grestore } bind def
28.346000 -28.346000 scale
-9.488750 -5.200000 translate
%%EndProlog


1.000000 1.000000 1.000000 srgb
n 9.538750 3.250000 m 9.538750 5.050000 l 13.248750 5.050000 l 13.248750 3.250000 l f
0.100000 slw
[] 0 sd
0 slj
0.000000 0.000000 0.000000 srgb
n 9.538750 3.250000 m 9.538750 5.050000 l 13.248750 5.050000 l 13.248750 3.250000 l cp s
gsave 10.238750 4.350000 translate 0.035278 -0.035278 scale
start_ol
320 3520 moveto
832 3520 lineto
832 1955 lineto
2331 3520 lineto
2894 3520 lineto
1514 2082 lineto
2934 0 lineto
2355 0 lineto
1198 1764 lineto
832 1377 lineto
832 0 lineto
320 0 lineto
320 3520 lineto
end_ol grestore 
gsave 10.623388 4.350000 translate 0.035278 -0.035278 scale
start_ol
640 2688 moveto
2496 2688 lineto
2496 0 lineto
2048 0 lineto
2048 2368 lineto
1088 2368 lineto
1088 1770 lineto
1088 1309 1055 939 conicto
1022 569 837 284 conicto
653 0 198 0 conicto
64 0 lineto
64 320 lineto
150 320 lineto
358 320 473 464 conicto
589 608 614 950 conicto
640 1292 640 1716 conicto
640 2688 lineto
end_ol grestore 
gsave 11.008026 4.350000 translate 0.035278 -0.035278 scale
start_ol
2048 1942 moveto
896 0 lineto
448 0 lineto
448 2688 lineto
896 2688 lineto
896 746 lineto
2048 2688 lineto
2496 2688 lineto
2496 0 lineto
2048 0 lineto
2048 1942 lineto
end_ol grestore 
gsave 11.392664 4.350000 translate 0.035278 -0.035278 scale
start_ol
2688 1480 moveto
2688 1280 lineto
752 1280 lineto
752 1265 lineto
752 813 981 566 conicto
1210 320 1627 320 conicto
1838 320 2068 383 conicto
2299 447 2560 576 conicto
2560 128 lineto
2311 32 2080 -16 conicto
1850 -64 1634 -64 conicto
1016 -64 668 310 conicto
320 685 320 1344 conicto
320 1986 665 2369 conicto
1010 2752 1584 2752 conicto
2097 2752 2392 2411 conicto
2688 2070 2688 1480 conicto
2240 1600 moveto
2230 1976 2054 2172 conicto
1878 2368 1548 2368 conicto
1225 2368 1016 2164 conicto
807 1960 768 1597 conicto
2240 1600 lineto
end_ol grestore 
gsave 11.777302 4.350000 translate 0.035278 -0.035278 scale
start_ol
2048 1280 moveto
896 1280 lineto
896 0 lineto
448 0 lineto
448 2688 lineto
896 2688 lineto
896 1600 lineto
2048 1600 lineto
2048 2688 lineto
2496 2688 lineto
2496 0 lineto
2048 0 lineto
2048 1280 lineto
end_ol grestore 
gsave 12.161940 4.350000 translate 0.035278 -0.035278 scale
start_ol
1728 2368 moveto
1728 0 lineto
1280 0 lineto
1280 2368 lineto
512 2368 lineto
512 2688 lineto
2496 2688 lineto
2496 2368 lineto
1728 2368 lineto
end_ol grestore 
1.000000 1.000000 1.000000 srgb
n 15.200000 3.350000 m 15.200000 5.150000 l 20.835000 5.150000 l 20.835000 3.350000 l f
0.100000 slw
[] 0 sd
0 slj
0.000000 0.000000 0.000000 srgb
n 15.200000 3.350000 m 15.200000 5.150000 l 20.835000 5.150000 l 20.835000 3.350000 l cp s
gsave 15.900000 4.450000 translate 0.035278 -0.035278 scale
start_ol
896 1728 moveto
896 384 lineto
1434 384 lineto
1835 384 2005 535 conicto
2176 686 2176 1033 conicto
2176 1391 1996 1559 conicto
1816 1728 1434 1728 conicto
896 1728 lineto
896 3136 moveto
896 2112 lineto
1425 2112 lineto
1753 2112 1900 2239 conicto
2048 2367 2048 2651 conicto
2048 2908 1903 3022 conicto
1758 3136 1425 3136 conicto
896 3136 lineto
384 3520 moveto
1434 3520 lineto
1975 3520 2267 3293 conicto
2560 3066 2560 2651 conicto
2560 2337 2399 2156 conicto
2239 1975 1918 1929 conicto
2278 1876 2483 1626 conicto
2688 1376 2688 990 conicto
2688 500 2372 250 conicto
2057 0 1434 0 conicto
384 0 lineto
384 3520 lineto
end_ol grestore 
gsave 16.284638 4.450000 translate 0.035278 -0.035278 scale
start_ol
2688 1480 moveto
2688 1280 lineto
752 1280 lineto
752 1265 lineto
752 813 981 566 conicto
1210 320 1627 320 conicto
1838 320 2068 383 conicto
2299 447 2560 576 conicto
2560 128 lineto
2311 32 2080 -16 conicto
1850 -64 1634 -64 conicto
1016 -64 668 310 conicto
320 685 320 1344 conicto
320 1986 665 2369 conicto
1010 2752 1584 2752 conicto
2097 2752 2392 2411 conicto
2688 2070 2688 1480 conicto
2240 1600 moveto
2230 1976 2054 2172 conicto
1878 2368 1548 2368 conicto
1225 2368 1016 2164 conicto
807 1960 768 1597 conicto
2240 1600 lineto
end_ol grestore 
gsave 16.669276 4.450000 translate 0.035278 -0.035278 scale
start_ol
2176 1344 moveto
2176 2368 1471 2368 conicto
768 2368 768 1344 conicto
768 839 946 579 conicto
1124 320 1471 320 conicto
2176 320 2176 1344 conicto
768 2460 moveto
1043 2752 1551 2752 conicto
2059 2752 2341 2390 conicto
2624 2029 2624 1342 conicto
2624 657 2328 296 conicto
2033 -64 1471 -64 conicto
911 -64 610 303 conicto
309 670 320 1343 conicto
322 1450 320 1491 conicto
304 1890 lineto
292 2175 292 2273 conicto
292 2371 297 2407 conicto
344 2764 430 2938 conicto
648 3381 1048 3584 conicto
1354 3759 2034 3791 conicto
2156 3797 2240 3840 conicto
2432 3520 lineto
2352 3485 2234 3471 conicto
1683 3407 lineto
1458 3380 1287 3264 conicto
835 2977 786 2603 conicto
768 2460 lineto
end_ol grestore 
gsave 17.053914 4.450000 translate 0.035278 -0.035278 scale
start_ol
832 1536 moveto
2048 1536 lineto
2048 1152 lineto
832 1152 lineto
832 1536 lineto
end_ol grestore 
gsave 17.438552 4.450000 translate 0.035278 -0.035278 scale
start_ol
2176 1344 moveto
2176 2368 1471 2368 conicto
768 2368 768 1344 conicto
768 839 946 579 conicto
1124 320 1471 320 conicto
2176 320 2176 1344 conicto
768 2460 moveto
1043 2752 1551 2752 conicto
2059 2752 2341 2390 conicto
2624 2029 2624 1342 conicto
2624 657 2328 296 conicto
2033 -64 1471 -64 conicto
911 -64 610 303 conicto
309 670 320 1343 conicto
322 1450 320 1491 conicto
304 1890 lineto
292 2175 292 2273 conicto
292 2371 297 2407 conicto
344 2764 430 2938 conicto
648 3381 1048 3584 conicto
1354 3759 2034 3791 conicto
2156 3797 2240 3840 conicto
2432 3520 lineto
2352 3485 2234 3471 conicto
1683 3407 lineto
1458 3380 1287 3264 conicto
835 2977 786 2603 conicto
768 2460 lineto
end_ol grestore 
gsave 17.823190 4.450000 translate 0.035278 -0.035278 scale
start_ol
896 353 moveto
896 -1024 lineto
448 -1024 lineto
448 2688 lineto
896 2688 lineto
896 2335 lineto
1012 2539 1206 2645 conicto
1400 2752 1653 2752 conicto
2167 2752 2459 2376 conicto
2752 2000 2752 1334 conicto
2752 681 2458 308 conicto
2165 -64 1653 -64 conicto
1395 -64 1201 42 conicto
1007 149 896 353 conicto
2304 1344 moveto
2304 1851 2128 2109 conicto
1952 2368 1605 2368 conicto
1256 2368 1076 2108 conicto
896 1849 896 1344 conicto
896 841 1076 580 conicto
1256 320 1605 320 conicto
1952 320 2128 578 conicto
2304 837 2304 1344 conicto
end_ol grestore 
gsave 18.207828 4.450000 translate 0.035278 -0.035278 scale
start_ol
1653 1344 moveto
1513 1344 lineto
1143 1344 955 1212 conicto
768 1080 768 818 conicto
768 582 908 451 conicto
1048 320 1297 320 conicto
1646 320 1846 566 conicto
2046 813 2048 1248 conicto
2048 1344 lineto
1653 1344 lineto
2496 1513 moveto
2496 0 lineto
2048 0 lineto
2048 416 lineto
1910 170 1701 53 conicto
1493 -64 1194 -64 conicto
796 -64 558 162 conicto
320 389 320 769 conicto
320 1209 614 1436 conicto
909 1664 1480 1664 conicto
2048 1664 lineto
2048 1737 lineto
2046 2069 1889 2218 conicto
1733 2368 1391 2368 conicto
1172 2368 948 2303 conicto
724 2238 512 2112 conicto
512 2560 lineto
752 2656 971 2704 conicto
1191 2752 1398 2752 conicto
1725 2752 1956 2652 conicto
2188 2552 2331 2352 conicto
2421 2230 2458 2051 conicto
2496 1872 2496 1513 conicto
end_ol grestore 
gsave 18.592466 4.450000 translate 0.035278 -0.035278 scale
start_ol
2051 871 moveto
1942 589 1773 128 conicto
1537 -508 1456 -648 conicto
1347 -836 1183 -930 conicto
1019 -1024 800 -1024 conicto
448 -1024 lineto
448 -640 lineto
707 -640 lineto
900 -640 1009 -527 conicto
1118 -415 1287 53 conicto
256 2688 lineto
721 2688 lineto
1511 586 lineto
2288 2688 lineto
2752 2688 lineto
2051 871 lineto
end_ol grestore 
gsave 18.977104 4.450000 translate 0.035278 -0.035278 scale
start_ol
1841 1447 moveto
2154 1392 2325 1214 conicto
2496 1036 2496 774 conicto
2496 376 2169 156 conicto
1842 -64 1241 -64 conicto
1040 -64 825 -16 conicto
611 32 384 128 conicto
384 512 lineto
562 417 774 368 conicto
987 320 1221 320 conicto
1625 320 1836 448 conicto
2048 576 2048 815 conicto
2048 1012 1855 1146 conicto
1663 1280 1320 1280 conicto
960 1280 lineto
960 1600 lineto
1340 1600 lineto
1653 1600 1818 1708 conicto
1984 1817 1984 1969 conicto
1984 2154 1812 2261 conicto
1641 2368 1323 2368 conicto
1150 2368 951 2337 conicto
752 2306 512 2240 conicto
512 2624 lineto
757 2688 971 2720 conicto
1185 2752 1372 2752 conicto
1862 2752 2147 2561 conicto
2432 2370 2432 2046 conicto
2432 1819 2277 1663 conicto
2123 1507 1841 1447 conicto
end_ol grestore 
gsave 19.361742 4.450000 translate 0.035278 -0.035278 scale
start_ol
2688 1480 moveto
2688 1280 lineto
752 1280 lineto
752 1265 lineto
752 813 981 566 conicto
1210 320 1627 320 conicto
1838 320 2068 383 conicto
2299 447 2560 576 conicto
2560 128 lineto
2311 32 2080 -16 conicto
1850 -64 1634 -64 conicto
1016 -64 668 310 conicto
320 685 320 1344 conicto
320 1986 665 2369 conicto
1010 2752 1584 2752 conicto
2097 2752 2392 2411 conicto
2688 2070 2688 1480 conicto
2240 1600 moveto
2230 1976 2054 2172 conicto
1878 2368 1548 2368 conicto
1225 2368 1016 2164 conicto
807 1960 768 1597 conicto
2240 1600 lineto
end_ol grestore 
gsave 19.746380 4.450000 translate 0.035278 -0.035278 scale
start_ol
896 353 moveto
896 -1024 lineto
448 -1024 lineto
448 2688 lineto
896 2688 lineto
896 2335 lineto
1012 2539 1206 2645 conicto
1400 2752 1653 2752 conicto
2167 2752 2459 2376 conicto
2752 2000 2752 1334 conicto
2752 681 2458 308 conicto
2165 -64 1653 -64 conicto
1395 -64 1201 42 conicto
1007 149 896 353 conicto
2304 1344 moveto
2304 1851 2128 2109 conicto
1952 2368 1605 2368 conicto
1256 2368 1076 2108 conicto
896 1849 896 1344 conicto
896 841 1076 580 conicto
1256 320 1605 320 conicto
1952 320 2128 578 conicto
2304 837 2304 1344 conicto
end_ol grestore 
1.000000 1.000000 1.000000 srgb
n 22.603800 3.350000 m 22.603800 5.150000 l 29.393800 5.150000 l 29.393800 3.350000 l f
0.100000 slw
[] 0 sd
0 slj
0.000000 0.000000 0.000000 srgb
n 22.603800 3.350000 m 22.603800 5.150000 l 29.393800 5.150000 l 29.393800 3.350000 l cp s
gsave 23.303800 4.450000 translate 0.035278 -0.035278 scale
start_ol
896 1728 moveto
896 384 lineto
1434 384 lineto
1835 384 2005 535 conicto
2176 686 2176 1033 conicto
2176 1391 1996 1559 conicto
1816 1728 1434 1728 conicto
896 1728 lineto
896 3136 moveto
896 2112 lineto
1425 2112 lineto
1753 2112 1900 2239 conicto
2048 2367 2048 2651 conicto
2048 2908 1903 3022 conicto
1758 3136 1425 3136 conicto
896 3136 lineto
384 3520 moveto
1434 3520 lineto
1975 3520 2267 3293 conicto
2560 3066 2560 2651 conicto
2560 2337 2399 2156 conicto
2239 1975 1918 1929 conicto
2278 1876 2483 1626 conicto
2688 1376 2688 990 conicto
2688 500 2372 250 conicto
2057 0 1434 0 conicto
384 0 lineto
384 3520 lineto
end_ol grestore 
gsave 23.688438 4.450000 translate 0.035278 -0.035278 scale
start_ol
2688 1480 moveto
2688 1280 lineto
752 1280 lineto
752 1265 lineto
752 813 981 566 conicto
1210 320 1627 320 conicto
1838 320 2068 383 conicto
2299 447 2560 576 conicto
2560 128 lineto
2311 32 2080 -16 conicto
1850 -64 1634 -64 conicto
1016 -64 668 310 conicto
320 685 320 1344 conicto
320 1986 665 2369 conicto
1010 2752 1584 2752 conicto
2097 2752 2392 2411 conicto
2688 2070 2688 1480 conicto
2240 1600 moveto
2230 1976 2054 2172 conicto
1878 2368 1548 2368 conicto
1225 2368 1016 2164 conicto
807 1960 768 1597 conicto
2240 1600 lineto
end_ol grestore 
gsave 24.073076 4.450000 translate 0.035278 -0.035278 scale
start_ol
2176 1344 moveto
2176 2368 1471 2368 conicto
768 2368 768 1344 conicto
768 839 946 579 conicto
1124 320 1471 320 conicto
2176 320 2176 1344 conicto
768 2460 moveto
1043 2752 1551 2752 conicto
2059 2752 2341 2390 conicto
2624 2029 2624 1342 conicto
2624 657 2328 296 conicto
2033 -64 1471 -64 conicto
911 -64 610 303 conicto
309 670 320 1343 conicto
322 1450 320 1491 conicto
304 1890 lineto
292 2175 292 2273 conicto
292 2371 297 2407 conicto
344 2764 430 2938 conicto
648 3381 1048 3584 conicto
1354 3759 2034 3791 conicto
2156 3797 2240 3840 conicto
2432 3520 lineto
2352 3485 2234 3471 conicto
1683 3407 lineto
1458 3380 1287 3264 conicto
835 2977 786 2603 conicto
768 2460 lineto
end_ol grestore 
gsave 24.457714 4.450000 translate 0.035278 -0.035278 scale
start_ol
832 1536 moveto
2048 1536 lineto
2048 1152 lineto
832 1152 lineto
832 1536 lineto
end_ol grestore 
gsave 24.842352 4.450000 translate 0.035278 -0.035278 scale
start_ol
2048 2368 moveto
896 2368 lineto
896 0 lineto
448 0 lineto
448 2688 lineto
2496 2688 lineto
2496 0 lineto
2048 0 lineto
2048 2368 lineto
end_ol grestore 
gsave 25.226990 4.450000 translate 0.035278 -0.035278 scale
start_ol
896 353 moveto
896 -1024 lineto
448 -1024 lineto
448 2688 lineto
896 2688 lineto
896 2335 lineto
1012 2539 1206 2645 conicto
1400 2752 1653 2752 conicto
2167 2752 2459 2376 conicto
2752 2000 2752 1334 conicto
2752 681 2458 308 conicto
2165 -64 1653 -64 conicto
1395 -64 1201 42 conicto
1007 149 896 353 conicto
2304 1344 moveto
2304 1851 2128 2109 conicto
1952 2368 1605 2368 conicto
1256 2368 1076 2108 conicto
896 1849 896 1344 conicto
896 841 1076 580 conicto
1256 320 1605 320 conicto
1952 320 2128 578 conicto
2304 837 2304 1344 conicto
end_ol grestore 
gsave 25.611628 4.450000 translate 0.035278 -0.035278 scale
start_ol
2048 1942 moveto
896 0 lineto
448 0 lineto
448 2688 lineto
896 2688 lineto
896 746 lineto
2048 2688 lineto
2496 2688 lineto
2496 0 lineto
2048 0 lineto
2048 1942 lineto
end_ol grestore 
gsave 25.996266 4.450000 translate 0.035278 -0.035278 scale
start_ol
640 2688 moveto
2496 2688 lineto
2496 0 lineto
2048 0 lineto
2048 2368 lineto
1088 2368 lineto
1088 1770 lineto
1088 1309 1055 939 conicto
1022 569 837 284 conicto
653 0 198 0 conicto
64 0 lineto
64 320 lineto
150 320 lineto
358 320 473 464 conicto
589 608 614 950 conicto
640 1292 640 1716 conicto
640 2688 lineto
end_ol grestore 
gsave 26.380904 4.450000 translate 0.035278 -0.035278 scale
start_ol
1471 2368 moveto
1124 2368 946 2109 conicto
768 1851 768 1344 conicto
768 839 946 579 conicto
1124 320 1471 320 conicto
1820 320 1998 579 conicto
2176 839 2176 1344 conicto
2176 1851 1998 2109 conicto
1820 2368 1471 2368 conicto
1471 2752 moveto
2031 2752 2327 2390 conicto
2624 2029 2624 1344 conicto
2624 657 2328 296 conicto
2033 -64 1471 -64 conicto
911 -64 615 296 conicto
320 657 320 1344 conicto
320 2029 615 2390 conicto
911 2752 1471 2752 conicto
end_ol grestore 
gsave 26.765542 4.450000 translate 0.035278 -0.035278 scale
start_ol
1280 2688 moveto
1792 2688 lineto
1792 1651 lineto
2397 2688 lineto
2870 2688 lineto
2303 1718 lineto
2918 0 lineto
2493 0 lineto
2039 1267 lineto
1792 842 lineto
1792 0 lineto
1280 0 lineto
1280 842 lineto
1033 1267 lineto
579 0 lineto
154 0 lineto
769 1718 lineto
202 2688 lineto
675 2688 lineto
1280 1651 lineto
1280 2688 lineto
end_ol grestore 
gsave 27.150180 4.450000 translate 0.035278 -0.035278 scale
start_ol
2688 1480 moveto
2688 1280 lineto
752 1280 lineto
752 1265 lineto
752 813 981 566 conicto
1210 320 1627 320 conicto
1838 320 2068 383 conicto
2299 447 2560 576 conicto
2560 128 lineto
2311 32 2080 -16 conicto
1850 -64 1634 -64 conicto
1016 -64 668 310 conicto
320 685 320 1344 conicto
320 1986 665 2369 conicto
1010 2752 1584 2752 conicto
2097 2752 2392 2411 conicto
2688 2070 2688 1480 conicto
2240 1600 moveto
2230 1976 2054 2172 conicto
1878 2368 1548 2368 conicto
1225 2368 1016 2164 conicto
807 1960 768 1597 conicto
2240 1600 lineto
end_ol grestore 
gsave 27.534818 4.450000 translate 0.035278 -0.035278 scale
start_ol
2048 1280 moveto
896 1280 lineto
896 0 lineto
448 0 lineto
448 2688 lineto
896 2688 lineto
896 1600 lineto
2048 1600 lineto
2048 2688 lineto
2496 2688 lineto
2496 0 lineto
2048 0 lineto
2048 1280 lineto
end_ol grestore 
gsave 27.919456 4.450000 translate 0.035278 -0.035278 scale
start_ol
2048 1942 moveto
896 0 lineto
448 0 lineto
448 2688 lineto
896 2688 lineto
896 746 lineto
2048 2688 lineto
2496 2688 lineto
2496 0 lineto
2048 0 lineto
2048 1942 lineto
end_ol grestore 
gsave 28.304094 4.450000 translate 0.035278 -0.035278 scale
start_ol
2688 1480 moveto
2688 1280 lineto
752 1280 lineto
752 1265 lineto
752 813 981 566 conicto
1210 320 1627 320 conicto
1838 320 2068 383 conicto
2299 447 2560 576 conicto
2560 128 lineto
2311 32 2080 -16 conicto
1850 -64 1634 -64 conicto
1016 -64 668 310 conicto
320 685 320 1344 conicto
320 1986 665 2369 conicto
1010 2752 1584 2752 conicto
2097 2752 2392 2411 conicto
2688 2070 2688 1480 conicto
2240 1600 moveto
2230 1976 2054 2172 conicto
1878 2368 1548 2368 conicto
1225 2368 1016 2164 conicto
807 1960 768 1597 conicto
2240 1600 lineto
end_ol grestore 
1.000000 1.000000 1.000000 srgb
n 31.131300 3.300000 m 31.131300 5.100000 l 36.766300 5.100000 l 36.766300 3.300000 l f
0.100000 slw
[] 0 sd
0 slj
0.000000 0.000000 0.000000 srgb
n 31.131300 3.300000 m 31.131300 5.100000 l 36.766300 5.100000 l 36.766300 3.300000 l cp s
gsave 31.831300 4.400000 translate 0.035278 -0.035278 scale
start_ol
896 1728 moveto
896 384 lineto
1443 384 lineto
1839 384 2007 535 conicto
2176 686 2176 1033 conicto
2176 1391 1998 1559 conicto
1821 1728 1443 1728 conicto
896 1728 lineto
2496 3136 moveto
896 3136 lineto
896 2112 lineto
1434 2112 lineto
2326 2076 2563 1616 conicto
2688 1375 2688 987 conicto
2688 498 2375 250 conicto
2062 0 1443 0 conicto
384 0 lineto
384 3520 lineto
2496 3520 lineto
2496 3136 lineto
end_ol grestore 
gsave 32.215938 4.400000 translate 0.035278 -0.035278 scale
start_ol
1653 1344 moveto
1513 1344 lineto
1143 1344 955 1212 conicto
768 1080 768 818 conicto
768 582 908 451 conicto
1048 320 1297 320 conicto
1646 320 1846 566 conicto
2046 813 2048 1248 conicto
2048 1344 lineto
1653 1344 lineto
2496 1513 moveto
2496 0 lineto
2048 0 lineto
2048 416 lineto
1910 170 1701 53 conicto
1493 -64 1194 -64 conicto
796 -64 558 162 conicto
320 389 320 769 conicto
320 1209 614 1436 conicto
909 1664 1480 1664 conicto
2048 1664 lineto
2048 1737 lineto
2046 2069 1889 2218 conicto
1733 2368 1391 2368 conicto
1172 2368 948 2303 conicto
724 2238 512 2112 conicto
512 2560 lineto
752 2656 971 2704 conicto
1191 2752 1398 2752 conicto
1725 2752 1956 2652 conicto
2188 2552 2331 2352 conicto
2421 2230 2458 2051 conicto
2496 1872 2496 1513 conicto
end_ol grestore 
gsave 32.600576 4.400000 translate 0.035278 -0.035278 scale
start_ol
1841 1447 moveto
2154 1392 2325 1214 conicto
2496 1036 2496 774 conicto
2496 376 2169 156 conicto
1842 -64 1241 -64 conicto
1040 -64 825 -16 conicto
611 32 384 128 conicto
384 512 lineto
562 417 774 368 conicto
987 320 1221 320 conicto
1625 320 1836 448 conicto
2048 576 2048 815 conicto
2048 1012 1855 1146 conicto
1663 1280 1320 1280 conicto
960 1280 lineto
960 1600 lineto
1340 1600 lineto
1653 1600 1818 1708 conicto
1984 1817 1984 1969 conicto
1984 2154 1812 2261 conicto
1641 2368 1323 2368 conicto
1150 2368 951 2337 conicto
752 2306 512 2240 conicto
512 2624 lineto
757 2688 971 2720 conicto
1185 2752 1372 2752 conicto
1862 2752 2147 2561 conicto
2432 2370 2432 2046 conicto
2432 1819 2277 1663 conicto
2123 1507 1841 1447 conicto
end_ol grestore 
gsave 32.985214 4.400000 translate 0.035278 -0.035278 scale
start_ol
1653 1344 moveto
1513 1344 lineto
1143 1344 955 1212 conicto
768 1080 768 818 conicto
768 582 908 451 conicto
1048 320 1297 320 conicto
1646 320 1846 566 conicto
2046 813 2048 1248 conicto
2048 1344 lineto
1653 1344 lineto
2496 1513 moveto
2496 0 lineto
2048 0 lineto
2048 416 lineto
1910 170 1701 53 conicto
1493 -64 1194 -64 conicto
796 -64 558 162 conicto
320 389 320 769 conicto
320 1209 614 1436 conicto
909 1664 1480 1664 conicto
2048 1664 lineto
2048 1737 lineto
2046 2069 1889 2218 conicto
1733 2368 1391 2368 conicto
1172 2368 948 2303 conicto
724 2238 512 2112 conicto
512 2560 lineto
752 2656 971 2704 conicto
1191 2752 1398 2752 conicto
1725 2752 1956 2652 conicto
2188 2552 2331 2352 conicto
2421 2230 2458 2051 conicto
2496 1872 2496 1513 conicto
end_ol grestore 
gsave 33.369852 4.400000 translate 0.035278 -0.035278 scale
start_ol
end_ol grestore 
gsave 33.754490 4.400000 translate 0.035278 -0.035278 scale
start_ol
2432 320 moveto
2688 320 lineto
2688 -704 lineto
2240 -704 lineto
2240 0 lineto
704 0 lineto
704 -704 lineto
256 -704 lineto
256 320 lineto
423 320 lineto
560 320 600 874 conicto
640 1428 640 1672 conicto
640 2688 lineto
2432 2688 lineto
2432 320 lineto
1984 320 moveto
1984 2368 lineto
1088 2368 lineto
1088 1694 lineto
1088 1444 1040 827 conicto
1021 467 1004 426 conicto
988 385 988 352 conicto
988 320 1069 320 conicto
1984 320 lineto
end_ol grestore 
gsave 34.139128 4.400000 translate 0.035278 -0.035278 scale
start_ol
1653 1344 moveto
1513 1344 lineto
1143 1344 955 1212 conicto
768 1080 768 818 conicto
768 582 908 451 conicto
1048 320 1297 320 conicto
1646 320 1846 566 conicto
2046 813 2048 1248 conicto
2048 1344 lineto
1653 1344 lineto
2496 1513 moveto
2496 0 lineto
2048 0 lineto
2048 416 lineto
1910 170 1701 53 conicto
1493 -64 1194 -64 conicto
796 -64 558 162 conicto
320 389 320 769 conicto
320 1209 614 1436 conicto
909 1664 1480 1664 conicto
2048 1664 lineto
2048 1737 lineto
2046 2069 1889 2218 conicto
1733 2368 1391 2368 conicto
1172 2368 948 2303 conicto
724 2238 512 2112 conicto
512 2560 lineto
752 2656 971 2704 conicto
1191 2752 1398 2752 conicto
1725 2752 1956 2652 conicto
2188 2552 2331 2352 conicto
2421 2230 2458 2051 conicto
2496 1872 2496 1513 conicto
end_ol grestore 
gsave 34.523766 4.400000 translate 0.035278 -0.035278 scale
start_ol
2048 1280 moveto
896 1280 lineto
896 0 lineto
448 0 lineto
448 2688 lineto
896 2688 lineto
896 1600 lineto
2048 1600 lineto
2048 2688 lineto
2496 2688 lineto
2496 0 lineto
2048 0 lineto
2048 1280 lineto
end_ol grestore 
gsave 34.908404 4.400000 translate 0.035278 -0.035278 scale
start_ol
2048 1280 moveto
896 1280 lineto
896 0 lineto
448 0 lineto
448 2688 lineto
896 2688 lineto
896 1600 lineto
2048 1600 lineto
2048 2688 lineto
2496 2688 lineto
2496 0 lineto
2048 0 lineto
2048 1280 lineto
end_ol grestore 
gsave 35.293042 4.400000 translate 0.035278 -0.035278 scale
start_ol
2304 0 moveto
2304 2688 lineto
2752 2688 lineto
2752 0 lineto
2304 0 lineto
704 320 moveto
907 320 lineto
1209 320 1372 438 conicto
1536 556 1536 797 conicto
1536 1039 1369 1159 conicto
1202 1280 907 1280 conicto
704 1280 lineto
704 320 lineto
256 0 moveto
256 2688 lineto
704 2688 lineto
704 1600 lineto
921 1600 lineto
1419 1600 1701 1399 conicto
1984 1199 1984 796 conicto
1984 393 1705 196 conicto
1426 0 912 0 conicto
256 0 lineto
end_ol grestore 
gsave 35.677680 4.400000 translate 0.035278 -0.035278 scale
start_ol
2688 2688 moveto
1716 1402 lineto
2752 0 lineto
2248 0 lineto
1471 1078 lineto
696 0 lineto
192 0 lineto
1228 1402 lineto
256 2688 lineto
751 2688 lineto
1471 1716 lineto
2186 2688 lineto
2688 2688 lineto
end_ol grestore 
0.100000 slw
[] 0 sd
[] 0 sd
0 slc
n 13.299198 4.200061 m 14.713365 4.237215 l s
[] 0 sd
0 slj
0 slc
n 15.088235 4.247064 m 14.581842 4.483846 l 14.713365 4.237215 l 14.594974 3.984018 l ef
n 15.088235 4.247064 m 14.581842 4.483846 l 14.713365 4.237215 l 14.594974 3.984018 l cp s
0.100000 slw
[] 0 sd
[] 0 sd
0 slc
n 20.884497 4.250000 m 22.116997 4.250000 l s
[] 0 sd
0 slj
0 slc
n 22.491997 4.250000 m 21.991997 4.500000 l 22.116997 4.250000 l 21.991997 4.000000 l ef
n 22.491997 4.250000 m 21.991997 4.500000 l 22.116997 4.250000 l 21.991997 4.000000 l cp s
0.100000 slw
[] 0 sd
[] 0 sd
0 slc
n 29.393800 4.250000 m 30.644698 4.214003 l s
[] 0 sd
0 slj
0 slc
n 31.019543 4.203216 m 30.526941 4.467495 l 30.644698 4.214003 l 30.512558 3.967702 l ef
n 31.019543 4.203216 m 30.526941 4.467495 l 30.644698 4.214003 l 30.512558 3.967702 l cp s
showpage
